﻿bm_sengoku1582 = {
	start_date = 1582.2.25
	is_playable = yes
	group = bm_group_oda_government

	character = {
		name = "bm_sengoku1582_oda_nobutada"
		dynasty = 10000280
		dynasty_splendor_level = 3
		type = male
		birth = 1555.1.1
		title = d_nmih_mino
		government = feudal_government
		culture = western_chubu
		religion = shinto
		difficulty = "BOOKMARK_CHARACTER_DIFFICULTY_EASY"
		history_id = 10029160
		position = { 300 200 }

		animation = personality_content
	}

	character = {
		name = "bm_sengoku1582_tokugawa_ieyasu"
		dynasty = 10000239
		dynasty_splendor_level = 1
		type = male
		birth = 1543.1.31
		title = d_nmih_mikawa
		government = feudal_government
		culture = tokai
		religion = shinto
		difficulty = "BOOKMARK_CHARACTER_DIFFICULTY_MEDIUM"
		history_id = 10024006
		position = { 550 200 }

		animation = personality_cynical
	}

	character = {
		name = "bm_sengoku1582_takeda_katsuyori"
		dynasty = 10000200
		dynasty_splendor_level = 5
		type = male
		birth = 1546.1.1
		title = k_nmih_tokai
		government = feudal_government
		culture = koshin
		religion = shinto
		difficulty = "BOOKMARK_CHARACTER_DIFFICULTY_HARD"
		history_id = 10020033
		position = { 800 200 }

		animation = personality_callous
	}

	character = {
		name = "bm_sengoku1582_akechi_mitsuhide"
		dynasty = 10000269
		dynasty_splendor_level = 4
		type = male
		birth = 1528.9.13
		title = d_nmih_tanba
		government = feudal_government
		culture = western_chubu
		religion = shinto
		difficulty = "BOOKMARK_CHARACTER_DIFFICULTY_MEDIUM"
		history_id = 10025632
		position = { 300 475 }

		animation = personality_rational
	}

	character = {
		name = "bm_sengoku1582_uesugi_kagekatsu"
		dynasty = 10000100
		dynasty_splendor_level = 4
		type = male
		birth = 1556.1.8
		title = k_nmih_kanto_kanrei
		government = feudal_government
		culture = eastern_hokuriku
		religion = shinto
		difficulty = "BOOKMARK_CHARACTER_DIFFICULTY_HARD"
		history_id = 10032032
		position = { 1200 250 }

		animation = personality_honorable
	}

	character = {
		name = "bm_sengoku1582_shibata_katsuie"
		dynasty = 10000698
		dynasty_splendor_level = 1
		type = male
		birth = 1522.1.1
		title = d_nmih_echizen
		government = feudal_government
		culture = western_chubu
		religion = shinto
		difficulty = "BOOKMARK_CHARACTER_DIFFICULTY_MEDIUM"
		history_id = 10029280
		position = { 1200 500 }

		animation = personality_bold
	}

	character = {
		name = "bm_sengoku1582_anayama_nobutada"
		dynasty = 10000219
		dynasty_splendor_level = 5
		type = male
		birth = 1541.1.1
		title = d_nmih_suruga
		government = feudal_government
		culture = koshin
		religion = shinto
		difficulty = "BOOKMARK_CHARACTER_DIFFICULTY_HARD"
		history_id = 10020056
		position = { 1175 800 }

		animation = personality_dishonorable
	}

	character = {
		name = "bm_sengoku1582_mori_terumoto"
		dynasty = 10000560
		dynasty_splendor_level = 2
		type = male
		birth = 1553.2.4
		title = k_nmih_western_chugoku
		government = feudal_government
		culture = western_chugoku
		religion = shinto
		difficulty = "BOOKMARK_CHARACTER_DIFFICULTY_HARD"
		history_id = 10056025
		position = { 600 800 }

		animation = personality_compassionate
	}

	character = {
		name = "bm_sengoku1582_hashiba_hideyoshi"
		dynasty = 10000283
		dynasty_splendor_level = 1
		type = male
		birth = 1537.3.17
		title = d_nmih_harima
		government = feudal_government
		culture = western_chubu
		religion = shinto
		difficulty = "BOOKMARK_CHARACTER_DIFFICULTY_EASY"
		history_id = 10029400
		position = { 850 800 }

		animation = personality_greedy
	}
}
