605 = {

	culture = donan_ainu
	religion = ainu
	holding = tribal_holding
	100.1.1 = {
		culture = hokkaido_ainu
	}
	900.1.1 = {
		culture = donan_ainu
	}
	1190.1.1 = {
		culture = hokkaido_wajin
		religion = shinto
		holding = castle_holding
	}
	1440.1.1 = {
	}
	1457.1.1 = {
	}
	1513.6.1 = {
	}
	1514.1.1 = {
	}
	1525.1.1 = {
		culture = donan_ainu
		religion = ainu
		holding = tribal_holding
	}
	1613.1.1={
		culture = hokkaido_wajin
		religion = shinto
		holding = castle_holding
	}

}
