620 = {

	culture = doo_ainu
	religion = ainu
	holding = tribal_holding
	100.1.1 = {
		culture = hokkaido_ainu
	}
	900.1.1 = {
		culture = doo_ainu
	}
	1725.1.1 = {
		culture = hokkaido_wajin
		religion = shinto
		holding = castle_holding
	}

}
