647 = {

	culture = dohoku_ainu
	religion = ainu
	holding = tribal_holding
	100.1.1 = {
		culture = old_okhotsk
		religion = nivkh
	}
	900.1.1 = {
		culture = dohoku_ainu
		religion = ainu
	}
}
