687 = {

	culture = doto_ainu
	religion = ainu
	holding = tribal_holding
	100.1.1 = {
		culture = old_okhotsk
	}
	1400.1.1 = {
		culture = doto_ainu
	}
	1814.1.1 = {
		culture = hokkaido_wajin
		religion = shinto
		holding = castle_holding
	}
}
