﻿12240050={
	name=character_name_12240050 # Ryoson
	dynasty=10007299 # Hakonesan
	religion="shinto"
	culture="kanto_buddhist"
	learning=8
	trait="education_learning_3"
#	trait="shugendo_buddhist"
	1110.01.01={
		birth=yes
	}
	1120.1.1={
		effect = {
			add_trait = "devoted"
#			add_trait = "shugendo_buddhist"
		}
	}
	1170.01.01={
		death=yes
	}
}
12240051={
	name=character_name_12240051 # Gyojitsu
	dynasty=10007299 # Hakonesan
	father=12240050 # Ryoson
	religion="shinto"
	culture="kanto_buddhist"
	learning=10
	trait="education_learning_4"
#	trait="shugendo_buddhist"
	1135.01.01={
		birth=yes
	}
	1145.1.1={
		effect = {
			add_trait = "devoted"
#			add_trait = "shugendo_buddhist"
		}
	}
	1195.01.01={
		death=yes
	}
}
12240052={
	name=character_name_12240052 # Eijitsu
	dynasty=10007299 # Hakonesan
	father=12240050 # Ryoson
	religion="shinto"
	culture="kanto_buddhist"
	learning=9
	trait="education_learning_3"
#	trait="shugendo_buddhist"
	1140.01.01={
		birth=yes
	}
	1150.1.1={
		effect = {
			add_trait = "devoted"
#			add_trait = "shugendo_buddhist"
		}
	}
	1200.01.01={
		death=yes
	}
}
12240100={
	name=character_name_12240100 # Kakuen
	dynasty=10007300 # Izusan
	religion="shinto"
	culture="kanto_buddhist"
	learning=9
	trait="education_learning_3"
#	trait="shugendo_buddhist"
	1130.01.01={
		birth=yes
	}
	1140.1.1={
		effect = {
			add_trait = "devoted"
		}
	}
	1195.01.01={
		death=yes
	}
}
12240101={
	name=character_name_12240101 # Ryosen
	dynasty=10007299 # Hakonesan
	father=12240050 # Ryoson
	religion="shinto"
	culture="kanto_buddhist"
	learning=9
	trait="education_learning_3"
#	trait="shugendo_buddhist"
	1145.01.01={
		birth=yes
	}
	1155.1.1={
		effect = {
			add_trait = "devoted"
		}
	}
	1200.01.01={
		death=yes
	}
}
12240200={
	name=character_name_12240200 # Jonin
	dynasty=10007366 # Toki
	stewardship=12
	learning=10
	trait="education_learning_3"
	trait="zealous"
	religion="shinto"
	culture="kanto_buddhist"
	1216.1.1={
		birth=yes
	}
	1253.1.1={
		religion="hokkeshu"
	}
	1299.4.21={
		death=yes
	}
}
12240201={
	name=character_name_12240201 # Nichiko
	dynasty=10007367 # Hokekyoji
	learning=8
	trait="devoted"
	trait="education_learning_3"
	religion="hokkeshu"
	culture="kanto_buddhist"
	1257.1.1={
		birth=yes
	}
	1314.6.9={
		death=yes
	}
}
12240202={
	name=character_name_12240202 # Nichiyu
	dynasty=10007367 # Hokekyoji
	learning=8
	trait="devoted"
	trait="education_learning_3"
	religion="hokkeshu"
	culture="kanto_buddhist"
	1298.1.1={
		birth=yes
	}
	1374.6.29={
		death=yes
	}
}
12240203={
	name=character_name_12240203 # Nisson
	dynasty=10007367 # Hokekyoji
	learning=8
	trait="devoted"
	trait="education_learning_3"
	religion="hokkeshu"
	culture="kanto_buddhist"
	1323.1.1={
		birth=yes
	}
	1399.9.7={
		death=yes
	}
}
12240204={
	name=character_name_12240204 # Nissen
	dynasty=10007367 # Hokekyoji
	learning=8
	trait="devoted"
	trait="education_learning_3"
	religion="hokkeshu"
	culture="kanto_buddhist"
	1349.1.1={
		birth=yes
	}
	1422.6.7={
		death=yes
	}
}
12240205={
	name=character_name_12240205 # Nissatsu
	dynasty=10007367 # Hokekyoji
	learning=8
	trait="devoted"
	trait="education_learning_3"
	religion="hokkeshu"
	culture="kanto_buddhist"
	1392.1.1={
		birth=yes
	}
	1422.10.3={
		death=yes
	}
}
12240206={
	name=character_name_12240206 # Nichiyu
	dynasty=10007367 # Hokekyoji
	learning=8
	trait="devoted"
	trait="education_learning_3"
	religion="hokkeshu"
	culture="kanto_buddhist"
	1394.1.1={
		birth=yes
	}
	1448.1.1={
		death=yes
	}
}
12240207={
	name=character_name_12240207 # Nichiin
	dynasty=10007367 # Hokekyoji
	learning=8
	trait="devoted"
	trait="education_learning_3"
	religion="hokkeshu"
	culture="kanto_buddhist"
	1417.1.1={
		birth=yes
	}
	1501.6.6={
		death=yes
	}
}
12240208={
	name=character_name_12240208 # Nichiken
	dynasty=10007367 # Hokekyoji
	learning=8
	trait="devoted"
	trait="education_learning_3"
	religion="hokkeshu"
	culture="kanto_buddhist"
	1489.1.1={
		birth=yes
	}
	1524.2.28={
		death=yes
	}
}
12240209={
	name=character_name_12240209 # Nichikan
	dynasty=10007367 # Hokekyoji
	learning=8
	trait="devoted"
	trait="education_learning_3"
	religion="hokkeshu"
	culture="kanto_buddhist"
	1515.1.1={
		birth=yes
	}
	1598.5.29={
		death=yes
	}
}
12240210={
	name=character_name_12240210 # Nichiten
	dynasty=10007367 # Hokekyoji
	learning=8
	trait="devoted"
	trait="education_learning_3"
	religion="hokkeshu"
	culture="kanto_buddhist"
	1550.1.1={
		birth=yes
	}
	1617.10.14={
		death=yes
	}
}
12240211={
	name=character_name_12240211 # Nichiko
	dynasty=10007367 # Hokekyoji
	religion="hokkeshu"
	culture="kanto_buddhist"
	1532.1.1={
		birth=yes
		effect = {
			add_trait = "devoted"
		}
	}
	1598.9.27={
		death=yes
	}
}
12240212={
	name=character_name_12240212 # Nichigyo
	dynasty=10007367 # Hokekyoji
	religion="hokkeshu"
	culture="kanto_buddhist"
	1542.1.1={
		birth=yes
		effect = {
			add_trait = "devoted"
		}
	}
	1605.7.2={
		death=yes
	}
}
12240213={
	name=character_name_12240213 # Nichitsu
	dynasty=10007367 # Hokekyoji
	religion="hokkeshu"
	culture="kanto_buddhist"
	1551.1.1={
		birth=yes
		effect = {
			add_trait = "devoted"
		}
	}
	1608.1.16={
		death=yes
	}
}
12240214={
	name=character_name_12240214 # Nichito
	dynasty=10007367 # Hokekyoji
	religion="hokkeshu"
	culture="kanto_buddhist"
	1549.1.1={
		birth=yes
		effect = {
			add_trait = "devoted"
		}
	}
	1603.1.16={
		death=yes
	}
}
12240215={
	name=character_name_12240215 # Nichijutsu
	dynasty=10007367 # Hokekyoji
	religion="hokkeshu"
	culture="kanto_buddhist"
	1555.1.1={
		birth=yes
		effect = {
			add_trait = "devoted"
		}
	}
	1607.4.22={
		death=yes
	}
}
12240216={
	name=character_name_12240216 # Nichiin
	dynasty=10007367 # Hokekyoji
	religion="hokkeshu"
	culture="kanto_buddhist"
	1555.1.1={
		birth=yes
		effect = {
			add_trait = "devoted"
		}
	}
	1613.10.29={
		death=yes
	}
}
12240217={
	name=character_name_12240217 # Nichiji
	dynasty=10007367 # Hokekyoji
	religion="hokkeshu"
	culture="kanto_buddhist"
	1563.1.1={
		birth=yes
		effect = {
			add_trait = "devoted"
		}
	}
	1627.8.5={
		death=yes
	}
}
12240300={
	name=character_name_12240300 # Nichiro
	dynasty=10007368 # Honmonji
	learning=8
	trait="devoted"
	trait="education_learning_3"
	religion="hokkeshu"
	culture="kanto_buddhist"
	1245.5.5={
		birth=yes
	}
	1320.3.1={
		death=yes
	}
}
12240301={
	name=character_name_12240301 # Nichirin
	dynasty=10007368 # Honmonji
	learning=8
	trait="devoted"
	trait="education_learning_3"
	religion="hokkeshu"
	culture="kanto_buddhist"
	1272.1.1={
		birth=yes
	}
	1359.5.1={
		death=yes
	}
}
12240302={
	name=character_name_12240302 # Nichizan
	dynasty=10007368 # Honmonji
	learning=8
	trait="devoted"
	trait="education_learning_3"
	religion="hokkeshu"
	culture="kanto_buddhist"
	1338.1.1={
		birth=yes
	}
	1381.1.1={
		death=yes
	}
}
12240303={
	name=character_name_12240303 # Nichigyo
	dynasty=10007368 # Honmonji
	learning=8
	trait="devoted"
	trait="education_learning_3"
	religion="hokkeshu"
	culture="kanto_buddhist"
	1387.1.1={
		birth=yes
	}
	1434.1.1={
		death=yes
	}
}
12240304={
	name=character_name_12240304 # Nichiju
	dynasty=10007368 # Honmonji
	learning=8
	trait="devoted"
	trait="education_learning_3"
	religion="hokkeshu"
	culture="kanto_buddhist"
	1431.1.1={
		birth=yes
	}
	1452.1.1={
		death=yes
	}
}
12240305={
	name=character_name_12240305 # Niccho
	dynasty=10007368 # Honmonji
	learning=8
	trait="devoted"
	trait="education_learning_3"
	religion="hokkeshu"
	culture="kanto_buddhist"
	1428.1.1={
		birth=yes
	}
	1501.1.1={
		death=yes
	}
}
12240306={
	name=character_name_12240306 # Nichijun
	dynasty=10007368 # Honmonji
	learning=8
	trait="devoted"
	trait="education_learning_3"
	religion="hokkeshu"
	culture="kanto_buddhist"
	1482.1.1={
		birth=yes
	}
	1550.1.1={
		death=yes
	}
}
12240307={
	name=character_name_12240307 # Nichiyo
	dynasty=10007368 # Honmonji
	learning=8
	trait="devoted"
	trait="education_learning_3"
	religion="hokkeshu"
	culture="kanto_buddhist"
	1496.1.1={
		birth=yes
	}
	1550.1.1={
		death=yes
	}
}
12240308={
	name=character_name_12240308 # Nichigen
	dynasty=10007368 # Honmonji
	learning=8
	trait="devoted"
	trait="education_learning_3"
	religion="hokkeshu"
	culture="kanto_buddhist"
	1496.1.1={
		birth=yes
	}
	1561.1.1={
		death=yes
	}
}
12240309={
	name=character_name_12240309 # Nichisei
	dynasty=10007368 # Honmonji
	learning=8
	trait="devoted"
	trait="education_learning_3"
	religion="hokkeshu"
	culture="kanto_buddhist"
	1550.1.1={
		birth=yes
	}
	1598.1.1={
		death=yes
	}
}
12240310={
	name=character_name_12240310 # Nichison
	dynasty=10007368 # Honmonji
	religion="hokkeshu"
	culture="kanto_buddhist"
	learning=8
	trait="devoted"
	trait="education_learning_3"
	1558.1.1={
		birth=yes
	}
	1603.1.1={
		death=yes
	}
}
12240311={
	name=character_name_12240311 # Nichisho
	dynasty=10007368 # Honmonji
	religion="hokkeshu"
	culture="kanto_buddhist"
	1569.1.1={
		birth=yes
		effect = {
			add_trait = "devoted"
		}
	}
	1617.1.1={
		death=yes
	}
}
12240400={
	name=character_name_12240400 # Shoyu
	dynasty=10007369 # Nikkosan
	learning=8
	trait="education_learning_3"
#	trait="mikkyo_buddhist"
	religion="shinto"
	culture="kanto_buddhist"
	1380.1.1={
		birth=yes
	}
	1390.1.1={
		effect = {
			add_trait = "devoted"
		}
	}
	1449.1.1={
		death=yes
	}
}
12240401={
	name=character_name_12240401 # Shoken
	dynasty=10007369 # Nikkosan
	learning=8
	trait="education_learning_3"
#	trait="mikkyo_buddhist"
	religion="shinto"
	culture="kanto_buddhist"
	1400.1.1={
		birth=yes
	}
	1410.1.1={
		effect = {
			add_trait = "devoted"
		}
	}
	1455.1.1={
		death=yes
	}
}
