﻿12030000 = {
	name = character_name_12030000 # Kiyohira
	dynasty = 10001300	#Fujiwara
	religion = "shinto"
	culture = "northern_oshu"
	father = 11004629	#Fujiwara Tsunekiyo
	mother = 12033026	# Abe Arika
#	trait="mikkyo_buddhist"
	trait="fujiwara_clan"
	1056.1.1 = {
		birth=yes
	}
	1128.8.10 = {
		death=yes
	}
}
12030001 = {
	name = character_name_12030001 # Tsunemoto
	dynasty = 10001300	#Fujiwara
	religion = "shinto"
	culture = "northern_oshu"
	father = 11004629	#Fujiwara Tsunekiyo
	trait="fujiwara_clan"
	1058.1.1 = {
		birth=yes
	}
	1108.1.1 = {
		death=yes
	}
}
12030010 = {
	name = character_name_12030010 # Motohira
	dynasty = 10001300	#Fujiwara
	religion = "shinto"
	culture = "northern_oshu"
	father = 12030000	#Fujiwara Kiyohira
#	trait="mikkyo_buddhist"
	trait="fujiwara_clan"
	1086.1.1 = {
		birth=yes
	}
	1110.1.1={
		add_spouse=12033043	# Abe Ume
	}
	1157.4.29 = {
		death=yes
	}
}
12030011 = {
	name = character_name_12030011 # Iekiyo
	dynasty = 10001300	#Fujiwara
	religion = "shinto"
	culture = "northern_oshu"
	father = 12030000	#Fujiwara Kiyohira
	trait="fujiwara_clan"
	1087.1.1 = {
		birth=yes
	}
	1137.1.1 = {
		death=yes
	}
}
12030012 = {
	name = character_name_12030012 # Masahira
	dynasty = 10001300	#Fujiwara
	religion = "shinto"
	culture = "northern_oshu"
	father = 12030000	#Fujiwara Kiyohira
	trait="fujiwara_clan"
	1089.1.1 = {
		birth=yes
	}
	1139.1.1 = {
		death=yes
	}
}
12030013 = {
	name = character_name_12030013 # Kiyotsuna
	dynasty = 10007444 # Hizume
	religion = "shinto"
	culture = "northern_oshu"
	father = 12030000	#Fujiwara Kiyohira
	trait="fujiwara_clan"
	1092.1.1 = {
		birth=yes
	}
	1142.1.1 = {
		death=yes
	}
}
12030014 = {
	name = character_name_12030014 # Kiyoko
	dynasty = 10001300	#Fujiwara
	religion = "shinto"
	culture = "northern_oshu"
	female = yes
	father = 12030000	#Fujiwara Kiyohira
	trait="fujiwara_clan"
	1096.1.1 = {
		birth=yes
	}
	1146.1.1 = {
		death=yes
	}
}
12030015 = {
	name = character_name_12030015 # Toku
	dynasty = 10001300	#Fujiwara
	religion = "shinto"
	culture = "northern_oshu"
	female = yes
	father = 12030000	#Fujiwara Kiyohira
	trait="fujiwara_clan"
	1090.1.1 = {
		birth=yes
	}
	1140.1.1 = {
		death=yes
	}
}
12030020 = {
	name=character_name_12030020 # Hidehira
	dna=12030020_fujiwara_hidehira
	dynasty=10001300 # Oshu Fujiwara
	diplomacy=7
	martial=4
	stewardship=2
	intrigue=5
	learning=1
	religion="shinto"
	culture="northern_oshu"
	trait="education_stewardship_4"
	trait="intellect_good_3"
	trait="gregarious"
	trait="generous"
	trait="humble"
	trait="just"
#	trait="mikkyo_buddhist"
	father = 12030010	#Fujiwara Motohira
	mother = 12033043	# Abe Ume
	trait="fujiwara_clan"
	prowess=8
	1122.1.1={
		birth=yes
		effect = {
			add_character_flag = has_scripted_appearance
		}
	}
	1154.1.1={
		add_spouse=11006321 # Fujiwara Tokuniko
	}
	1157.4.29={
		effect = {
			set_realm_capital = title:c_nmih_iwai
		}
	}
	1170.7.11={
		give_nickname="nick_the_chinjufu_shogun"
		effect = {
			add_trait = "jugoi_ge"
		}
	}
	1181.9.25={
		give_nickname="nick_the_mutsu_no_kami"
		effect = {
			remove_trait = "jugoi_ge"
			add_trait = "jugoi_jo"
		}
	}
	1187.11.30={
		death=yes
	}
}
12030021={
	name=character_name_12030021 # Hidehisa
	dynasty=10001300 # Fujiwara
	father=12030010 # Fujiwara Motohira
	religion="shinto"
	culture="northern_oshu"
	trait="fujiwara_clan"
	1132.1.1={
		birth=yes
	}
	1180.1.1={
		effect = {
			set_realm_capital = title:c_nmih_inaka
		}
	}
	1192.1.1={
		death=yes
	}
}
12030030 = {
	name = character_name_12030030 # Kiyonobu
	dynasty = 10001300	#Fujiwara
	religion = "shinto"
	culture = "northern_oshu"
	father = 12030011	#Fujiwara Iekiyo
	trait="fujiwara_clan"
	1107.1.1 = {
		birth=yes
	}
	1157.1.1 = {
		death=yes
	}
}
12030040 = {
	name = character_name_12030040 # Toshihira
	dynasty = 10007444 # Hizume
	religion = "shinto"
	culture = "northern_oshu"
	father = 12030013	#Fujiwara Kiyotsuna
	trait="fujiwara_clan"
	1122.1.1 = {
		birth=yes
	}
	1189.10.14 = {
		death=yes
	}
}
12030041 = {
	name = character_name_12030041 # Suehira
	dynasty = 10007444 # Hizume
	religion = "shinto"
	culture = "northern_oshu"
	father = 12030013	#Fujiwara Kiyotsuna
	trait="fujiwara_clan"
	1125.1.1 = {
		birth=yes
	}
	1189.10.14 = {
		death=yes
	}
}
12030042 = {
	name = character_name_12030042 # Towako
	dynasty = 10007444 # Hizume
	religion = "shinto"
	culture = "northern_oshu"
	female = yes
	father = 12030013	#Fujiwara Kiyotsuna
	trait="fujiwara_clan"
	1133.1.1 = {
		birth=yes
	}
	1183.1.1 = {
		death=yes
	}
}
12030050 = {
	name = character_name_12030050 # Kunihira
	dynasty = 10001300	#Fujiwara
	religion = "shinto"
	culture = "northern_oshu"
	diplomacy=4
	martial=8
	stewardship=5
	intrigue=4
	learning=1
	trait="bastard"
	trait="education_martial_3"
	trait="brave"
	father = 12030020	#Fujiwara Hidehira
	trait="fujiwara_clan"
	prowess=18
	1142.1.1 = {
		birth=yes
	}
	1158.1.1={
		give_nickname="nick_taro"
	}
	1189.9.21 = {
		death=yes
	}
}
12030051 = {
	name = character_name_12030051 # Yasuhira
	dynasty = 10001300	#Fujiwara
	religion = "shinto"
	culture = "northern_oshu"
	diplomacy=9
	martial=5
	stewardship=9
	intrigue=5
	learning=4
	trait="education_diplomacy_3"
	trait="administrator"
	trait="craven"
#	trait="mikkyo_buddhist"
	father = 12030020 # Fujiwara Hidehira
	mother=11006321 # Fujiwara Tokuniko
	trait="fujiwara_clan"
	prowess=9
	1155.1.1 = {
		birth=yes
	}
	1171.1.1={
		give_nickname="nick_taro"
		add_spouse=12000013 # Okawa Noriko
	}
	1189.10.14 = {
		death=yes
	}
}
12030052 = {
	name = character_name_12030052 # Tadahira
	dynasty = 10001300	#Fujiwara
	religion = "shinto"
	culture = "northern_oshu"
	diplomacy=9
	martial=7
	stewardship=6
	intrigue=3
	learning=4
	trait="education_martial_2"
	trait="ambitious"
	father = 12030020	#Fujiwara Hidehira
	trait="fujiwara_clan"
	prowess=15
	1167.1.1 = {
		birth=yes
	}
	1179.1.1={
		add_spouse=12060074
	}
	1183.1.1={
		give_nickname="nick_saburo"
	}
	1187.2.1 = {
		effect = {
			set_employer = character:12030020
			return_to_court = yes
		}
	}
	1187.11.30 = {
		effect = {
			set_employer = character:12030051
			return_to_court = yes
		}
	}
	1189.6.15 = {
		effect = {
			host ?= {
				remove_courtier_or_guest = root
			}
		}
	}
	1189.8.9 = {
		death=yes
	}
}
12030053 = {
	name = character_name_12030053 # Takahira
	dynasty = 10001300	#Fujiwara
	religion = "shinto"
	culture = "northern_oshu"
	father = 12030020	#Fujiwara Hidehira
	trait="fujiwara_clan"
	1168.1.1 = {
		birth=yes
	}
	1184.1.1={
		give_nickname="nick_shiro"
	}
	1201.4.4 = {
		death=yes
	}
}
12030054 = {
	name = character_name_12030054 # Michihira
	dynasty = 10001300	#Fujiwara
	religion = "shinto"
	culture = "northern_oshu"
	father = 12030020	#Fujiwara Hidehira
	trait="fujiwara_clan"
	1169.1.1 = {
		birth=yes
	}
	1189.8.1 = {
		death=yes
	}
}
12030055 = {
	name = character_name_12030055 # Yorihira
	dynasty = 10001300	#Fujiwara
	religion = "shinto"
	culture = "northern_oshu"
	father = 12030020	#Fujiwara Hidehira
	trait="fujiwara_clan"
	1170.1.1 = {
		birth=yes
	}
	1189.9.1 = {
		death={
			death_reason=death_battle
			killer=10130546 #Muto Sukeyori
		}
	}
}
12030060 = {
	name = character_name_12030060 # Yukinobu
	dynasty = 10007446 # Suginome
	religion = "shinto"
	culture = "northern_oshu"
	father = 12030030	#Fujiwara Kiyonobu
	trait="fujiwara_clan"
	1137.1.1 = {
		birth=yes
	}
	1180.1.1={
		effect = {
			set_employer = character:12030020
			return_to_court = yes
		}
	}
	1190.1.1 = {
		death=yes
	}
}
12030061={
	name=character_name_12030061 # Takatsugu
	dynasty=10007445 # Numakura
	father=12030030 # Fujiwara Kiyonobu
	trait="fujiwara_clan"
	religion="shinto"
	culture="northern_oshu"
	1135.1.1={
		birth=yes
	}
	1190.1.1={
		death=yes
	}
}
12030070 = {
	name = character_name_12030070 # Morohira
	dynasty = 10007444 # Hizume
	religion = "shinto"
	culture = "northern_oshu"
	father = 12030040	#Fujiwara Toshihira
	trait="fujiwara_clan"
	1152.1.1 = {
		birth=yes
	}
	1189.10.14 = {
		death=yes
	}
}
12030071 = {
	name = character_name_12030071 # Kanehira
	dynasty = 10007444 # Hizume
	religion = "shinto"
	culture = "northern_oshu"
	father = 12030040	#Fujiwara Toshihira
	trait="fujiwara_clan"
	1154.1.1 = {
		birth=yes
	}
	1189.10.14 = {
		death=yes
	}
}
12030072 = {
	name = character_name_12030072 # Tadahira
	dynasty = 10007444 # Hizume
	religion = "shinto"
	culture = "northern_oshu"
	father = 12030040	#Fujiwara Toshihira
	trait="fujiwara_clan"
	1156.1.1 = {
		birth=yes
	}
	1189.10.14 = {
		death=yes
	}
}
12030080 = {
	name = character_name_12030080 # Tsunehira
	dynasty = 10007444 # Hizume
	religion = "shinto"
	culture = "northern_oshu"
	father = 12030041	#Fujiwara Suehira
	trait="fujiwara_clan"
	1145.1.1 = {
		birth=yes
	}
	1189.10.14 = {
		death=yes
	}
}
12030090 = {
	name = character_name_12030090 # Shokoku
	dynasty = 10007444 # Hizume
	religion = "shinto"
	culture = "kinai_buddhist"
	father = 12030072	#Fujiwara Tadahira
	trait="devoted"
	trait="fujiwara_clan"
	1176.1.1 = {
		birth=yes
	}
	1226.1.1 = {
		death=yes
	}
}
12030100={
	name=character_name_12030100 # Hidemoto
	dynasty=10001300 # Fujiwara
	father=12030021 # Fujiwara Hidehisa
	religion="shinto"
	culture="northern_oshu"
	trait="fujiwara_clan"
	1162.1.1={
		birth=yes
	}
	1222.1.1={
		death=yes
	}
}
12030101={
	name=character_name_12030101 # Hidekiyo
	dynasty=10001300 # Fujiwara
	father=12030021 # Fujiwara Hidehisa
	religion="shinto"
	culture="northern_oshu"
	trait="fujiwara_clan"
	1164.1.1={
		birth=yes
	}
	1220.1.1={
		death=yes
	}
}
12030110={
	name=character_name_12030110 # Tokihira
	dynasty=10001300 # Fujiwara
	father=12030051 # Fujiwara Yasuhira
	religion="shinto"
	culture="northern_oshu"
	trait="fujiwara_clan"
	1170.1.1={
		birth=yes
	}
	1189.10.14={
		death=yes
	}
}
12030111={
	name=character_name_12030111 # Hideyasu
	dynasty=10001300 # Fujiwara
	father=12030051 # Fujiwara Yasuhira
	mother=12000013 # Okawa Noriko
	religion="shinto"
	culture="northern_oshu"
	trait="fujiwara_clan"
	1176.1.1={
		birth=yes
	}
	1189.10.14={
		death=yes
	}
}
12030112={
	name=character_name_12030112 # Yasutaka
	dynasty=10001300 # Fujiwara
	father=12030051 # Fujiwara Yasuhira
	mother=12000013 # Okawa Noriko
	religion="shinto"
	culture="northern_oshu"
	trait="fujiwara_clan"
	1179.1.1={
		birth=yes
	}
	1189.10.14={
		death=yes
	}
}
12030120={
	name=character_name_12030120 # Hidekado
	dynasty=10001300 # Fujiwara
	father=12030100 # Fujiwara Hidemoto
	religion="shinto"
	culture="northern_oshu"
	trait="fujiwara_clan"
	1180.1.1={
		birth=yes
	}
	1220.1.1={
		death=yes
	}
}
12030121={
	name=character_name_12030121 # Motonari
	dynasty=10001300 # Fujiwara
	father=12030100 # Fujiwara Hidemoto
	religion="shinto"
	culture="northern_oshu"
	trait="fujiwara_clan"
	1182.1.1={
		birth=yes
	}
	1220.1.1={
		death=yes
	}
}
12030122={
	name=character_name_12030122 # Hidenao
	dynasty=10001300 # Fujiwara
	father=12030100 # Fujiwara Hidemoto
	religion="shinto"
	culture="northern_oshu"
	trait="fujiwara_clan"
	1184.1.1={
		birth=yes
	}
	1229.1.1={
		death=yes
	}
}
12030123={
	name=character_name_12030123 # Motosue
	dynasty=10001300 # Fujiwara
	father=12030100 # Fujiwara Hidemoto
	religion="shinto"
	culture="northern_oshu"
	trait="fujiwara_clan"
	1186.1.1={
		birth=yes
	}
	1220.1.1={
		death=yes
	}
}
12030125={
	name=character_name_12030125 # Yorihide
	dynasty=10001300 # Fujiwara
	father=12030122 # Fujiwara Hidenao
	religion="shinto"
	culture="northern_oshu"
	trait="fujiwara_clan"
	1215.1.1={
		birth=yes
	}
	1275.1.1={
		death=yes
	}
}
12030130={
	name=character_name_12030130 # Hideyuki
	dynasty=10001300 # Fujiwara
	father=12030125 # Fujiwara Yorihide
	religion="shinto"
	culture="northern_oshu"
	trait="fujiwara_clan"
	1245.1.1={
		birth=yes
	}
	1305.1.1={
		death=yes
	}
}
12030135={
	name=character_name_12030135 # Hidetaka
	dynasty=10001300 # Fujiwara
	father=12030130 # Fujiwara Hideyuki
	religion="shinto"
	culture="northern_oshu"
	trait="fujiwara_clan"
	1275.1.1={
		birth=yes
	}
	1325.1.1={
		death=yes
	}
}
12030140={
	name=character_name_12030140 # Hidemitsu
	dynasty=10001300 # Fujiwara
	father=12030135 # Fujiwara Hidetaka
	religion="shinto"
	culture="northern_oshu"
	trait="fujiwara_clan"
	1305.1.1={
		birth=yes
	}
	1355.1.1={
		death=yes
	}
}
12030145={
	name=character_name_12030145 # Hidenobu
	dynasty=10001300 # Fujiwara
	father=12030140 # Fujiwara Hidemitsu
	religion="shinto"
	culture="northern_oshu"
	trait="fujiwara_clan"
	1335.1.1={
		birth=yes
	}
	1400.1.1={
		death=yes
	}
}
12030150={
	name=character_name_12030150 # Hidenori
	dynasty=10001300 # Fujiwara
	father=12030145 # Fujiwara Hidenobu
	religion="shinto"
	culture="northern_oshu"
	trait="fujiwara_clan"
	1365.1.1={
		birth=yes
	}
	1425.1.1={
		death=yes
	}
}
12030155={
	name=character_name_12030155 # Noriko
	dynasty=10001300 # Fujiwara
	father=12030150 # Fujiwara Hidenori
	religion="shinto"
	culture="northern_oshu"
	trait="fujiwara_clan"
	1400.1.1={
		birth=yes
	}
	1460.1.1={
		death=yes
	}
}
12032100={
	name=character_name_12032100 # Sanemichi # Fictional
	dynasty=10007202 # Kiyohara
	religion="shinto"
	culture="northern_oshu"
	1120.1.1={
		birth=yes
	}
	1180.1.1={
		death=yes
	}
}
12032101={
	name=character_name_12032101 # Sanetoshi
	dynasty=10007202 # Kiyohara
	father=12032100 # 
	religion="shinto"
	culture="northern_oshu"
	trait="education_stewardship_3"
	trait="intellect_good_2"
	1150.1.1={
		birth=yes
	}
	1180.1.1={
		effect = {
			set_employer = character:12030020
			return_to_court = yes
		}
	}
	1210.1.1={
		death=yes
	}
}
12032102={
	name=character_name_12032102 # Sanemasa
	dynasty=10007202 # Kiyohara
	father=12032100 # 
	religion="shinto"
	culture="northern_oshu"
	trait="education_stewardship_3"
	1155.1.1={
		birth=yes
	}
	1180.1.1={
		effect = {
			set_employer = character:12030020
			return_to_court = yes
		}
	}
	1215.1.1={
		death=yes
	}
}
12032200={
	name=character_name_12032200 # Tohachi
	dynasty=10007203 # Tomo
	religion="shinto"
	culture="northern_oshu"
	trait="education_martial_2"
	trait="strong"
	1160.1.1={
		birth=yes
	}
	1180.1.1={
		effect = {
			set_employer = character:12030020
			return_to_court = yes
		}
	}
	1189.9.20={
		death=yes
	}
}
12032205={
	name=character_name_12032205 # Jiro
	dynasty=10007253 # Akada
	religion="shinto"
	culture="northern_oshu"
	trait="education_martial_2"
	1150.1.1={
		birth=yes
	}
	1180.1.1={
		effect = {
			set_employer = character:12030020
			return_to_court = yes
		}
	}
	1189.10.3={
		death=yes
	}
}
12032210={
	name=character_name_12032210 # Heiroku
	dynasty=10007254 # Kon
	religion="shinto"
	culture="northern_oshu"
	trait="education_martial_2"
	1152.1.1={
		birth=yes
	}
	1180.1.1={
		effect = {
			set_employer = character:12030020
			return_to_court = yes
		}
	}
	1189.10.3={
		death=yes
	}
}
12032215={
	name=character_name_12032215 # Kurodayu
	dynasty=10007255 # Waka
	religion="shinto"
	culture="northern_oshu"
	trait="education_martial_2"
	1154.1.1={
		birth=yes
	}
	1180.1.1={
		effect = {
			set_employer = character:12030020
			return_to_court = yes
		}
	}
	1189.10.2={
		death=yes
	}
}
12032220={
	name=character_name_12032220 # Hidekazu
	dynasty=10007256 # Sato
	religion="shinto"
	culture="northern_oshu"
	trait="education_martial_2"
	trait="fujiwara_clan"
	1140.1.1={
		birth=yes
	}
	1180.1.1={
		effect = {
			set_employer = character:12030050
			return_to_court = yes
		}
	}
	1189.9.21={
		death=yes
	}
}
12032225={
	name=character_name_12032225 # Kichiji
	dynasty=10007292 # Kaneuri
	religion="shinto"
	culture="northern_oshu"
	trait="education_stewardship_4"
	trait="intellect_good_2"
	stewardship=9
	health=7
	trait="tachibana_clan"
	1120.1.1={
		birth=yes
	}
	1136.1.1={
		give_nickname="nick_Kichiji"
	}
	1180.1.1 = {
		effect = {
			set_employer = character:12030020
			return_to_court = yes
		}
	}
	1187.11.30 = {
		effect = {
			set_employer = character:12030051
			return_to_court = yes
		}
	}
	1189.10.3={
		death=yes
	}
}
12033000={
	name=character_name_12033000 # Ieyoshi
	dynasty=10007252 # Abe
	religion="shinto"
	culture="northern_oshu"
	910.1.1={
		birth=yes
	}
	970.1.1={
		death=yes
	}
}
12033001={
	name=character_name_12033001 # Chikayoshi
	dynasty=10007252 # Abe
	father=12033000 # Abe Ieyoshi
	religion="shinto"
	culture="northern_oshu"
	940.1.1={
		birth=yes
	}
	1000.1.1={
		death=yes
	}
}
12033005={
	name=character_name_12033005 # Tadayoshi
	dynasty=10007252 # Abe
	father=12033001 # Abe Chikayoshi
	religion="shinto"
	culture="northern_oshu"
	970.1.1={
		birth=yes
	}
	1030.1.1={
		death=yes
	}
}
12033006={
	name=character_name_12033006 # Tadayo
	dynasty=10007252 # Abe
	father=12033001 # Abe Chikayoshi
	religion="shinto"
	culture="northern_oshu"
	980.1.1={
		birth=yes
	}
	1040.1.1={
		death=yes
	}
}
12033010={
	name=character_name_12033010 # Yoritoki
	dynasty=10007252 # Abe
	father=12033005 # Abe Tadayoshi
	religion="shinto"
	culture="northern_oshu"
	trait="education_martial_3"
	1000.1.1={
		birth=yes
	}
	1057.8.1={
		death=yes
	}
}
12033011={
	name=character_name_12033011 # Ryosho
	dynasty=10007252 # Abe
	father=12033005 # Abe Tadayoshi
	religion="shinto"
	culture="northern_oshu"
	trait="education_learning_3"
	1002.1.1={
		birth=yes
	}
	1070.1.1={
		death=yes
	}
}
12033012={
	name=character_name_12033012 # Tamemoto
	dynasty=10007252 # Abe
	father=12033005 # Abe Tadayoshi
	religion="shinto"
	culture="northern_oshu"
	1004.1.1={
		birth=yes
	}
	1070.1.1={
		death=yes
	}
}
12033020={
	name=character_name_12033020 # Sadato
	dynasty=10007252 # Abe
	father=12033010 # Abe Yoritoki
	religion="shinto"
	culture="northern_oshu"
	trait="education_martial_4"
	trait="strong"
	trait="brave"
	1019.1.1={
		birth=yes
	}
	1062.10.22={
		death=yes
	}
}
12033021={
	name=character_name_12033021 # Muneto
	dynasty=10007252 # Abe
	father=12033010 # Abe Yoritoki
	religion="shinto"
	culture="northern_oshu"
	trait="education_diplomacy_3"
	trait="poet"
	1032.1.1={
		birth=yes
	}
	1108.3.18={
		death=yes
	}
}
12033022={
	name=character_name_12033022 # Masato
	dynasty=10007252 # Abe
	father=12033010 # Abe Yoritoki
	religion="shinto"
	culture="northern_oshu"
	1033.1.1={
		birth=yes
	}
	1090.1.1={
		death=yes
	}
}
12033023={
	name=character_name_12033023 # Ieto
	dynasty=10007252 # Abe
	father=12033010 # Abe Yoritoki
	religion="shinto"
	culture="northern_oshu"
	1034.1.1={
		birth=yes
	}
	1090.1.1={
		death=yes
	}
}
12033024={
	name=character_name_12033024 # Shigeto
	dynasty=10007252 # Abe
	father=12033010 # Abe Yoritoki
	religion="shinto"
	culture="northern_oshu"
	1035.1.1={
		birth=yes
	}
	1062.10.22={
		death=yes
	}
}
12033025={
	name=character_name_12033025 # Norito
	dynasty=10007252 # Abe
	father=12033010 # Abe Yoritoki
	religion="shinto"
	culture="northern_oshu"
	1036.1.1={
		birth=yes
	}
	1090.1.1={
		death=yes
	}
}
12033026={
	name=character_name_12033026 # Arika
	female=yes
	dynasty=10007252 # Abe
	father=12033010 # Abe Yoritoki
	religion="shinto"
	culture="northern_oshu"
	1037.1.1={
		birth=yes
	}
	1086.1.1={
		death=yes
	}
}
12033027={
	name=character_name_12033027 # Nakaka
	female=yes
	dynasty=10007252 # Abe
	father=12033010 # Abe Yoritoki
	religion="shinto"
	culture="northern_oshu"
	1038.1.1={
		birth=yes
	}
	1086.1.1={
		death=yes
	}
}
12033028={
	name=character_name_12033028 # Ichika
	female=yes
	dynasty=10007252 # Abe
	father=12033010 # Abe Yoritoki
	religion="shinto"
	culture="northern_oshu"
	1039.1.1={
		birth=yes
	}
	1086.1.1={
		death=yes
	}
}
12033029={
	name=character_name_12033029 # Yukito
	dynasty=10007252 # Abe
	father=12033010 # Abe Yoritoki
	religion="shinto"
	culture="northern_oshu"
	1040.1.1={
		birth=yes
	}
	1090.1.1={
		death=yes
	}
}
12033030={
	name=character_name_12033030 # Chiyodoji
	dynasty=10007252 # Abe
	father=12033020 # Abe Sadato
	religion="shinto"
	culture="northern_oshu"
	1048.1.1={
		birth=yes
	}
	1062.10.22={
		death=yes
	}
}
12033040={
	name=character_name_12033040 # Muneyoshi
	dynasty=10007252 # Abe
	father=12033021 # Abe Muneto
	religion="shinto"
	culture="northern_oshu"
	1060.1.1={
		birth=yes
	}
	1120.1.1={
		death=yes
	}
}
12033041={
	name=character_name_12033041 # Nakato
	dynasty=10007252 # Abe
	father=12033021 # Abe Muneto
	religion="shinto"
	culture="northern_oshu"
	1065.1.1={
		birth=yes
	}
	1125.1.1={
		death=yes
	}
}
12033042={
	name=character_name_12033042 # Sueto
	dynasty=10007252 # Abe
	father=12033021 # Abe Muneto
	religion="shinto"
	culture="northern_oshu"
	1070.1.1={
		birth=yes
	}
	1130.1.1={
		death=yes
	}
}
12033043={
	name=character_name_12033043 # Ume
	female=yes
	dynasty=10007252 # Abe
	father=12033021 # Abe Muneto
	religion="shinto"
	culture="northern_oshu"
	1080.1.1={
		birth=yes
	}
	1140.1.1={
		death=yes
	}
}
12033044={
	name=character_name_12033044 # Hana
	female=yes
	dynasty=10007252 # Abe
	father=12033021 # Abe Muneto
	religion="shinto"
	culture="northern_oshu"
	1090.1.1={
		birth=yes
	}
	1150.1.1={
		death=yes
	}
}
12033050={
	name=character_name_12033050 # Hideto
	dynasty=10007252 # Abe
	father=12033023 # Abe Ieto
	religion="shinto"
	culture="northern_oshu"
	1060.1.1={
		birth=yes
	}
	1120.1.1={
		death=yes
	}
}
12033055={
	name=character_name_12033055 # Suketo
	dynasty=10007252 # Abe
	father=12033050 # Abe Hideto
	religion="shinto"
	culture="northern_oshu"
	1090.1.1={
		birth=yes
	}
	1150.1.1={
		death=yes
	}
}
12033060={
	name=character_name_12033060 # Taketo
	dynasty=10007252 # Abe
	father=12033055 # Abe Suketo
	religion="shinto"
	culture="northern_oshu"
	1125.1.1={
		birth=yes
	}
	1189.10.3={
		death=yes
	}
}
12033065={
	name=character_name_12033065 # Takeshige
	dynasty=10007252 # Abe
	father=12033060 # Abe Taketo
	religion="shinto"
	culture="northern_oshu"
	1155.1.1={
		birth=yes
	}
	1215.1.1={
		death=yes
	}
}
12033070={
	name=character_name_12033070 # Yasuhira
	dynasty=10007252 # Abe
	father=12033025 # Abe Norito
	religion="shinto"
	culture="northern_oshu"
	1070.1.1={
		birth=yes
	}
	1130.1.1={
		death=yes
	}
}
12033080={
	name=character_name_12033080 # Takato
	dynasty=10007252 # Abe
	father=12033029 # Abe Yukito
	religion="shinto"
	culture="northern_oshu"
	1064.1.1={
		birth=yes
	}
	1105.1.1={
		death=yes
	}
}
12033085={
	name=character_name_12033085 # Kazuto
	dynasty=10007252 # Abe
	father=12033080 # Abe Takato
	religion="shinto"
	culture="northern_oshu"
	1083.1.1={
		birth=yes
	}
	1121.1.1={
		death=yes
	}
}
12040100 = {
	name=character_name_12040100 # Yukitomo
#	dynasty=10000031
	dynasty_house = "house_shgnt_kagami"
	religion="shinto"
	culture="northern_oshu"
	trait="education_intrigue_2"
	father=12360502 # Nanbu Mitsuyuki
	trait="minamoto_clan"
	1180.1.1 = {
		birth=yes
		effect = {
			set_employer = character:10120112
			return_to_court = yes
		}
	}
	1185.1.1 = {
		dynasty = 10000031
	}
	1250.1.1 = {
		death=yes
	}
}
12040101 = {
	name=character_name_12040101 # Sanemitsu
#	dynasty=10000031
	dynasty_house = "house_shgnt_kagami"
	religion="shinto"
	culture="northern_oshu"
	trait="education_intrigue_2"
	father=12360502 # Nanbu Mitsuyuki
	trait="minamoto_clan"
	1181.1.1 = {
		birth=yes
	}
	1185.1.1 = {
		dynasty = 10000031
	}
	1255.2.3 = {
		death=yes
	}
}
12040102 = {
	name=character_name_12040102 # Sanenaga
	dynasty=10000031
	religion="shinto"
	culture="northern_oshu"
	trait="education_intrigue_1"
	father=12360502 # Nanbu Mitsuyuki
	trait="minamoto_clan"
	1222.1.1 = {
		birth=yes
	}
	1297.10.19 = {
		death=yes
	}
}
12040103 = {
	name=character_name_12040103 # Tomokiyo
	dynasty=10000031
	religion="shinto"
	culture="northern_oshu"
	trait="education_intrigue_2"
	father=12360502 # Nanbu Mitsuyuki
	trait="minamoto_clan"
	1225.1.1 = {
		birth=yes
	}
	1275.1.1 = {
		death=yes
	}
}
12040104 = {
	name=character_name_12040104 # Munekiyo
	dynasty=10000031
	religion="shinto"
	culture="northern_oshu"
	trait="education_martial_1"
	father=12360502 # Nanbu Mitsuyuki
	trait="minamoto_clan"
	1228.1.1 = {
		birth=yes
	}
	1280.1.1 = {
		death=yes
	}
}
12040110 = {
	name=character_name_12040110 # Tokizane
	dynasty=10000031
	religion="shinto"
	culture="northern_oshu"
	trait="education_intrigue_1"
	father=12040101 # Nanbu Sanemitsu
	trait="minamoto_clan"
	1200.1.1 = {
		birth=yes
	}
	1280.1.1 = {
		death=yes
	}
}
12040120 = {
	name=character_name_12040120 # Masamitsu
	dynasty=10000031
	religion="shinto"
	culture="northern_oshu"
	trait="education_intrigue_1"
	father=12040110 # Nanbu Tokizane
	trait="minamoto_clan"
	1240.1.1 = {
		birth=yes
	}
	1265.9.3 = {
		death=yes
	}
}
12040121 = {
	name=character_name_12040121 # Munetsune
	dynasty=10000031
	religion="shinto"
	culture="northern_oshu"
	trait="education_intrigue_1"
	father=12040110 # Nanbu Tokizane
	trait="minamoto_clan"
	1246.1.1 = {
		birth=yes
	}
	1283.6.13 = {
		death=yes
	}
}
12040122 = {
	name=character_name_12040122 # Masayuki
	dynasty=10000031
	religion="shinto"
	culture="northern_oshu"
	trait="education_intrigue_1"
	father=12040110 # Nanbu Tokizane
	trait="minamoto_clan"
	1250.1.1 = {
		birth=yes
	}
	1300.1.1 = {
		death=yes
	}
}
12040123 = {
	name=character_name_12040123 # Sanemasa
	dynasty=10000031
	religion="shinto"
	culture="northern_oshu"
	trait="education_diplomacy_1"
	father=12040110 # Nanbu Tokizane
	trait="minamoto_clan"
	1255.1.1 = {
		birth=yes
	}
	1310.1.1 = {
		death=yes
	}
}
12040124 = {
	name=character_name_12040124 # Munezane
	dynasty=10000031
	religion="shinto"
	culture="northern_oshu"
	trait="education_diplomacy_1"
	father=12040110 # Nanbu Tokizane
	trait="minamoto_clan"
	1260.1.1 = {
		birth=yes
	}
	1320.1.1 = {
		death=yes
	}
}
12040125 = {
	name=character_name_12040125 # Yoshimoto
	dynasty=10000031
	religion="shinto"
	culture="northern_oshu"
	trait="education_diplomacy_1"
	father=12040110 # Nanbu Tokizane
	trait="minamoto_clan"
	1263.1.1 = {
		birth=yes
	}
	1292.6.13 = {
		death=yes
	}
}
12040150 = {
	name=character_name_12040150 # Yoshiyuki
	dynasty=10000031
	religion="shinto"
	culture="northern_oshu"
	trait="education_martial_1"
	father=12040125 # Nanbu Yoshimoto
	trait="minamoto_clan"
	1280.1.1 = {
		birth=yes
	}
	1345.1.1 = {
		death=yes
	}
}
12040151={
	name=character_name_12040151 # Muneyuki
	dynasty=10000031 # Nanbu
	father=12040125 # Nanbu Yoshimoto
	religion="shinto"
	culture="koshin"
	trait="minamoto_clan"
	1283.1.1={
		birth=yes
	}
	1333.1.1={
		death=yes
	}
}
12040152={
	name=character_name_12040152 # Sukeyuki
	dynasty=10000031 # Nanbu
	father=12040125 # Nanbu Yoshimoto
	religion="shinto"
	culture="koshin"
	trait="minamoto_clan"
	1284.1.1={
		birth=yes
	}
	1334.1.1={
		death=yes
	}
}
12040154={
	name=character_name_12040154 # Tokinaga
	dynasty=10000031 # Nanbu
	father=12040122 # Nanbu Masayuki
	religion="shinto"
	culture="northern_oshu"
	trait="minamoto_clan"
	1285.1.1={
		birth=yes
	}
	1345.1.1={
		death=yes
	}
}
12040155={
	name=character_name_12040155 # Moroyuki
	dynasty=10000031 # Nanbu
	father=12040122 # Nanbu Masayuki
	religion="shinto"
	culture="northern_oshu"
	diplomacy=7
	martial=9
	stewardship=7
	intrigue=9
	learning=5
	trait="education_martial_3"
	trait="brave"
	trait="minamoto_clan"
	prowess=19
	1290.1.1={
		birth=yes
	}
	1306.1.1={
		give_nickname="nick_Matajio"
	}
	1333.01.01 = {
		dynasty_house = "house_shgnt_nambu_hachinohe"
	}
	1333.8.1={
		give_nickname="nick_totoumi_no_kami"
	}
	1338.6.10={
		death=yes
	}
}
12040156={
	name=character_name_12040156 # Masanaga
	dynasty=10000031 # Nanbu
	father=12040122 # Nanbu Masayuki
	religion="shinto"
	culture="northern_oshu"
	martial=9
	trait="education_martial_3"
	trait="minamoto_clan"
	prowess=19
	1295.1.1={
		birth=yes
	}
	1311.1.1={
		give_nickname="nick_rokuro"
	}
	1338.6.10={
		give_nickname="nick_totoumi_no_kami"
		dynasty_house = "house_shgnt_nambu_hachinohe"
	}
	1360.1.1={
		death=yes
	}
}
12040160 = {
	name=character_name_12040160 # Yoshihige
	dynasty=10000031
	religion="shinto"
	culture="northern_oshu"
	trait="education_martial_1"
	father=12040150 # Nanbu Yoshiyuki
	trait="minamoto_clan"
	1298.1.1 = {
		birth=yes
	}
	1336.1.1 = {
		death=yes
	}
}
12040161 = {
	name=character_name_12040161 # Shigetoki
	dynasty=10000031
	religion="shinto"
	culture="northern_oshu"
	trait="education_martial_1"
	father=12040150 # Nanbu Yoshiyuki
	trait="minamoto_clan"
	1299.1.1 = {
		birth=yes
	}
	1333.7.4 = {
		death=yes
	}
}
12040162 = {
	name=character_name_12040162 # Nobunaga
	dynasty=10000031
	religion="shinto"
	culture="northern_oshu"
	trait="education_diplomacy_1"
	father=12040150 # Nanbu Yoshiyuki
	trait="minamoto_clan"
	1302.1.1 = {
		birth=yes
	}
	1350.1.1 = {
		death=yes
	}
}
12040163 = {
	name=character_name_12040163 # Tameshige
	dynasty=10000031
	religion="shinto"
	culture="northern_oshu"
	trait="education_diplomacy_1"
	father=12040150 # Nanbu Yoshiyuki
	trait="minamoto_clan"
	1305.1.1 = {
		birth=yes
	}
	1355.1.1 = {
		death=yes
	}
}
12040164 = {
	name=character_name_12040164 # Sukenaga
	dynasty=10000031
	religion="shinto"
	culture="northern_oshu"
	trait="education_intrigue_1"
	father=12040150 # Nanbu Yoshiyuki
	trait="minamoto_clan"
	1308.1.1 = {
		birth=yes
	}
	1360.1.1 = {
		death=yes
	}
}
12040165 = {
	name=character_name_12040165 # Nobuiki
	dynasty=10000031
	religion="shinto"
	culture="northern_oshu"
	trait="education_diplomacy_1"
	father=12040150 # Nanbu Yoshiyuki
	trait="minamoto_clan"
	1309.1.1 = {
		birth=yes
	}
	1370.1.1 = {
		death=yes
	}
}
12040180 = {
	name=character_name_12040180 # Masayuki
	dynasty=10000031
	religion="shinto"
	culture="northern_oshu"
	trait="education_diplomacy_2"
	father=12040162 # Nanbu Nobunaga
	trait="minamoto_clan"
	1328.1.1 = {
		birth=yes
	}
	1388.11.17 = {
		death=yes
	}
}
12040190 = {
	name=character_name_12040190 # Moriyuki
	dynasty=10000031
	religion="shinto"
	culture="northern_oshu"
	trait="education_intrigue_2"
#	trait="zen_buddhist"
	father=12040180 # Nanbu Masayuki
	trait="minamoto_clan"
	1359.1.1 = {
		birth=yes
	}
	1437.5.13 = {
		death={
			death_reason=death_battle
		}
	}
}
12040200 = {
	name=character_name_12040200 # Yoshimasa
	dynasty=10000031
	religion="shinto"
	culture="northern_oshu"
	trait="education_intrigue_1"
#	trait="zen_buddhist"
	father=12040190 # Nanbu Moriyuki
	trait="minamoto_clan"
	1374.1.1 = {
		birth=yes
	}
	1440.8.9 = {
		death=yes
	}
}
12040201 = {
	name=character_name_12040201 # Masamori
	dynasty=10000031
	religion="shinto"
	culture="northern_oshu"
	trait="education_diplomacy_1"
#	trait="zen_buddhist"
	father=12040190 # Nanbu Moriyuki
	trait="minamoto_clan"
	1378.1.1 = {
		birth=yes
	}
	1445.1.1 = {
		death=yes
	}
}
12040202 = {
	name=character_name_12040202 # Sukemasa
	dynasty=10000031
	religion="shinto"
	culture="northern_oshu"
	trait="education_diplomacy_1"
#	trait="zen_buddhist"
	father=12040190 # Nanbu Moriyuki
	trait="minamoto_clan"
	1382.1.1 = {
		birth=yes
	}
	1442.1.1 = {
		death=yes
	}
}
12040203 = {
	name=character_name_12040203 # Yukinaga
	dynasty=10000031
	religion="shinto"
	culture="northern_oshu"
	trait="education_intrigue_1"
	father=12040190 # Nanbu Moriyuki
	trait="minamoto_clan"
	1385.1.1 = {
		birth=yes
	}
	1450.1.1 = {
		death=yes
	}
}
12040210={
	name=character_name_12040210 # Sanetsugu
	dynasty=10000031 # Nanbu
	father=12040102 # Nanbu Sanenaga
	religion="hokkeshu"
	culture="koshin"
	trait="minamoto_clan"
	1250.1.1={
		birth=yes
	}
	1332.12.31={
		death=yes
	}
}
12040211={
	name=character_name_12040211 # Nagayoshi
	dynasty=10007417 # Hakiri
	father=12040102 # Nanbu Sanenaga
	trait="minamoto_clan"
	religion="hokkeshu"
	culture="koshin"
	1260.1.1={
		birth=yes
	}
	1313.2.24={
		death=yes
	}
}
12040215={
	name=character_name_12040215 # Nagatsugu
	dynasty=10000031 # Nanbu
	father=12040210 # Nanbu Sanetsugu
	religion="hokkeshu"
	culture="koshin"
	trait="minamoto_clan"
	1280.1.1={
		birth=yes
	}
	1352.1.1={
		death=yes
	}
}
12040220={
	name=character_name_12040220 # Nagauji
	dynasty=10007417 # Hakiri
	father=12040211 # Hakiri Nagayoshi
	trait="minamoto_clan"
	religion="hokkeshu"
	culture="koshin"
	1290.1.1={
		birth=yes
	}
	1367.8.9={
		death=yes
	}
}
12040221={
	name=character_name_12040221 # Saneuji
	dynasty=10007417 # Hakiri
	father=12040220 # Hakiri Nagauji
	trait="minamoto_clan"
	religion="hokkeshu"
	culture="koshin"
	1315.1.1={
		birth=yes
	}
	1378.5.21={
		death=yes
	}
}
12040222={
	name=character_name_12040222 # Yukiuji
	dynasty=10007417 # Hakiri
	father=12040221 # Hakiri Saneuji
	trait="minamoto_clan"
	religion="hokkeshu"
	culture="koshin"
	1340.1.1={
		birth=yes
	}
	1396.7.9={
		death=yes
	}
}
12040223={
	name=character_name_12040223 # Haruyuki
	dynasty=10007417 # Hakiri
	father=12040222 # Hakiri Yukiuji
	trait="minamoto_clan"
	religion="hokkeshu"
	culture="koshin"
	1365.1.1={
		birth=yes
	}
	1416.1.14={
		death=yes
	}
}
12040224={
	name=character_name_12040224 # Haruuji
	dynasty=10007417 # Hakiri
	father=12040223 # Hakiri Haruyuki
	trait="minamoto_clan"
	religion="hokkeshu"
	culture="koshin"
	1390.1.1={
		birth=yes
	}
	1444.8.9={
		death=yes
	}
}
12040301={
	name=character_name_12040301 # Nobumasa
	dynasty=10000031 # Nanbu
	father=12040156 # Nanbu Masanaga
	religion="shinto"
	culture="northern_oshu"
	trait="minamoto_clan"
	1320.1.1={
		birth=yes
	}
	1336.1.1={
		give_nickname="nick_saburo"
		add_spouse=12041115 # Kudo Kaizu
	}
	1338.6.10 = {
		dynasty_house = "house_shgnt_nambu_hachinohe"
	}
	1345.3.27={
		give_nickname="nick_kurodo"
	}
	1348.2.4={
		death=yes
	}
}
12040305={
	name=character_name_12040305 # Nobumitsu
#	dynasty=10000031 # Nanbu
	dynasty_house = "house_shgnt_nambu_hachinohe"
	father=12040301 # Nanbu Nobumasa
	mother=12041115 # Kudo Kaizu
	religion="shinto"
	culture="northern_oshu"
	trait="minamoto_clan"
	1340.1.1={
		birth=yes
	}
	1356.1.1={
		give_nickname="nick_saburo"
	}
	1356.11.19={
		give_nickname="nick_satsuma_no_kami"
	}
	1376.2.13={
		death=yes
	}
}
12040306={
	name=character_name_12040306 # Masamitsu
#	dynasty=10000031 # Nanbu
	dynasty_house = "house_shgnt_nambu_hachinohe"
	father=12040301 # Nanbu Nobumasa
	religion="shinto"
	culture="northern_oshu"
	trait="minamoto_clan"
	1345.1.1={
		birth=yes
	}
	1427.3.1={
		death=yes
	}
}
12040310={
	name=character_name_12040310 # Nagatsune
#	dynasty=10000031 # Nanbu
	dynasty_house = "house_shgnt_nambu_hachinohe"
	father=12040305 # Nanbu Nobumitsu
	religion="shinto"
	culture="northern_oshu"
	trait="minamoto_clan"
	1360.1.1={
		birth=yes
	}
	1410.1.1={
		death=yes
	}
}
12040311={
	name=character_name_12040311 # Mitsutsune
#	dynasty=10000031 # Nanbu
	dynasty_house = "house_shgnt_nambu_hachinohe"
	father=12040305 # Nanbu Nobumitsu
	religion="shinto"
	culture="northern_oshu"
	trait="minamoto_clan"
	1362.1.1={
		birth=yes
	}
	1420.1.1={
		death=yes
	}
}
12040315={
	name=character_name_12040315 # Nagayasu
#	dynasty=10000031 # Nanbu
	dynasty_house = "house_shgnt_nambu_hachinohe"
	father=12040311 # Nanbu Mitsutsune
	religion="shinto"
	culture="northern_oshu"
	trait="minamoto_clan"
	1380.1.1={
		birth=yes
	}
	1440.1.1={
		death=yes
	}
}
12040320={
	name=character_name_12040320 # Morikiyo
#	dynasty=10000031 # Nanbu
	dynasty_house = "house_shgnt_nambu_hachinohe"
	father=12040315 # Nanbu Nagayasu
	religion="shinto"
	culture="northern_oshu"
	trait="minamoto_clan"
	1400.1.1={
		birth=yes
	}
	1460.1.1={
		death=yes
	}
}
12040321={
	name=character_name_12040321 # Kiyomasa
#	dynasty=10000049 # Niida
	dynasty_house = "house_shgnt_nambu_hachinohe"
	father=12040315 # Nanbu Nagayasu
	religion="shinto"
	culture="northern_oshu"
	trait="minamoto_clan"
	1402.1.1={
		birth=yes
	}
	1422.01.01 = {
		dynasty_house = "house_shgnt_nambu_niida"
	}
	1460.1.1={
		death=yes
	}
}
12040325={
	name=character_name_12040325 # Masatsune
#	dynasty=10000050 # Hachinohe
	dynasty_house = "house_shgnt_nambu_hachinohe2"
	father=12040321 # Niida Kiyomasa
	religion="shinto"
	culture="northern_oshu"
	trait="minamoto_clan"
	1420.1.1={
		birth=yes
	}
	1480.1.1={
		death=yes
	}
}
12040326={
	name=character_name_12040326 # Kiyotsugu
#	dynasty=10000049 # Niida
	dynasty_house = "house_shgnt_nambu_niida"
	father=12040321 # Niida Kiyomasa
	religion="shinto"
	culture="northern_oshu"
	trait="minamoto_clan"
	1422.1.1={
		birth=yes
	}
	1480.1.1={
		death=yes
	}
}
12041000={
	name=character_name_12041000 # Mitsutada
	dynasty=10006000 # Kudo
	father=10130059 # Kudo Nagamitsu
	trait="fujiwara_clan"
	religion="shinto"
	culture="northern_oshu"
	1230.1.1={
		birth=yes
	}
	1290.1.1={
		death=yes
	}
}
12041001={
	name=character_name_12041001 # Mitsuie
	dynasty=10006000 # Kudo
	father=12041000 # Kudo Mitsutada
	trait="fujiwara_clan"
	religion="shinto"
	culture="northern_oshu"
	1270.1.1={
		birth=yes
	}
	1340.1.1={
		death=yes
	}
}
12041005={
	name=character_name_12041005 # Munemitsu
	dynasty=10006000 # Kudo
	father=12041001 # Kudo Mitsuie
	trait="fujiwara_clan"
	religion="shinto"
	culture="northern_oshu"
	1300.1.1={
		birth=yes
	}
	1360.1.1={
		death=yes
	}
}
12041006={
	name=character_name_12041006 # Koremitsu
	dynasty=10006000 # Kudo
	father=12041001 # Kudo Mitsuie
	trait="fujiwara_clan"
	religion="shinto"
	culture="northern_oshu"
	1310.1.1={
		birth=yes
	}
	1370.1.1={
		death=yes
	}
}
12041100={
	name=character_name_12041100 # Suketomo
	dynasty=10007418 # Kudo
	father=10130080 # Ito Suketoki
	trait="fujiwara_clan"
	religion="shinto"
	culture="northern_oshu"
	1210.1.1={
		birth=yes
	}
	1270.1.1={
		death=yes
	}
}
12041101={
	name=character_name_12041101 # Suketsuna
	dynasty=10007418 # Kudo
	father=12041100 # Kudo Suketomo
	trait="fujiwara_clan"
	religion="shinto"
	culture="northern_oshu"
	1240.1.1={
		birth=yes
	}
	1300.1.1={
		death=yes
	}
}
12041105={
	name=character_name_12041105 # Sukemori
	dynasty=10007418 # Kudo
	father=12041101 # Kudo Suketsuna
	trait="fujiwara_clan"
	religion="shinto"
	culture="northern_oshu"
	1270.1.1={
		birth=yes
	}
	1330.1.1={
		death=yes
	}
}
12041110={
	name=character_name_12041110 # Sadayuki
	dynasty=10007418 # Kudo
	father=12041105 # Kudo Sukemori
	trait="fujiwara_clan"
	religion="shinto"
	culture="northern_oshu"
	1295.1.1={
		birth=yes
	}
	1355.1.1={
		death=yes
	}
}
12041115={
	name=character_name_12041115 # Kaizu
	female=yes
	dynasty=10007418 # Kudo
	father=12041110 # Kudo Sadayuki
	trait="fujiwara_clan"
	religion="shinto"
	culture="northern_oshu"
	1320.1.1={
		birth=yes
	}
	1380.1.1={
		death=yes
	}
}
12041200={
	name=character_name_12041200 # Tokihiro
	dynasty=10007419 # Soga
	trait="taira_clan"
	religion="shinto"
	culture="southern_kanto"
	1140.1.1={
		birth=yes
	}
	1200.1.1={
		death=yes
	}
}
12041201={
	name=character_name_12041201 # Hirotada
	dynasty=10007419 # Soga
	father=12041200 # Soga Tokihiro
	trait="taira_clan"
	religion="shinto"
	culture="southern_kanto"
	1170.1.1={
		birth=yes
	}
	1220.1.1={
		death=yes
	}
}
12041205={
	name=character_name_12041205 # Sukemitsu
	dynasty=10007419 # Soga
	father=12041201 # Soga Hirotada
	trait="taira_clan"
	religion="shinto"
	culture="northern_oshu"
	1190.1.1={
		birth=yes
	}
	1250.1.1={
		death=yes
	}
}
12041206={
	name=character_name_12041206 # Koreshige
	dynasty=10007419 # Soga
	father=12041201 # Soga Hirotada
	trait="taira_clan"
	religion="shinto"
	culture="northern_oshu"
	1200.1.1={
		birth=yes
	}
	1240.1.1={
		death=yes
	}
}
12041210={
	name=character_name_12041210 # Mitsuhiro
	dynasty=10007419 # Soga
	father=12041206 # Soga Koreshige
	trait="taira_clan"
	religion="shinto"
	culture="northern_oshu"
	1220.1.1={
		birth=yes
	}
	1280.1.1={
		death=yes
	}
}
12041215={
	name=character_name_12041215 # Yasumitsu
	dynasty=10007419 # Soga
	father=12041210 # Soga Mitsuhiro
	trait="taira_clan"
	religion="shinto"
	culture="northern_oshu"
	1250.1.1={
		birth=yes
	}
	1310.1.1={
		death=yes
	}
}
12041220={
	name=character_name_12041220 # Mitsuyori
	dynasty=10007419 # Soga
	father=12041215 # Soga Yasumitsu
	trait="taira_clan"
	religion="shinto"
	culture="northern_oshu"
	1270.1.1={
		birth=yes
	}
	1330.1.1={
		death=yes
	}
}
12041225={
	name=character_name_12041225 # Sukemitsu
	dynasty=10007419 # Soga
	father=12041220 # Soga Mitsuyori
	trait="taira_clan"
	religion="shinto"
	culture="northern_oshu"
	1300.1.1={
		birth=yes
	}
	1330.1.1={
		death=yes
	}
}
12041226={
	name=character_name_12041226 # Sadamitsu
	dynasty=10007419 # Soga
	father=12041220 # Soga Mitsuyori
	trait="taira_clan"
	religion="shinto"
	culture="northern_oshu"
	1310.1.1={
		birth=yes
	}
	1370.1.1={
		death=yes
	}
}
12050000 = {
	name=character_name_12050000 # Tomokane
	dynasty=10000041 # Asonuma
	religion="shinto"
	culture="northern_oshu"
	father=12180750 # Asonuma Tomotsuna
	trait="fujiwara_clan"
	1335.1.1 = {
		birth=yes
	}
	1385.1.1 = {
		death=yes
	}
}
12050003 = {
	name=character_name_12050003 # Hirotsuna
	dynasty=10000041 # Asonuma
	religion="shinto"
	culture="northern_oshu"
	father=12050000 # Asonuma Tomokane
	trait="fujiwara_clan"
	1365.1.1 = {
		birth=yes
	}
	1415.1.1 = {
		death=yes
	}
}
12050006 = {
	name=character_name_12050006 # Hideuji
	dynasty=10000041 # Asonuma
	religion="shinto"
	culture="northern_oshu"
	father=12050003 # Asonuma Hirotsuna
	trait="fujiwara_clan"
	1395.1.1 = {
		birth=yes
	}
	1445.1.1 = {
		death=yes
	}
}
12050009 = {
	name=character_name_12050009 # Mitsutsuna
	dynasty=10000041 # Asonuma
	religion="shinto"
	culture="northern_oshu"
	father=12050006 # Asonuma Hideuji
	trait="fujiwara_clan"
	1425.1.1 = {
		birth=yes
	}
	1475.1.1 = {
		death=yes
	}
}
12050012 = {
	name=character_name_12050012 # Morichika
	dynasty=10000041 # Asonuma
	religion="shinto"
	culture="northern_oshu"
	father=12050009 # Asonuma Mitsutsuna
	trait="fujiwara_clan"
	1455.1.1 = {
		birth=yes
	}
	1505.1.1 = {
		death=yes
	}
}
12050013 = {
	name=character_name_12050013 # Moritsuna
	dynasty=10000041 # Asonuma
	religion="shinto"
	culture="northern_oshu"
	father=12050009 # Asonuma Mitsutsuna
	trait="fujiwara_clan"
	1460.1.1 = {
		birth=yes
	}
	1510.1.1 = {
		death=yes
	}
}
12050014 = {
	name=character_name_12050014 # Moriyoshi
	dynasty=10000041 # Asonuma
	religion="shinto"
	culture="northern_oshu"
	father=12050009 # Asonuma Mitsutsuna
	trait="fujiwara_clan"
	1465.1.1 = {
		birth=yes
	}
	1515.1.1 = {
		death=yes
	}
}
12050018 = {
	name=character_name_12050018 # Chikasato
	dynasty=10000041 # Asonuma
	religion="shinto"
	culture="northern_oshu"
	father=12050012 # Asonuma Morichika
	trait="fujiwara_clan"
	1485.1.1 = {
		birth=yes
	}
	1535.1.1 = {
		death=yes
	}
}
12051000={
	name=character_name_12051000 # Tameshige
#	dynasty=10000034 # Hienuki
	dynasty_house = "house_shgnt_date_hienuki"
	father=12121004 # Isa Tameie
	religion="shinto"
	culture="northern_oshu"
	trait="fujiwara_clan"
	1205.1.1={
		birth=yes
	}
	1265.1.1={
		death=yes
	}
}
12051001={
	name=character_name_12051001 # Mitsuie
#	dynasty=10000034 # Hienuki
	dynasty_house = "house_shgnt_date_hienuki"
	father=12051000 # Hienuki Tameshige
	religion="shinto"
	culture="northern_oshu"
	trait="fujiwara_clan"
	1230.1.1={
		birth=yes
	}
	1290.1.1={
		death=yes
	}
}
12051005={
	name=character_name_12051005 # Shigeyasu
#	dynasty=10000034 # Hienuki
	dynasty_house = "house_shgnt_date_hienuki"
	father=12051001 # Hienuki Mitsuie
	religion="shinto"
	culture="northern_oshu"
	trait="fujiwara_clan"
	1255.1.1={
		birth=yes
	}
	1315.1.1={
		death=yes
	}
}
12051010={
	name=character_name_12051010 # Tamemasa
#	dynasty=10000034 # Hienuki
	dynasty_house = "house_shgnt_date_hienuki"
	father=12051005 # Hienuki Shigeyasu
	religion="shinto"
	culture="northern_oshu"
	trait="fujiwara_clan"
	1280.1.1={
		birth=yes
	}
	1340.1.1={
		death=yes
	}
}
12051015={
	name=character_name_12051015 # Ieshige
#	dynasty=10000034 # Hienuki
	dynasty_house = "house_shgnt_date_hienuki"
	father=12051010 # Hienuki Tamemasa
	religion="shinto"
	culture="northern_oshu"
	trait="fujiwara_clan"
	1305.1.1={
		birth=yes
	}
	1365.1.1={
		death=yes
	}
}
12051020={
	name=character_name_12051020 # Shigeto
#	dynasty=10000034 # Hienuki
	dynasty_house = "house_shgnt_date_hienuki"
	father=12051015 # Hienuki Ieshige
	religion="shinto"
	culture="northern_oshu"
	trait="fujiwara_clan"
	1330.1.1={
		birth=yes
	}
	1390.1.1={
		death=yes
	}
}
12051025={
	name=character_name_12051025 # Moriie
#	dynasty=10000034 # Hienuki
	dynasty_house = "house_shgnt_date_hienuki"
	father=12051020 # Hienuki Shigeto
	religion="shinto"
	culture="northern_oshu"
	trait="fujiwara_clan"
	1355.1.1={
		birth=yes
	}
	1415.1.1={
		death=yes
	}
}
12051030={
	name=character_name_12051030 # Tamechika
#	dynasty=10000034 # Hienuki
	dynasty_house = "house_shgnt_date_hienuki"
	father=12051025 # Hienuki Moriie
	religion="shinto"
	culture="northern_oshu"
	trait="fujiwara_clan"
	1380.1.1={
		birth=yes
	}
	1440.1.1={
		death=yes
	}
}
12051035={
	name=character_name_12051035 # Ietaka
#	dynasty=10000034 # Hienuki
	dynasty_house = "house_shgnt_date_hienuki"
	father=12051030 # Hienuki Tamechika
	religion="shinto"
	culture="northern_oshu"
	trait="fujiwara_clan"
	1400.1.1={
		birth=yes
	}
	1460.1.1={
		death=yes
	}
}
12051040={
	name=character_name_12051040 # Tamenaka
#	dynasty=10000034 # Hienuki
	dynasty_house = "house_shgnt_date_hienuki"
	father=12051035 # Hienuki Ietaka
	religion="shinto"
	culture="northern_oshu"
	trait="fujiwara_clan"
	1420.1.1={
		birth=yes
	}
	1480.1.1={
		death=yes
	}
}
12051045={
	name=character_name_12051045 # Tametaka
#	dynasty=10000034 # Hienuki
	dynasty_house = "house_shgnt_date_hienuki"
	father=12051040 # Hienuki Tamenaka
	religion="shinto"
	culture="northern_oshu"
	trait="fujiwara_clan"
	1440.1.1={
		birth=yes
	}
	1490.1.1={
		death=yes
	}
}
12052000={
	name=character_name_12052000 # Yukimitsu
	dynasty=10000051 # Hei
	religion="shinto"
	culture="northern_oshu"
	trait="minamoto_clan"
	1170.1.1={
		birth=yes
	}
	1219.1.1={
		death=yes
	}
}
12052001={
	name=character_name_12052001 # Ietomo
	dynasty=10000051 # Hei
	father=12052000 # Hei Yukimitsu
	religion="shinto"
	culture="northern_oshu"
	trait="minamoto_clan"
	1200.1.1={
		birth=yes
	}
	1260.1.1={
		death=yes
	}
}
12052005={
	name=character_name_12052005 # Mitsutomo
	dynasty=10000051 # Hei
	father=12052001 # Hei Ietomo
	religion="shinto"
	culture="northern_oshu"
	trait="minamoto_clan"
	1230.1.1={
		birth=yes
	}
	1290.1.1={
		death=yes
	}
}
12052010={
	name=character_name_12052010 # Mitsuyori
	dynasty=10000051 # Hei
	father=12052005 # Hei Mitsutomo
	religion="shinto"
	culture="northern_oshu"
	trait="minamoto_clan"
	1260.1.1={
		birth=yes
	}
	1344.1.1={
		death=yes
	}
}
12052015={
	name=character_name_12052015 # Chikamitsu
	dynasty=10000051 # Hei
	father=12052010 # Hei Mitsuyori
	religion="shinto"
	culture="northern_oshu"
	trait="minamoto_clan"
	1290.1.1={
		birth=yes
	}
	1360.1.1={
		death=yes
	}
}
12052020={
	name=character_name_12052020 # Tamenobu
	dynasty=10000051 # Hei
	father=12052015 # Hei Chikamitsu
	religion="shinto"
	culture="northern_oshu"
	trait="minamoto_clan"
	1330.1.1={
		birth=yes
	}
	1366.1.1={
		death=yes
	}
}
12052025={
	name=character_name_12052025 # Hisatomo
	dynasty=10000051 # Hei
	father=12052020 # Hei Tamenobu
	religion="shinto"
	culture="northern_oshu"
	trait="minamoto_clan"
	1360.1.1={
		birth=yes
	}
	1420.1.1={
		death=yes
	}
}
12053000={
	name=character_name_12053000 # Munechika
	dynasty=10000035 # Waga
	religion="shinto"
	culture="northern_oshu"
	1280.1.1={
		birth=yes
	}
	1340.1.1={
		death=yes
	}
}
12053001={
	name=character_name_12053001 # Tadayoshi
	dynasty=10000035 # Waga
	father=12053000 # Waga Munechika
	religion="shinto"
	culture="northern_oshu"
	1300.1.1={
		birth=yes
	}
	1360.1.1={
		death=yes
	}
}
12053002={
	name=character_name_12053002 # Mitsuyoshi
	dynasty=10000035 # Waga
	father=12053000 # Waga Munechika
	religion="shinto"
	culture="northern_oshu"
	1310.1.1={
		birth=yes
	}
	1370.1.1={
		death=yes
	}
}
12053005={
	name=character_name_12053005 # Sadayoshi
	dynasty=10000035 # Waga
	father=12053001 # Waga Tadayoshi
	religion="shinto"
	culture="northern_oshu"
	1320.1.1={
		birth=yes
	}
	1380.1.1={
		death=yes
	}
}
12053010={
	name=character_name_12053010 # Shigeyoshi
	dynasty=10000035 # Waga
	father=12053005 # Waga Sadayoshi
	religion="shinto"
	culture="northern_oshu"
	1340.1.1={
		birth=yes
	}
	1400.1.1={
		death=yes
	}
}
12053015={
	name=character_name_12053015 # Masayoshi
	dynasty=10000035 # Waga
	father=12053010 # Waga Shigeyoshi
	religion="shinto"
	culture="northern_oshu"
	1360.1.1={
		birth=yes
	}
	1420.1.1={
		death=yes
	}
}
12053020={
	name=character_name_12053020 # Hideyoshi
	dynasty=10000035 # Waga
	father=12053015 # Waga Masayoshi
	religion="shinto"
	culture="northern_oshu"
	1380.1.1={
		birth=yes
	}
	1440.1.1={
		death=yes
	}
}
12053025={
	name=character_name_12053025 # Hidetomo
	dynasty=10000035 # Waga
	father=12053020 # Waga Hideyoshi
	religion="shinto"
	culture="northern_oshu"
	1400.1.1={
		birth=yes
	}
	1460.1.1={
		death=yes
	}
}
