﻿12630000={
	name=character_name_12630000 # Suenori
	dynasty=10000536 # Uno
	religion="shinto"
	culture="sanyo"
	trait="minamoto_clan"
	1090.1.1={
		birth=yes
	}
	1150.1.1={
		death=yes
	}
}
12630001={
	name=character_name_12630001 # Yorinori
	dynasty=10000536 # Uno
	father=12630000 # Uno Suenori
	religion="shinto"
	culture="sanyo"
	trait="minamoto_clan"
	1120.1.1={
		birth=yes
	}
	1180.1.1={
		death=yes
	}
}
12630002={
	name=character_name_12630002 # Tamesuke
	dynasty=10000536 # Uno
	father=12630001 # Uno Yorinori
	religion="shinto"
	culture="sanyo"
	trait="minamoto_clan"
	1140.1.1={
		birth=yes
	}
	1200.1.1={
		death=yes
	}
}
12630003={
	name=character_name_12630003 # Tameyori
	dynasty=10000536 # Uno
	father=12630002 # Uno Tamesuke
	religion="shinto"
	culture="sanyo"
	trait="minamoto_clan"
	1195.1.1={
		birth=yes
	}
	1255.1.1={
		death=yes
	}
}
12630100={
	name=character_name_12630100 # Norikage
#	dynasty=10000535 # Akamatsu
	dynasty_house = "house_shgnt_akamatsu"
	father=12630001 # Uno Yorinori
	religion="shinto"
	culture="sanyo"
	trait="minamoto_clan"
	1144.1.1={
		birth=yes
	}
	1222.1.1={
		death=yes
		dynasty = 10000535
	}
}
12630101={
	name=character_name_12630101 # Ienori
#	dynasty=10000535 # Akamatsu
	dynasty_house = "house_shgnt_akamatsu"
	father=12630100 # Akamatsu Norikage
	religion="shinto"
	culture="sanyo"
	trait="minamoto_clan"
	1180.1.1={
		birth=yes
	}
	1240.1.1={
		death=yes
		dynasty = 10000535
	}
}
12630102={
	name=character_name_12630102 # Hisanori
	dynasty=10000535 # Akamatsu
	father=12630101 # Akamatsu Ienori
	religion="shinto"
	culture="sanyo"
	trait="minamoto_clan"
	1210.1.1={
		birth=yes
	}
	1270.1.1={
		death=yes
	}
}
12630103={
	name=character_name_12630103 # Shigenori
	dynasty=10000535 # Akamatsu
	father=12630102 # Akamatsu Hisanori
	religion="shinto"
	culture="sanyo"
	trait="minamoto_clan"
	1240.1.1={
		birth=yes
	}
	1300.1.1={
		death=yes
	}
}
12630104={
	name=character_name_12630104 # Noriko
	female=yes
	dynasty=10000535 # Akamatsu
	father=12630103 # Akamatsu Shigenori
	religion="shinto"
	culture="sanyo"
	trait="minamoto_clan"
	1263.1.1={
		birth=yes
	}
	1313.1.1={
		death=yes
	}
}
12630200={
	name=character_name_12630200 # Yorikiyo
	dynasty=10007156 # Bessho
	father=12630000 # Uno Suenori
	religion="shinto"
	culture="sanyo"
	trait="minamoto_clan"
	1130.1.1={
		birth=yes
	}
	1190.1.1={
		death=yes
	}
}
12630201={
	name=character_name_12630201 # Kiyotsugu
	dynasty=10007156 # Bessho
	father=12630200 # Bessho Yorikiyo
	religion="shinto"
	culture="sanyo"
	trait="minamoto_clan"
	1160.1.1={
		birth=yes
	}
	1220.1.1={
		death=yes
	}
}
12630202 = {
	name=character_name_12630202 # Kiyonaga 
	dynasty=10007156 # Bessho
	father=12630200
	religion="shinto"
	culture="sanyo"
	trait="minamoto_clan"
	1155.1.1={
		birth=yes
	}
	1190.1.1={
		death=yes
	}
}
12630203 = {
	name=character_name_12630203 # Kiyonori 
	dynasty=10007156 # Bessho
	father=12630200
	religion="shinto"
	culture="sanyo"
	trait="minamoto_clan"
	1165.1.2={
		birth=yes
	}
	1230.1.1={
		death=yes
	}
}
12630204 = {
	name=character_name_12630204 # Kiyomitsu 
	dynasty=10007156 # Bessho
	father=12630201
	religion="shinto"
	culture="sanyo"
	trait="minamoto_clan"
	1190.1.1={
		birth=yes
	}
	1250.1.1={
		death=yes
	}
}
12630205 = {
	name=character_name_12630205 # Yorimitsu 
	dynasty=10007156 # Bessho
	father=12630204
	religion="shinto"
	culture="sanyo"
	trait="minamoto_clan"
	1210.1.1={
		birth=yes
	}
	1280.1.1={
		death=yes
	}
}
12630206 = {
	name=character_name_12630206 # Norimitsu 
	dynasty=10007156 # Bessho
	father=12630205
	religion="shinto"
	culture="sanyo"
	trait="minamoto_clan"
	1240.1.1={
		birth=yes
	}
	1290.1.1={
		death=yes
	}
}
12630207 = {
	name=character_name_12630207 # Mitsuko 
	dynasty=10007156 # Bessho
	female=yes
	father=12630206
	religion="shinto"
	culture="sanyo"
	trait="minamoto_clan"
	1270.1.1={
		birth=yes
	}
	1330.1.1={
		death=yes
	}
}
12630208 = {
	name=character_name_12630208 # Atsumitsu 
	dynasty=10007156 # Bessho
	father=12630103
	religion="shinto"
	culture="sanyo"
	trait="minamoto_clan"
	1270.1.1={
		birth=yes
	}
	1290.1.1={
		add_spouse=12630207
	}
	1320.1.1={
		death=yes
	}
}
12630209 = {
	name=character_name_12630209 # Atsunori 
	dynasty=10007156 # Bessho
	mother=12630207
	father=12630208
	religion="shinto"
	culture="sanyo"
	trait="minamoto_clan"
	1300.1.1={
		birth=yes
	}
	1370.1.1={
		death=yes
	}
}
12630300={
	name=character_name_12630300 # Morinobu
	dynasty=10000540 # Emi
	religion="shinto"
	culture="sanyo"
	1125.1.1={
		birth=yes
	}
	1141.1.1={
		give_nickname="nick_jio"
	}
	1185.1.1={
		death=yes
	}
}
12630301={
	name=character_name_12630301 # Morikata
	dynasty=10000540 # Emi
	father=12630300 # Emi Morinobu
	religion="shinto"
	culture="sanyo"
	1155.1.1={
		birth=yes
	}
	1171.1.1={
		give_nickname="nick_jio"
	}
	1184.3.20={
		death=yes
	}
}
12630302={
	name=character_name_12630302 # Jiro
	dynasty=10000540 # Emi
	father=12630301 # Emi Morikata
	religion="shinto"
	culture="sanyo"
	1180.1.1={
		birth=yes
	}
	1240.1.1={
		death=yes
	}
}
12630303={
	name=character_name_12630303 # Jiro
	dynasty=10000540 # Emi
	father=12630302 # Emi Jiro
	religion="shinto"
	culture="sanyo"
	1220.1.1={
		birth=yes
	}
	1280.1.1={
		death=yes
	}
}
12630304={
	name=character_name_12630304 # Jiro
	dynasty=10000540 # Emi
	father=12630303 # Emi Jiro
	religion="shinto"
	culture="sanyo"
	1260.1.1={
		birth=yes
	}
	1320.1.1={
		death=yes
	}
}
12630305={
	name=character_name_12630305 # Nobumori
	dynasty=10000540 # Emi
	father=12630304 # Emi Jiro
	religion="shinto"
	culture="sanyo"
	1300.1.1={
		birth=yes
	}
	1360.1.1={
		death=yes
	}
}
12630306={
	name=character_name_12630306 # IzuNoKami
	dynasty=10000540 # Emi
	father=12630305 # Emi Nobumori
	religion="shinto"
	culture="sanyo"
	1340.1.1={
		birth=yes
	}
	1400.1.1={
		death=yes
	}
}
12630307={
	name=character_name_12630307 # IzuNoKami
	dynasty=10000540 # Emi
	father=12630306 # Emi IzuNoKami
	religion="shinto"
	culture="sanyo"
	1380.1.1={
		birth=yes
	}
	1440.1.1={
		death=yes
	}
}
12630308={
	name=character_name_12630308 # IzuNoKami
	dynasty=10000540 # Emi
	father=12630307 # Emi IzuNoKami
	religion="shinto"
	culture="sanyo"
	1420.1.1={
		birth=yes
	}
	1460.1.1={
		death=yes
	}
}
12630400={
	name=character_name_12630400 # Tsunenobu
	dynasty=10007111 # Naniwa
	religion="shinto"
	culture="sanyo"
	1100.1.1={
		birth=yes
	}
	1160.1.1={
		death=yes
	}
}
12630401={
	name=character_name_12630401 # Tsuneto
	dynasty=10007111 # Naniwa
	father=12630400 # Naniwa Tsunenobu
	religion="shinto"
	culture="sanyo"
	1130.1.1={
		birth=yes
	}
	1146.1.1={
		give_nickname="nick_jio"
	}
	1185.4.25={
		death=yes
	}
}
12630402={
	name=character_name_12630402 # Tsunefusa
	dynasty=10007111 # Naniwa
	father=12630400 # Naniwa Tsunenobu
	religion="shinto"
	culture="sanyo"
	1132.1.1={
		birth=yes
	}
	1167.1.1={
		death=yes
	}
}
12630403={
	name=character_name_12630403 # Tsuneie
	dynasty=10007111 # Naniwa
	father=12630401 # Naniwa Tsuneto
	religion="shinto"
	culture="sanyo"
	1150.1.1={
		birth=yes
	}
	1185.4.25={
		death=yes
	}
}
12630404={
	name=character_name_12630404 # Tsunemune
	dynasty=10007111 # Naniwa
	father=12630403 # Naniwa Tsuneie
	religion="shinto"
	culture="sanyo"
	1170.1.1={
		birth=yes
	}
	1230.1.1={
		death=yes
	}
}
12630500={
	name=character_name_12630500 # Motoharu
	dynasty=10007112 # Tajibe
	religion="shinto"
	culture="sanyo"
	1160.1.1={
		birth=yes
	}
	1220.1.1={
		death=yes
	}
}
12630600={
	name=character_name_12630600 # Katsutaka
	dynasty=10007113 # Suyama
	religion="shinto"
	culture="sanyo"
	trait="taira_clan"
	1120.1.1={
		birth=yes
	}
	1180.1.1={
		death=yes
	}
}
12630601={
	name=character_name_12630601 # Takamitsu
	dynasty=10007113 # Suyama
	father=12630600 # Suyama Katsutaka
	religion="shinto"
	culture="sanyo"
	trait="taira_clan"
	1155.1.1={
		birth=yes
	}
	1185.4.25={
		death=yes
	}
}
12630602={
	name=character_name_12630602 # Michikatsu
	dynasty=10007113 # Suyama
	father=12630600 # Suyama Katsutaka
	religion="shinto"
	culture="sanyo"
	trait="taira_clan"
	1160.1.1={
		birth=yes
	}
	1220.1.1={
		death=yes
	}
}
12630700={
	name=character_name_12630700 # Kaneyasu
	dynasty=10007114 # Senoo
	religion="shinto"
	culture="sanyo"
	martial=9
	intrigue=8
	trait="education_intrigue_2"
	trait="brave"
	trait="fujiwara_clan"
	prowess=13
	1123.1.1={
		birth=yes
	}
	1139.1.1={
		give_nickname="nick_taro"
	}
	1183.11.28={
		death=yes
	}
}
12630701={
	name=character_name_12630701 # Muneyasu
	dynasty=10007114 # Senoo
	father=12630700 # Senoo Kaneyasu
	religion="shinto"
	culture="sanyo"
	trait="education_intrigue_1"
	trait="greedy"
	trait="fujiwara_clan"
	1160.1.1={
		birth=yes
	}
	1176.1.1={
		give_nickname="nick_Tarotaro"
	}
	1183.11.28={
		death=yes
	}
}
12630800={
	name=character_name_12630800 # Tokikuni
	dynasty=10007238 # Urushima
	religion="shinto"
	culture="sanyo"
	1098.1.1={
		birth=yes
	}
	1141.1.1={
		death=yes
	}
}
12630805={
	name=character_name_12630805 # Honen
	dynasty=10007238 # Urushima
	father=12630800 # 
	religion="shinto"
	culture="kinai_buddhist"
	trait="education_learning_4"
	trait="intellect_good_3"
#	trait="jodo_buddhist"
	1133.5.13={
		birth=yes
	}
	1143.1.1={
		effect = {
			add_trait = "devoted"
		}
	}
	1175.1.1={
	}
	1179.12.18 = {
		effect = {
			set_employer = character:10110025
			return_to_court = yes
		}
	}
	1181.3.20 = {
		effect = {
			set_employer = character:10110042
			return_to_court = yes
		}
	}
	1183.8.17 = {
		effect = {
			set_employer = character:10120084
			return_to_court = yes
		}
	}
	1184.3.4 = {
		effect = {
			set_employer = character:10120081
			return_to_court = yes
		}
	}
	1185.11.26 = {
		effect = {
			set_employer = character:10131650
			return_to_court = yes
		}
	}
	1186.4.1 = {
		effect = {
			set_employer = character:11006480
			return_to_court = yes
		}
	}
	1197.11.23 = {
		effect = {
			set_employer = character:11006483
			return_to_court = yes
		}
	}
	1198.10.19 = {
		effect = {
			set_employer = character:10230555
			return_to_court = yes
		}
	}
	1202.9.13 = {
		effect = {
			host ?= {
				remove_courtier_or_guest = root
			}
		}
	}
	1212.2.28={
		death=yes
	}
}
12630900={
	name=character_name_12630900 # Taro # Fictional
	dynasty=10007239 # Manabe
	religion="shinto"
	culture="sanyo"
	1120.1.1={
		birth=yes
	}
	1180.1.1={
		death=yes
	}
}
12630905={
	name=character_name_12630905 # Sukehisa
	dynasty=10007239 # Manabe
	father=12630900 # 
	religion="shinto"
	culture="sanyo"
	trait="education_martial_2"
	trait="lifestyle_hunter"
	1154.1.1={
		birth=yes
		effect = {
			add_trait_xp = {
				trait = lifestyle_hunter
				track = hunter
				value = 100
			}
			add_trait_xp = {
				trait = lifestyle_hunter
				track = falconer
				value = 100
			}
		}
	}
	1179.12.18={
		effect = {
			set_employer = character:10110042
			return_to_court = yes
		}
	}
	1185.4.25={
		death=yes
	}
}
12630906={
	name=character_name_12630906 # Sukemitsu
	dynasty=10007239 # Manabe
	father=12630900 # 
	religion="shinto"
	culture="sanyo"
	trait="education_martial_2"
	trait="lifestyle_hunter"
	1155.1.1={
		birth=yes
		effect = {
			add_trait_xp = {
				trait = lifestyle_hunter
				track = hunter
				value = 100
			}
			add_trait_xp = {
				trait = lifestyle_hunter
				track = falconer
				value = 100
			}
		}
	}
	1179.12.18={
		effect = {
			set_employer = character:10110042
			return_to_court = yes
		}
	}
	1185.4.25={
		death=yes
	}
}
12630950={
	name=character_name_12630950 # Shigenobu
	dynasty=10007326 # Akiha
	religion="shinto"
	culture="sanyo"
	trait="taira_clan"
	1190.1.1={
		birth=yes
	}
	1206.1.1={
		give_nickname="nick_saburo"
	}
	1240.1.1={
		death=yes
	}
}
12630951={
	name=character_name_12630951 # Nobumura
	dynasty=10007326 # Akiha
	father=12630950 # Akiha Shigenobu
	religion="shinto"
	culture="sanyo"
	trait="taira_clan"
	1215.1.1={
		birth=yes
	}
	1231.1.1={
		give_nickname="nick_Matashiro"
	}
	1265.1.1={
		death=yes
	}
}
12630952={
	name=character_name_12630952 # Shigeto
	dynasty=10007326 # Akiha
	father=12630950 # Akiha Shigenobu
	religion="shinto"
	culture="sanyo"
	trait="taira_clan"
	1220.1.1={
		birth=yes
	}
	1236.1.1={
		give_nickname="nick_Heirokuro"
	}
	1290.1.1={
		death=yes
	}
}
12630953={
	name=character_name_12630953 # Yoshitsugu
	dynasty=10007326 # Akiha
	father=12630951 # Akiha Nobumura
	religion="shinto"
	culture="sanyo"
	trait="taira_clan"
	1240.1.1={
		birth=yes
	}
	1256.1.1={
		give_nickname="nick_Kosaburo"
	}
	1290.1.1={
		death=yes
	}
}
12630954={
	name=character_name_12630954 # Shigetomo
	dynasty=10007326 # Akiha
	father=12630953 # Akiha Yoshitsugu
	religion="shinto"
	culture="sanyo"
	trait="taira_clan"
	1260.1.1={
		birth=yes
	}
	1276.1.1={
		give_nickname="nick_saburo"
	}
	1310.1.1={
		death=yes
	}
}
12630955={
	name=character_name_12630955 # Nobumori
	dynasty=10007326 # Akiha
	father=12630954 # Akiha Shigetomo
	religion="shinto"
	culture="sanyo"
	trait="taira_clan"
	1290.1.1={
		birth=yes
	}
	1306.1.1={
		give_nickname="nick_saburo"
	}
	1365.1.1={
		death=yes
	}
}
12630956={
	name=character_name_12630956 # Shigetsugu
	dynasty=10007326 # Akiha
	father=12630954 # Akiha Shigetomo
	religion="shinto"
	culture="sanyo"
	trait="taira_clan"
	1295.1.1={
		birth=yes
	}
	1311.1.1={
		give_nickname="nick_shichiro"
	}
	1370.1.1={
		death=yes
	}
}
12630957={
	name=character_name_12630957 # Shigeaki
	dynasty=10007326 # Akiha
	father=12630955 # Akiha Nobumori
	religion="shinto"
	culture="sanyo"
	trait="taira_clan"
	1320.1.1={
		birth=yes
	}
	1336.1.1={
		give_nickname="nick_saburo"
	}
	1350.1.1={
		give_nickname="nick_higo_no_kami"
	}
	1370.1.1={
		death=yes
	}
}
12630958={
	name=character_name_12630958 # Yorishige
	dynasty=10007326 # Akiha
	father=12630957 # Akiha Shigeaki
	religion="shinto"
	culture="sanyo"
	trait="taira_clan"
	1355.1.1={
		birth=yes
	}
	1371.1.1={
		give_nickname="nick_hachiro"
	}
	1405.1.1={
		death=yes
	}
}
12630959={
	name=character_name_12630959 # Yoritsugu
	dynasty=10007326 # Akiha
	father=12630958 # Akiha Yorishige
	religion="shinto"
	culture="sanyo"
	trait="taira_clan"
	1390.1.1={
		birth=yes
	}
	1440.1.1={
		death=yes
	}
}
12630960={
	name=character_name_12630960 # Motoaki
	dynasty=10007326 # Akiha
	father=12630959 # Akiha Yoritsugu
	religion="shinto"
	culture="sanyo"
	trait="taira_clan"
	1420.1.1={
		birth=yes
	}
	1445.1.1={
		give_nickname="nick_bitchu_no_kami"
	}
	1509.1.1={
		death={
			death_reason=death_battle
		}
	}
}
12630961={
	name=character_name_12630961 # Motoshige
	dynasty=10007326 # Akiha
	father=12630960 # Akiha Motoaki
	religion="shinto"
	culture="sanyo"
	trait="taira_clan"
	1455.1.1={
		birth=yes
	}
	1509.1.1={
		death={
			death_reason=death_battle
		}
	}
}
12630970={
	name=character_name_12630970 # Tokikage
	dynasty=10007328 # Uta
	religion="shinto"
	culture="southern_kanto"
	trait="fujiwara_clan"
	1210.1.1={
		birth=yes
	}
	1235.1.1={
		give_nickname="nick_saemon_no_jo"
	}
	1280.1.1={
		death=yes
	}
}
12630971={
	name=character_name_12630971 # SaemonSaburo
	dynasty=10007328 # Uta
	father=12630970 # Uta Tokikage
	religion="shinto"
	culture="southern_kanto"
	trait="fujiwara_clan"
	1240.1.1={
		birth=yes
	}
	1250.1.1={
		effect = {
			add_trait = "devoted"
		}
	}
	1256.1.1={
		give_nickname="nick_saburo"
	}
	1300.1.1={
		death=yes
	}
}
12630972={
	name=character_name_12630972 # Saemon
	dynasty=10007328 # Uta
	father=12630971 # Uta SaemonSaburo
	religion="shinto"
	culture="southern_kanto"
	trait="fujiwara_clan"
	1265.1.1={
		birth=yes
	}
	1325.1.1={
		death=yes
	}
}
12630973={
	name=character_name_12630973 # Saemon
	dynasty=10007328 # Uta
	father=12630972 # Uta Saemon
	religion="shinto"
	culture="southern_kanto"
	trait="fujiwara_clan"
	1295.1.1={
		birth=yes
	}
	1355.1.1={
		death=yes
	}
}
12630974={
	name=character_name_12630974 # KoanShikyu
	dynasty=10007328 # Uta
	father=12630973 # Uta Saemon
	religion="shinto"
	culture="sanyo"
#	trait="zen_buddhist"
	trait="fujiwara_clan"
	1320.1.1={
		birth=yes
	}
	1330.1.1={
		culture="saigoku_buddhist"
		effect = {
			add_trait = "devoted"
		}
	}
	1401.1.1={
		death=yes
	}
}
12630975={
	name=character_name_12630975 # Kagesada
	dynasty=10007328 # Uta
	father=12630973 # Uta Saemon
	religion="shinto"
	culture="sanyo"
	trait="fujiwara_clan"
	1325.1.1={
		birth=yes
	}
	1350.1.1={
		give_nickname="nick_bizen_no_kami"
	}
	1385.1.1={
		death=yes
	}
}
12630977={
	name=character_name_12630977 # Morokage
	dynasty=10007327 # Tajibe
	father=12630975 # Uta Kagesada
	religion="shinto"
	culture="sanyo"
	trait="fujiwara_clan"
	1345.1.1={
		birth=yes
	}
	1360.1.1 = {
		effect = {
			set_employer = character:12631007
			return_to_court = yes
		}
	}
	1370.1.1={
		give_nickname="nick_bitchu_no_kami"
	}
	1377.1.1={
		death={
			death_reason=death_battle
		}
	}
}
12630978={
	name=character_name_12630978 # Mitsukage
	dynasty=10007327 # Tajibe
	father=12630975 # Uta Kagesada
	religion="shinto"
	culture="sanyo"
	trait="fujiwara_clan"
	1348.1.1={
		birth=yes
	}
	1398.1.1={
		death=yes
	}
}
12630980={
	name=character_name_12630980 # Shojiro
	dynasty=10007327 # Tajibe
	father=12630977 # Tajibe Morokage
	religion="shinto"
	culture="sanyo"
	trait="fujiwara_clan"
	1365.1.1={
		birth=yes
	}
	1377.1.1 = {
		effect = {
			set_employer = character:12631007
			return_to_court = yes
		}
	}
	1381.1.1={
		give_nickname="nick_Jiroshiro"
	}
	1400.1.1 = {
		effect = {
			set_employer = character:12631010
			return_to_court = yes
		}
	}
	1415.1.1={
		death=yes
	}
}
12630981={
	name=character_name_12630981 # BicchuNyudo
	dynasty=10007327 # Tajibe
	father=12630980 # Tajibe Shojiro
	religion="shinto"
	culture="sanyo"
	trait="fujiwara_clan"
	1385.1.1={
		birth=yes
	}
	1415.1.1 = {
		effect = {
			set_employer = character:12631010
			return_to_court = yes
		}
	}
	1435.1.1 = {
		effect = {
			set_employer = character:12631012
			return_to_court = yes
		}
	}
	1450.1.1={
		death=yes
	}
}
12630983={
	name=character_name_12630983 # Hisakage
	dynasty=10007327 # Tajibe
	father=12630981 # Tajibe BicchuNyudo
	religion="shinto"
	culture="sanyo"
	trait="fujiwara_clan"
	1415.1.1={
		birth=yes
	}
	1431.1.1={
		give_nickname="nick_bitchu_no_kami"
	}
	1450.1.1 = {
		effect = {
			set_employer = character:12631012
			return_to_court = yes
		}
	}
	1470.1.1 = {
		effect = {
			set_employer = character:12631013
			return_to_court = yes
		}
	}
	1485.1.1={
		death=yes
	}
}
12630984={
	name=character_name_12630984 # Kurando
	dynasty=10007327 # Tajibe
	father=12630981 # Tajibe BicchuNyudo
	religion="shinto"
	culture="sanyo"
	trait="fujiwara_clan"
	1417.1.1={
		birth=yes
	}
	1467.1.1={
		death=yes
	}
}
12630985={
	name=character_name_12630985 # Tadakage
	dynasty=10007327 # Tajibe
	father=12630983 # Tajibe Hisakage
	religion="shinto"
	culture="sanyo"
	trait="fujiwara_clan"
	1440.1.1={
		birth=yes
	}
	1456.1.1={
		give_nickname="nick_Yajio"
	}
	1485.1.1 = {
		effect = {
			set_employer = character:12631013
			return_to_court = yes
		}
	}
	1500.1.1={
		death=yes
	}
}
12630987={
	name=character_name_12630987 # SurugaNoKami
	dynasty=10007327 # Tajibe
	father=12630984 # Tajibe Kurando
	religion="shinto"
	culture="sanyo"
	trait="fujiwara_clan"
	1442.1.1={
		birth=yes
	}
	1492.1.1={
		death=yes
	}
}
12630989={
	name=character_name_12630989 # Yajiro
	dynasty=10007327 # Tajibe
	father=12630985 # Tajibe Tadakage
	religion="shinto"
	culture="sanyo"
	trait="fujiwara_clan"
	1460.1.1={
		birth=yes
	}
	1500.1.1 = {
		effect = {
			set_employer = character:12631017
			return_to_court = yes
		}
	}
	1510.1.1={
		death=yes
	}
}
12630990={
	name=character_name_12630990 # Jiro
	dynasty=10007327 # Tajibe
	father=12630989 # Tajibe Yajiro
	religion="shinto"
	culture="sanyo"
	trait="fujiwara_clan"
	1485.1.1={
		birth=yes
	}
	1510.1.1 = {
		effect = {
			set_employer = character:12631017
			return_to_court = yes
		}
	}
	1530.1.1 = {
		effect = {
			set_employer = character:12631018
			return_to_court = yes
		}
	}
	1534.1.1 = {
		effect = {
			host ?= {
				remove_courtier_or_guest = root
			}
		}
	}
	1535.1.1={
		death=yes
	}
}
12630991={
	name=character_name_12630991 # NotoNoKami
	dynasty=10007327 # Tajibe
	father=12630990 # Tajibe Jiro
	religion="shinto"
	culture="sanyo"
	trait="fujiwara_clan"
	1510.1.1={
		birth=yes
	}
	1534.1.1 = {
		effect = {
			set_employer = character:12631018
			return_to_court = yes
		}
	}
	1560.1.1={
		death=yes
	}
}
12630992={
	name=character_name_12630992 # Kamehoushi
	dynasty=10007327 # Tajibe
	father=12630991 # Tajibe NotoNoKami
	religion="shinto"
	culture="sanyo"
	trait="fujiwara_clan"
	1530.1.1={
		birth=yes
	}
	1560.1.1 = {
		effect = {
			set_employer = character:12631018
			return_to_court = yes
		}
	}
	1566.1.1 = {
		effect = {
			set_employer = character:10054907
			return_to_court = yes
		}
	}
	1575.7.9 = {
		effect = {
			set_employer = character:10056015
			return_to_court = yes
		}
	}
	1580.1.1={
		death=yes
	}
}
12630993={
	name=character_name_12630993 # Kageharu
	dynasty=10007327 # Tajibe
	father=12630992 # Tajibe Kamehoushi
	religion="shinto"
	culture="sanyo"
	trait="fujiwara_clan"
	1550.1.1={
		birth=yes
	}
	1575.1.1={
		give_nickname="nick_uta_no_kami"
	}
	1580.1.1 = {
		effect = {
			set_employer = character:10056015
			return_to_court = yes
		}
	}
	1586.12.25 = {
		effect = {
			set_employer = character:10056025
			return_to_court = yes
		}
	}
	1595.4.24={
		death=yes
	}
}
12631000={
	name=character_name_12631000 # Sukemitsu #In 1222, Jito of Niimi
	dynasty=10000520 # Niimi
	religion="shinto"
	culture="sanyo"
	trait="fujiwara_clan"
	1160.1.1={
		birth=yes
	}
	1240.1.1={
		death=yes
	}
}
12631001={
	name=character_name_12631001 # Jibujo
	dynasty=10000520 # Niimi
	father=12631000 # Niimi Sukemitsu
	religion="shinto"
	culture="sanyo"
	trait="fujiwara_clan"
	1185.1.1={
		birth=yes
	}
	1235.1.1={
		death=yes
	}
}
12631002={
	name=character_name_12631002 # Jibujo
	dynasty=10000520 # Niimi
	father=12631001 # Niimi Jibujo
	religion="shinto"
	culture="sanyo"
	trait="fujiwara_clan"
	1205.1.1={
		birth=yes
	}
	1255.1.1={
		death=yes
	}
}
12631003={
	name=character_name_12631003 # Jibujo
	dynasty=10000520 # Niimi
	father=12631002 # Niimi Jibujo
	religion="shinto"
	culture="sanyo"
	trait="fujiwara_clan"
	1230.1.1={
		birth=yes
	}
	1280.1.1={
		death=yes
	}
}
12631004={
	name=character_name_12631004 # Jibujo
	dynasty=10000520 # Niimi
	father=12631003 # Niimi Jibujo
	religion="shinto"
	culture="sanyo"
	trait="fujiwara_clan"
	1250.1.1={
		birth=yes
	}
	1300.1.1={
		death=yes
	}
}
12631005={
	name=character_name_12631005 # Jibujo
	dynasty=10000520 # Niimi
	father=12631004 # Niimi Jibujo
	religion="shinto"
	culture="sanyo"
	trait="fujiwara_clan"
	1275.1.1={
		birth=yes
	}
	1325.1.1={
		death=yes
	}
}
12631006={
	name=character_name_12631006 # Jibujo
	dynasty=10000520 # Niimi
	father=12631005 # Niimi Jibujo
	religion="shinto"
	culture="sanyo"
	trait="fujiwara_clan"
	1295.1.1={
		birth=yes
	}
	1345.1.1={
		death=yes
	}
}
12631007={
	name=character_name_12631007 # Sadanao
	dynasty=10000520 # Niimi
	father=12631006 # Niimi Jibujo
	religion="shinto"
	culture="sanyo"
	trait="fujiwara_clan"
	1315.1.1={
		birth=yes
	}
	1400.1.1={
		death=yes
	}
}
12631008={
	name=character_name_12631008 # Tarosaemon
	dynasty=10000520 # Niimi
	father=12631007 # Niimi Sadanao
	religion="shinto"
	culture="sanyo"
	trait="fujiwara_clan"
	1340.1.1={
		birth=yes
	}
	1390.1.1={
		death=yes
	}
}
12631010={
	name=character_name_12631010 # Kiyonao
	dynasty=10000520 # Niimi
	father=12631008 # Niimi Tarosaemon
	religion="shinto"
	culture="sanyo"
	trait="fujiwara_clan"
	1365.1.1={
		birth=yes
	}
	1435.1.1={
		death=yes
	}
}
12631012={
	name=character_name_12631012 # Tsunenao
	dynasty=10000520 # Niimi
	father=12631010 # Niimi Kiyonao
	religion="shinto"
	culture="sanyo"
	trait="fujiwara_clan"
	1400.1.1={
		birth=yes
	}
	1470.1.1={
		death=yes
	}
}
12631013={
	name=character_name_12631013 # Katanao
	dynasty=10000520 # Niimi
	father=12631012 # Niimi Tsunenao
	religion="shinto"
	culture="sanyo"
	trait="fujiwara_clan"
	1425.1.1={
		birth=yes
	}
	1500.1.1={
		death=yes
	}
}
12631014={
	name=character_name_12631014 # Masanao
	dynasty=10000520 # Niimi
	father=12631013 # Niimi Katanao
	religion="shinto"
	culture="sanyo"
	trait="fujiwara_clan"
	1455.1.1={
		birth=yes
	}
	1515.1.1={
		death=yes
	}
}
12631015={
	name=character_name_12631015 # Soken
	dynasty=10000520 # Niimi
	father=12631012 # Niimi Tsunenao
	religion="shinto"
	culture="sanyo"
	trait="fujiwara_clan"
	1458.1.1={
		birth=yes
	}
	1528.1.1={
		death=yes
	}
}
12631017={
	name=character_name_12631017 # Kunitsune
	dynasty=10000520 # Niimi
	father=12631013 # Niimi Katanao
	religion="shinto"
	culture="sanyo"
	trait="fujiwara_clan"
	1480.1.1={
		birth=yes
	}
	1530.1.1={
		death=yes
	}
}
12631018={
	name=character_name_12631018 # Sadatsune
	dynasty=10000520 # Niimi
	father=12631017 # Niimi Kunitsune
	religion="shinto"
	culture="sanyo"
	trait="fujiwara_clan"
	1490.1.1={
		birth=yes
	}
	1570.1.1={
		death=yes
	}
}
12631019={
	name=character_name_12631019 # Saburo
	dynasty=10000520 # Niimi
	father=12631013 # Niimi Katanao
	religion="shinto"
	culture="sanyo"
	trait="fujiwara_clan"
	1495.1.1={
		birth=yes
	}
	1515.8.16={
		death=yes
	}
}
12631021={
	name=character_name_12631021 # Sadaaki
	dynasty=10000520 # Niimi
	father=12631018 # Niimi Sadatsune
	religion="shinto"
	culture="sanyo"
	trait="fujiwara_clan"
	1560.1.1={
		birth=yes
	}
	1590.1.1={
		death=yes
	}
}
12631100={
	name=character_name_12631100 # Yoichi
	dynasty=10007335 # Kushihashi
	father=12219413 # Kushihashi Tokihisa
	religion="shinto"
	culture="southern_kanto"
	trait="fujiwara_clan"
	1180.1.1={
		birth=yes
	}
	1240.1.1={
		death=yes
	}
}
12631101={
	name=character_name_12631101 # Yoichi
	dynasty=10007335 # Kushihashi
	father=12631100 # Kushihashi Yoichi
	religion="shinto"
	culture="southern_kanto"
	trait="fujiwara_clan"
	1220.1.1={
		birth=yes
	}
	1280.1.1={
		death=yes
	}
}
12631102={
	name=character_name_12631102 # Yoichi
	dynasty=10007335 # Kushihashi
	father=12631101 # Kushihashi Yoichi
	religion="shinto"
	culture="southern_kanto"
	trait="fujiwara_clan"
	1250.1.1={
		birth=yes
	}
	1310.1.1={
		death=yes
	}
}
12631103={
	name=character_name_12631103 # Yoshimori
	dynasty=10007335 # Kushihashi
	father=12631102 # Kushihashi Yoichi
	religion="shinto"
	culture="southern_kanto"
	trait="fujiwara_clan"
	1280.1.1={
		birth=yes
	}
	1310.1.1 = {
		effect = {
			set_employer = character:12219436
			return_to_court = yes
		}
	}
	1333.6.21 = {
		effect = {
			set_employer = character:10053500
			return_to_court = yes
		}
	}
	1333.6.23={
		death=yes
	}
}
12631104={
	name=character_name_12631104 # Koretomo
	dynasty=10007335 # Kushihashi
	father=12631102 # Kushihashi Yoichi
	religion="shinto"
	culture="southern_kanto"
	trait="fujiwara_clan"
	1282.1.1={
		birth=yes
	}
	1333.6.23 = {
		effect = {
			set_employer = character:10053500
			return_to_court = yes
		}
	}
	1340.1.1={
		death=yes
	}
}
12631107={
	name=character_name_12631107 # Koremitsu
	dynasty=10007335 # Kushihashi
	father=12631104 # Kushihashi Koretomo
	religion="shinto"
	culture="southern_kanto"
	trait="fujiwara_clan"
	1310.1.1={
		birth=yes
	}
	1340.1.1 = {
		effect = {
			set_employer = character:10053500
			return_to_court = yes
		}
	}
	1346.1.1 = {
		effect = {
			set_employer = character:10053505
			return_to_court = yes
		}
	}
	1349.1.1 = {
		effect = {
			set_employer = character:10053726
			return_to_court = yes
		}
	}
	1352.1.1 = {
		effect = {
			set_employer = character:10053725
			return_to_court = yes
		}
	}
	1357.1.1 = {
		effect = {
			set_employer = character:10053724
			return_to_court = yes
		}
	}
	1369.11.9={
		death=yes
	}
}
12631110={
	name=character_name_12631110 # Korenori
	dynasty=10007335 # Kushihashi
	father=12631107 # Kushihashi Koremitsu
	religion="shinto"
	culture="sanyo"
	trait="fujiwara_clan"
	1340.1.1={
		birth=yes
	}
	1369.11.9 = {
		effect = {
			set_employer = character:10053724
			return_to_court = yes
		}
	}
	1392.1.24={
		death=yes
	}
}
12631113={
	name=character_name_12631113 # Koretaka
	dynasty=10007335 # Kushihashi
	father=12631110 # Kushihashi Korenori
	religion="shinto"
	culture="sanyo"
	trait="fujiwara_clan"
	1372.1.1={
		birth=yes
	}
	1392.1.24 = {
		effect = {
			set_employer = character:10053724
			return_to_court = yes
		}
	}
	1403.1.1 = {
		effect = {
			set_employer = character:10053722
			return_to_court = yes
		}
	}
	1433.1.10={
		death=yes
	}
}
12631117={
	name=character_name_12631117 # Sadakore
	dynasty=10007335 # Kushihashi
	father=12631113 # Kushihashi Koretaka
	religion="shinto"
	culture="sanyo"
	trait="fujiwara_clan"
	1401.1.1={
		birth=yes
	}
	1433.1.10 = {
		effect = {
			set_employer = character:10053722
			return_to_court = yes
		}
	}
	1441.9.25 = {
		effect = {
			set_employer = character:10050039
			return_to_court = yes
		}
	}
	1441.11.11={
		death=yes
	}
}
12631120={
	name=character_name_12631120 # Norikore
	dynasty=10007335 # Kushihashi
	father=12631117 # Kushihashi Sadakore
	religion="shinto"
	culture="sanyo"
	trait="fujiwara_clan"
	1433.1.1={
		birth=yes
	}
	1441.11.11 = {
		effect = {
			set_employer = character:10050039
			return_to_court = yes
		}
	}
	1454.1.1 = {
		effect = {
			set_employer = character:10050040
			return_to_court = yes
		}
	}
	1458.1.1 = {
		effect = {
			set_employer = character:10050039
			return_to_court = yes
		}
	}
	1467.6.27 = {
		effect = {
			set_employer = character:10053700
			return_to_court = yes
		}
	}
	1487.1.17={
		death=yes
	}
}
12631123={
	name=character_name_12631123 # Koreie
	dynasty=10007335 # Kushihashi
	father=12631120 # Kushihashi Norikore
	religion="shinto"
	culture="sanyo"
	trait="fujiwara_clan"
	1477.1.1={
		birth=yes
	}
	1487.1.17 = {
		effect = {
			set_employer = character:10053700
			return_to_court = yes
		}
	}
	1490.1.1 = {
		effect = {
			set_employer = character:10053701
			return_to_court = yes
		}
	}
	1525.1.1 = {
		effect = {
			set_employer = character:10053702
			return_to_court = yes
		}
	}
	1541.1.1={
		death=yes
	}
}
12631127={
	name=character_name_12631127 # Koresada
	dynasty=10007335 # Kushihashi
	father=12631123 # Kushihashi Koreie
	religion="shinto"
	culture="sanyo"
	trait="fujiwara_clan"
	1522.1.1={
		birth=yes
	}
	1541.1.1 = {
		effect = {
			set_employer = character:10053702
			return_to_court = yes
		}
	}
	1545.1.1 = {
		effect = {
			set_employer = character:10053703
			return_to_court = yes
		}
	}
	1573.8.10={
		death=yes
	}
}
12631130={
	name=character_name_12631130 # Masakore
	dynasty=10007335 # Kushihashi
	father=12631127 # Kushihashi Koresada
	religion="shinto"
	culture="sanyo"
	trait="fujiwara_clan"
	1550.1.1={
		birth=yes
	}
	1573.8.10 = {
		effect = {
			set_employer = character:10053703
			return_to_court = yes
		}
	}
	1578.9.21={
		death=yes
	}
}
12631131={
	name=character_name_12631131 # Mitsu
	female=yes
	dynasty=10007335 # Kushihashi
	father=12631127 # Kushihashi Koresada
	religion="shinto"
	culture="sanyo"
	trait="fujiwara_clan"
	1553.1.1={
		birth=yes
	}
	1627.10.5={
		death=yes
	}
}
12631200={
	name=character_name_12631200 # Yorikage
	dynasty=10007407 # Sayo
	father=12630000 # Uno Suenori
	religion="shinto"
	culture="sanyo"
	trait="minamoto_clan"
	1125.1.1={
		birth=yes
	}
	1185.1.1={
		death=yes
	}
}
12631203={
	name=character_name_12631203 # Yorisuke
	dynasty=10007407 # Sayo
	father=12631200 # Sayo Yorikage
	religion="shinto"
	culture="sanyo"
	trait="minamoto_clan"
	1165.1.1={
		birth=yes
	}
	1225.1.1={
		death=yes
	}
}
12631207={
	name=character_name_12631207 # Sukenori
	dynasty=10007407 # Sayo
	father=12631203 # Sayo Yorisuke
	religion="shinto"
	culture="sanyo"
	trait="minamoto_clan"
	1205.1.1={
		birth=yes
	}
	1265.1.1={
		death=yes
	}
}
12631210={
	name=character_name_12631210 # Tamenori
	dynasty=10007407 # Sayo
	father=12631207 # Sayo Sukenori
	religion="shinto"
	culture="sanyo"
	trait="minamoto_clan"
	1245.1.1={
		birth=yes
	}
	1305.1.1={
		death=yes
	}
}
12631213={
	name=character_name_12631213 # Noriie
	dynasty=10007407 # Sayo
	father=12631210 # Sayo Tamenori
	religion="shinto"
	culture="sanyo"
	trait="minamoto_clan"
	1285.1.1={
		birth=yes
	}
	1345.1.1={
		death=yes
	}
}
12631216={
	name=character_name_12631216 # Iehisa
	dynasty=10007407 # Sayo
	father=12631213 # Sayo Noriie
	religion="shinto"
	culture="sanyo"
	trait="minamoto_clan"
	1320.1.1={
		birth=yes
	}
	1385.1.1={
		death=yes
	}
}
12631217={
	name=character_name_12631217 # Sadamichi
	dynasty=10007407 # Sayo
	father=12631213 # Sayo Noriie
	religion="shinto"
	culture="sanyo"
	trait="minamoto_clan"
	1325.1.1={
		birth=yes
	}
	1390.1.1={
		death=yes
	}
}
12631218={
	name=character_name_12631218 # Norisada
	dynasty=10007407 # Sayo
	father=12631213 # Sayo Noriie
	religion="shinto"
	culture="sanyo"
	trait="minamoto_clan"
	1315.1.1={
		birth=yes
	}
	1380.1.1={
		death=yes
	}
}
12631220={
	name=character_name_12631220 # Sadahisa
	dynasty=10007407 # Sayo
	father=12631218 # Sayo Norisada
	religion="shinto"
	culture="sanyo"
	trait="minamoto_clan"
	1335.1.1={
		birth=yes
	}
	1395.1.1={
		death=yes
	}
}
12631221={
	name=character_name_12631221 # Sadataka
	dynasty=10007407 # Sayo
	father=12631218 # Sayo Norisada
	religion="shinto"
	culture="sanyo"
	trait="minamoto_clan"
	1340.1.1={
		birth=yes
	}
	1400.1.1={
		death=yes
	}
}
12631222={
	name=character_name_12631222 # Sadahide
	dynasty=10007407 # Sayo
	father=12631218 # Sayo Norisada
	religion="shinto"
	culture="sanyo"
	trait="minamoto_clan"
	1345.1.1={
		birth=yes
	}
	1405.1.1={
		death=yes
	}
}
12631300={
	name=character_name_12631300 # Takanori
	dynasty=10007434 # Kojima
	martial=9
	diplomacy=9
	trait="education_martial_3"
	religion="shinto"
	culture="sanyo"
	prowess=19
	1312.1.1={
		birth=yes
	}
	1382.12.29={
		death=yes
	}
}
12631301={
	name=character_name_12631301 # Takahide
	dynasty=10007434 # Kojima
	father=12631300 # Kojima Takanori
	religion="shinto"
	culture="sanyo"
	1329.1.1={
		birth=yes
	}
	1390.1.1={
		death=yes
	}
}
12631302={
	name=character_name_12631302 # Takahisa
	dynasty=10007434 # Kojima
	father=12631300 # Kojima Takanori
	religion="shinto"
	culture="sanyo"
	1334.1.1={
		birth=yes
	}
	1350.1.1={
		death=yes
	}
}
12631303={
	name=character_name_12631303 # Takanori
	dynasty=10007434 # Kojima
	father=12631300 # Kojima Takanori
	religion="shinto"
	culture="sanyo"
	1336.1.1={
		birth=yes
	}
	1390.1.1={
		death=yes
	}
}
12631400={
	name=character_name_12631400 # Noriie
	dynasty=10007511 # Terada
	religion="shinto"
	culture="sanyo"
	1240.1.1={
		birth=yes
	}
	1314.1.1={
		death=yes
	}
}
12631405={
	name=character_name_12631405 # Norikane
	dynasty=10007511 # Terada
	father=12631400 # Terada Noriie
	religion="shinto"
	culture="sanyo"
	1260.1.1={
		birth=yes
	}
	1313.1.1={
		death=yes
	}
}
12631410={
	name=character_name_12631410 # Norinaga
	dynasty=10007511 # Terada
	father=12631405 # Terada Norikane
	religion="shinto"
	culture="sanyo"
	1290.1.1={
		birth=yes
	}
	1350.1.1={
		death=yes
	}
}
12631500={
	name=character_name_12631500 # Shigemasa
	dynasty=10007512 # Tarumi
	religion="shinto"
	culture="sanyo"
	1250.1.1={
		birth=yes
	}
	1270.1.1={
		effect = {
			set_employer = character:12631400
			return_to_court = yes
		}
	}
	1310.1.1={
		death=yes
	}
}
12631600={
	name=character_name_12631600 # Noriie
	dynasty=10007513 # Sayo
	martial=8
	trait="education_martial_2"
	trait="minamoto_clan"
	trait="lifestyle_hunter"
	religion="shinto"
	culture="sanyo"
	prowess=16
	1310.1.1={
		birth=yes
		effect = {
			add_trait_xp = {
				trait = lifestyle_hunter
				track = hunter
				value = 100
			}
			add_trait_xp = {
				trait = lifestyle_hunter
				track = falconer
				value = 100
			}
		}
	}
	1333.1.1={
		effect = {
			set_employer = character:10053500
			return_to_court = yes
		}
	}
	1350.2.18={
		effect = {
			set_employer = character:10053501
			return_to_court = yes
		}
	}
	1351.5.4={
		effect = {
			set_employer = character:10053503
			return_to_court = yes
		}
	}
	1370.1.1={
		death=yes
	}
}
12631700={
	name=character_name_12631700 # Mitsuyasu
	dynasty=10007514 # Akima
	trait="fujiwara_clan"
	religion="shinto"
	culture="sanyo"
	1300.1.1={
		birth=yes
	}
	1333.1.1={
		effect = {
			set_employer = character:10053500
			return_to_court = yes
		}
	}
	1350.2.18={
		effect = {
			set_employer = character:10053501
			return_to_court = yes
		}
	}
	1351.5.4={
		effect = {
			set_employer = character:10053503
			return_to_court = yes
		}
	}
	1360.1.1={
		death=yes
	}
}
12631800={
	name=character_name_12631800 # Nagamune
	dynasty=10007515 # Mega
	martial=8
	trait="education_martial_2"
	trait="strong"
	religion="shinto"
	culture="sanyo"
	prowess=16
	1310.1.1={
		birth=yes
	}
	1333.1.1={
		effect = {
			set_employer = character:10053500
			return_to_court = yes
		}
	}
	1350.2.18={
		effect = {
			set_employer = character:10053501
			return_to_court = yes
		}
	}
	1351.5.4={
		effect = {
			set_employer = character:10053503
			return_to_court = yes
		}
	}
	1370.1.1={
		death=yes
	}
}
12631805={
	name=character_name_12631805 # Magosaburo
	dynasty=10007515 # Mega
	father=12631800 # Mega Nagamune
	religion="shinto"
	culture="sanyo"
	1350.1.1={
		birth=yes
	}
	1410.1.1={
		death=yes
	}
}
12631810={
	name=character_name_12631810 # Nagasada
	dynasty=10007515 # Mega
	father=12631805 # Mega Magosaburo
	religion="shinto"
	culture="sanyo"
	1390.1.1={
		birth=yes
	}
	1450.1.1={
		death=yes
	}
}
12635200={
	name=character_name_12635200 # Tomosada
	dynasty=10007516 # Harada
	father=10210706 # Sugawara Kanetomo
	religion="shinto"
	culture="sanyo"
	1160.1.1={
		birth=yes
	}
	1220.1.1={
		death=yes
	}
}
12635201={
	name=character_name_12635201 # Tomoaki
	dynasty=10007516 # Harada
	father=12635200 # Harada Tomosada
	religion="shinto"
	culture="sanyo"
	1190.1.1={
		birth=yes
	}
	1250.1.1={
		death=yes
	}
}
12635205={
	name=character_name_12635205 # Tomokuni
	dynasty=10007516 # Harada
	father=12635201 # Harada Tomoaki
	religion="shinto"
	culture="sanyo"
	1220.1.1={
		birth=yes
	}
	1260.1.1={
		death=yes
	}
}
12635206={
	name=character_name_12635206 # Tomosuke
	dynasty=10007516 # Harada
	father=12635201 # Harada Tomoaki
	religion="shinto"
	culture="sanyo"
	1230.1.1={
		birth=yes
	}
	1290.1.1={
		death=yes
	}
}
12635210={
	name=character_name_12635210 # Sukefusa
	dynasty=10007516 # Harada
	father=12635206 # Harada Tomosuke
	religion="shinto"
	culture="sanyo"
	1260.1.1={
		birth=yes
	}
	1320.1.1={
		death=yes
	}
}
12635215={
	name=character_name_12635215 # Sukehide
	dynasty=10007516 # Harada
	father=12635210 # Harada Sukefusa
	religion="shinto"
	culture="sanyo"
	1290.1.1={
		birth=yes
	}
	1333.5.17={
		death=yes
	}
}
12635220={
	name=character_name_12635220 # Sukemasa
	dynasty=10007516 # Harada
	father=12635215 # Harada Sukehide
	religion="shinto"
	culture="sanyo"
	1320.1.1={
		birth=yes
	}
	1380.1.1={
		death=yes
	}
}
12635100={
	name=character_name_12635100 # Tadakatsu
	dynasty=10007336 # Arimoto
	father=10210709 # Sugawara Mitsusuke
	religion="shinto"
	culture="sanyo"
	1200.1.1={
		birth=yes
	}
	1260.1.1={
		death=yes
	}
}
12635101={
	name=character_name_12635101 # Sukemori
	dynasty=10007336 # Arimoto
	father=12635100 # Arimoto Tadakatsu
	religion="shinto"
	culture="sanyo"
	1230.1.1={
		birth=yes
	}
	1290.1.1={
		death=yes
	}
}
12635102={
	name=character_name_12635102 # Suketaka
	dynasty=10007336 # Arimoto
	father=12635101 # Arimoto Sukemori
	religion="shinto"
	culture="sanyo"
	1260.1.1={
		birth=yes
	}
	1320.1.1={
		death=yes
	}
}
12635103={
	name=character_name_12635103 # Sukehiro
	dynasty=10007336 # Arimoto
	father=12635102 # Arimoto Suketaka
	religion="shinto"
	culture="sanyo"
	1290.1.1={
		birth=yes
	}
	1333.5.17={
		death=yes
	}
}
12635104={
	name=character_name_12635104 # Sukeaki
	dynasty=10007336 # Arimoto
	father=12635103 # Arimoto Sukehiro
	religion="shinto"
	culture="sanyo"
	1330.1.1={
		birth=yes
	}
	1361.1.1={
		death=yes
	}
}
12635105={
	name=character_name_12635105 # Sukehisa
	dynasty=10007336 # Arimoto
	father=12635104 # Arimoto Sukeaki
	religion="shinto"
	culture="sanyo"
	1360.1.1={
		birth=yes
	}
	1420.1.1={
		death=yes
	}
}
12635106={
	name=character_name_12635106 # Sukekuni
	dynasty=10007336 # Arimoto
	father=12635105 # Arimoto Sukehisa
	religion="shinto"
	culture="sanyo"
	1400.1.1={
		birth=yes
	}
	1470.1.1={
		death=yes
	}
}
12635107={
	name=character_name_12635107 # Sukeuji
	dynasty=10007336 # Arimoto
	father=12635106 # Arimoto Sukekuni
	religion="shinto"
	culture="sanyo"
	1450.1.1={
		birth=yes
	}
	1532.1.1={
		death=yes
	}
}
12641110={
	name=character_name_12641110 # Kamonnosuke
	dynasty=10000544 # Uragami
	religion="shinto"
	culture="sanyo"
	1240.1.1={
		birth=yes
		effect = {
			set_employer = character:12218035
			return_to_court = yes
		}
	}
	1270.1.1 = {
		effect = {
			set_employer = character:12631400
			return_to_court = yes
		}
	}
	1290.1.1={
		death=yes
	}
}
12641111={
	name=character_name_12641111 # Kakusho
	dynasty=10000544 # Uragami
	father=12641110 # Uragami Kamonnosuke
	religion="shinto"
	culture="sanyo"
	1263.1.1={
		birth=yes
	}
	1313.1.1={
		death=yes
	}
}
12641112={
	name=character_name_12641112 # Hyoe
	dynasty=10000544 # Uragami
	father=12641110 # Uragami Kamonnosuke
	religion="shinto"
	culture="sanyo"
	1265.1.1={
		birth=yes
	}
	1290.1.1 = {
		effect = {
			set_employer = character:12631400
			return_to_court = yes
		}
	}
	1310.1.1 = {
		effect = {
			set_employer = character:12631405
			return_to_court = yes
		}
	}
	1313.1.1 = {
		effect = {
			set_employer = character:12631410
			return_to_court = yes
		}
	}
	1315.1.1={
		death=yes
	}
}
12641113={
	name=character_name_12641113 # ShuhoMyocho
	dynasty=10000544 # Uragami
	father=12641111 # Uragami Kakusho
	mother=12630104 # Akamatsu Noriko
	religion="shinto"
	culture="sanyo"
	1283.1.1={
		birth=yes
	}
	1338.1.13={
		death=yes
	}
}
12641114={
	name=character_name_12641114 # Tamekage
	dynasty=10000544 # Uragami
	father=12641112 # Uragami Hyoe
	religion="shinto"
	culture="sanyo"
	1290.1.1={
		birth=yes
	}
	1315.1.1 = {
		effect = {
			set_employer = character:12631410
			return_to_court = yes
		}
	}
	1336.1.1 = {
		effect = {
			set_employer = character:10053503
			return_to_court = yes
		}
	}
	1360.1.1={
		death=yes
	}
}
12641115={
	name=character_name_12641115 # Tamekage
	dynasty=10000544 # Uragami
	father=12641112 # Uragami Hyoe
	religion="shinto"
	culture="sanyo"
	1293.1.1={
		birth=yes
	}
	1353.1.1={
		death=yes
	}
}
12641116={
	name=character_name_12641116 # Yukikage
	dynasty=10000544 # Uragami
	father=12641114 # Uragami Tamekage
	religion="shinto"
	culture="sanyo"
	1320.1.1={
		birth=yes
	}
	1360.1.1 = {
		effect = {
			set_employer = character:10053503
			return_to_court = yes
		}
	}
	1365.1.1 = {
		effect = {
			host ?= {
				remove_courtier_or_guest = root
			}
		}
	}
	1380.1.1={
		death=yes
	}
}
12641117={
	name=character_name_12641117 # Kagetsugu
	dynasty=10000544 # Uragami
	father=12641114 # Uragami Tamekage
	religion="shinto"
	culture="sanyo"
	1322.1.1={
		birth=yes
	}
	1372.1.1={
		death=yes
	}
}
12641120={
	name=character_name_12641120 # Munetaka
	dynasty=10000544 # Uragami
	father=12641116 # Uragami Yukikage
	religion="shinto"
	culture="sanyo"
	1360.1.1={
		birth=yes
	}
	1385.1.1={
		give_nickname="nick_kamon_no_suke"
	}
	1420.1.1={
		death=yes
	}
}
12641121={
	name=character_name_12641121 # Sukekage
	dynasty=10000544 # Uragami
	father=12641116 # Uragami Yukikage
	religion="shinto"
	culture="sanyo"
	1340.1.1={
		birth=yes
	}
	1408.1.1={
		death=yes
	}
}
12641123={
	name=character_name_12641123 # Muneyasu
	dynasty=10000544 # Uragami
	father=12641120 # Uragami Munetaka
	religion="shinto"
	culture="sanyo"
	1380.1.1={
		birth=yes
	}
	1450.1.1={
		death=yes
	}
}
12641125={
	name=character_name_12641125 # Norinaga
	dynasty=10000544 # Uragami
	father=12641123 # Uragami Muneyasu
	religion="shinto"
	culture="sanyo"
	1400.1.1={
		birth=yes
	}
	1430.1.1={
		give_nickname="nick_shinano_no_kami"
	}
	1442.1.1={
		death=yes
	}
}
12641126={
	name=character_name_12641126 # Norimune
	dynasty=10000544 # Uragami
	father=12641123 # Uragami Muneyasu
	religion="shinto"
	culture="sanyo"
	diplomacy=8
	martial=8
	stewardship=9
	intrigue=9
	learning=5
	trait="education_diplomacy_3"
	trait="intellect_good_2"
	trait="administrator"
	trait="arrogant"
#	trait="zen_buddhist"
	prowess=12
	1429.1.1={
		birth=yes
	}
	1455.3.7={
		effect = {
			set_relation_friend = character:10053518
		}
	}
	1459.1.1={
		give_nickname="nick_mimasaka_no_kami"
	}
	1490.1.1={
		effect = {
			set_realm_capital = title:c_nmih_akasaka
		}
	}
	1502.7.15={
		death=yes
	}
}
12641127={
	name=character_name_12641127 # Motokage
	dynasty=10000544 # Uragami
	father=12641123 # Uragami Muneyasu
	religion="shinto"
	culture="sanyo"
	1434.1.1={
		birth=yes
	}
	1494.1.1={
		death=yes
	}
}
12641128={
	name=character_name_12641128 # Norikage
	dynasty=10000544 # Uragami
	father=12641126 # Uragami Norimune
	religion="shinto"
	culture="sanyo"
#	trait="zen_buddhist"
	1453.1.1={
		birth=yes
	}
	1473.1.1={
		give_nickname="nick_kamon_no_suke"
	}
	1485.7.15={
		death=yes
	}
}
12641129={
	name=character_name_12641129 # Norikuni
	dynasty=10000544 # Uragami
	father=12641126 # Uragami Norimune
	religion="shinto"
	culture="sanyo"
#	trait="zen_buddhist"
	1455.1.1={
		birth=yes
	}
	1485.4.19={
		death=yes
	}
}
12641130={
	name=character_name_12641130 # Sukemune
	dynasty=10000544 # Uragami
	father=12641126 # Uragami Norimune
	religion="shinto"
	culture="sanyo"
#	trait="zen_buddhist"
	1482.1.1={
		birth=yes
	}
	1498.1.1={
		death=yes
	}
}
12641131={
	name=character_name_12641131 # Munesuke
	dynasty=10000544 # Uragami
	father=12641125 # Uragami Norinaga
	religion="shinto"
	culture="sanyo"
#	trait="zen_buddhist"
	1430.1.1={
		birth=yes
	}
	1460.1.1={
		give_nickname="nick_omi_no_kami"
	}
	1490.1.1={
		death=yes
	}
}
12641132={
	name=character_name_12641132 # Noriyuki
	dynasty=10000544 # Uragami
	father=12641125 # Uragami Norinaga
	religion="shinto"
	culture="sanyo"
#	trait="zen_buddhist"
	1432.1.1={
		birth=yes
	}
	1482.1.1={
		death=yes
	}
}
12641133={
	name=character_name_12641133 # Muramune
	dynasty=10000544 # Uragami
	father=12641131 # Uragami Munesuke
	religion="shinto"
	culture="sanyo"
	diplomacy=8
	martial=8
	stewardship=9
	intrigue=9
	learning=5
	trait="education_diplomacy_3"
	trait="intellect_good_2"
	trait="ambitious"
	trait="schemer"
#	trait="zen_buddhist"
	prowess=12
	1460.1.1={
		birth=yes
	}
	1480.1.1={
		give_nickname="nick_kamon_no_suke"
	}
	1490.1.1={
		give_nickname="nick_mimasaka_no_kami"
	}
	1502.7.15={
		effect = {
			set_realm_capital = title:c_nmih_akasaka
		}
	}
	1531.7.17={
		death=yes
	}
}
12641134={
	name=character_name_12641134 # Munetsugu
	dynasty=10000544 # Uragami
	father=12641131 # Uragami Munesuke
	religion="shinto"
	culture="sanyo"
	1465.1.1={
		birth=yes
	}
	1520.1.1={
		death=yes
	}
}
