﻿12570100={
	name=character_name_12570100 # Myoun
	dynasty=10001250 # Minamoto
	father=10125040
	religion="shinto"
	culture="kinai_buddhist"
	learning=8
	trait="education_learning_4"
#	trait="mikkyo_buddhist"
	trait="minamoto_clan"
	1115.1.1 ={
		birth=yes
	}
	1125.1.1={
		culture="kinai_buddhist"
		effect = {
			add_trait = "devoted"
		}
	}
	1166.1.1={
		give_nickname="nick_the_sojo"
		effect = {
			add_trait = "jusanmi"
		}
	}
	1179.12.23={
		effect = {
			set_realm_capital = title:c_nmih_shiga
		}
	}
	1182.1.1={
		give_nickname="nick_the_dai_sojo"
		effect = {
			remove_trait = "jusanmi"
			add_trait = "shosanmi"
		}
	}
	1184.1.3={
		death=yes
	}
}
12570101={
	name=character_name_12570101 # Genen
	dynasty=10005007 # Takashina
	father=10243036 # Takashina Muneaki
	religion="shinto"
	culture="kinai_buddhist"
	learning=8
	trait="education_learning_4"
#	trait="mikkyo_buddhist"
	1113.1.1 ={
		birth=yes
	}
	1123.1.1={
		effect = {
			add_trait = "devoted"
		}
	}
	1179.5.20={
		effect = {
			set_realm_capital = title:c_nmih_soekami
		}
	}
	1180.1.1={
		give_nickname="nick_the_sojo"
		effect = {
			add_trait = "jusanmi"
		}
	}
	1181.1.12={
		death=yes
	}
}
12570102={
	name=character_name_12570102 # Shungyo
	dynasty=10001250 # Minamoto
	father=10125021 # 
	religion="shinto"
	culture="kinai_buddhist"
	trait="education_learning_4"
#	trait="mikkyo_buddhist"
	trait="minamoto_clan"
	1118.1.1={
		birth=yes
	}
	1128.1.1={
		culture="kinai_buddhist"	
		effect = {
			add_trait = "devoted"
		}
	}
	1179.12.23={
		effect = {
			set_employer = character:12570100
			return_to_court = yes
		}
	}
	1186.4.16={
		death=yes
	}
}
12571000={
	name=character_name_12571000 # Kakumyo
	dynasty=10007230 # Tayubo
	religion="shinto"
	culture="kinai_buddhist"
	trait="education_diplomacy_3"
	trait="cynical"
#	trait="mikkyo_buddhist"
	1140.1.1={
		birth=yes
	}
	1150.1.1={
		effect = {
			add_trait = "devoted"
		}
	}
	1179.12.23={
		effect = {
			set_employer = character:12570100
			return_to_court = yes
		}
	}
	1180.6.20={
		effect = {
			set_employer = character:10120084
			return_to_court = yes
		}
	}
	1200.1.1={
		death=yes
	}
}
12571001={
	name=character_name_12571001 # Tajima
	dynasty=10007231 # Gojoin
	religion="shinto"
	culture="kinai_buddhist"
	trait="education_martial_2"
	trait="brave"
#	trait="mikkyo_buddhist"
	1150.1.1={
		birth=yes
	}
	1160.1.1={
		effect = {
			add_trait = "devoted"
		}
	}
	1180.1.1={
		effect = {
			set_employer = character:12570100
			return_to_court = yes
		}
	}
	1180.6.19={
		effect = {
			set_employer = character:10041091
			return_to_court = yes
		}
	}
	1200.1.1={
		death=yes
	}
}
12571002={
	name=character_name_12571002 # Myoshu
	dynasty=10007232 # Tsutsui
	religion="shinto"
	culture="kinai_buddhist"
	trait="education_martial_3"
#	trait="mikkyo_buddhist"
	1140.1.1={
		birth=yes
	}
	1150.1.1={
		effect = {
			add_trait = "devoted"
		}
	}
	1180.1.1={
		effect = {
			set_employer = character:12570100
			return_to_court = yes
		}
	}
	1180.6.19={
		effect = {
			set_employer = character:10041091
			return_to_court = yes
		}
	}
	1200.1.1={
		death=yes
	}
}
12571003={
	name=character_name_12571003 # Ichirai
	dynasty=10007320 # Onjoji
	religion="shinto"
	culture="kinai_buddhist"
	trait="education_martial_2"
	trait="strong"
	trait="brave"
#	trait="mikkyo_buddhist"
	1164.1.1={
		birth=yes
	}
	1174.1.1={
		effect = {
			add_trait = "devoted"
		}
	}
	1180.1.1={
		effect = {
			set_employer = character:12570100
			return_to_court = yes
		}
	}
	1180.6.19={
		effect = {
			set_employer = character:10041091
			return_to_court = yes
		}
	}
	1180.6.20={
		death=yes
	}
}
12571004={
	name=character_name_12571004 # Shoshun
	dynasty=10007233 # Tosanobo
	religion="shinto"
	culture="kinai_buddhist"
	trait="education_martial_2"
	trait="impatient"
#	trait="mikkyo_buddhist"
	1141.9.19={
		birth=yes
	}
	1151.1.1={
		effect = {
			add_trait = "devoted"
		}
	}
	1180.6.15={
		effect = {
			set_employer = character:10120075
			return_to_court = yes
		}
	}
	1185.11.19={
		death=yes
	}
}
12571005={
	name=character_name_12571005 # Yogaku
	dynasty=10007234 # Saka
	religion="shinto"
	culture="kinai_buddhist"
	trait="education_martial_2"
	trait="strong"
#	trait="mikkyo_buddhist"
	1150.1.1={
		birth=yes
	}
	1160.1.1={
		effect = {
			add_trait = "devoted"
		}
	}
	1179.5.20={
		effect = {
			set_employer = character:12570101
			return_to_court = yes
		}
	}
	1200.1.1={
		death=yes
	}
}
12571006={
	name=character_name_12571006 # Kakuhan
	dynasty=10007235 # Yokawa
	religion="shinto"
	culture="kinai_buddhist"
	trait="education_martial_2"
	trait="strong"
	trait="impatient"
#	trait="mikkyo_buddhist"
	1150.1.1={
		birth=yes
	}
	1160.1.1={
		effect = {
			add_trait = "devoted"
		}
	}
	1179.12.23={
		effect = {
			set_employer = character:12570100
			return_to_court = yes
		}
	}
	1186.1.1={
		death=yes
	}
}
12571100={
	name=character_name_12571100 # Chogen
	dynasty=10007320 # Onjoji
	learning=12
	trait="education_learning_3"
	religion="shinto"
	culture="kinai_buddhist"
	1152.1.1={
		birth=yes
	}
	1162.1.1={
		effect = {
			add_trait = "devoted"
		}
	}
	1199.1.1={
		effect = {
			set_employer = character:10041060
			return_to_court = yes
		}
		give_nickname="nick_the_dai_sojo"
		effect = {
			add_trait = "shosanmi"
		}
	}
	1228.8.17={
		death=yes
	}
}
12580000={
	name=character_name_12580000 # Keiken
	dynasty=10000068 # Nikaido
	father=12220220 # Nikaido Sadamune
	religion="shinto"
	culture="kinai_buddhist"
	trait="poet"
	trait="devoted"
	trait="fujiwara_clan"
	1330.1.1={
		birth=yes
	}
	1390.1.1={
		death=yes
	}
}
12580001={
	name=character_name_12580001 # Gyojin
	dynasty=10000068 # Nikaido
	father=12580000 # Nikaido Keiken
	religion="shinto"
	culture="kinai_buddhist"
	trait="poet"
	trait="devoted"
	trait="fujiwara_clan"
	1350.1.1={
		birth=yes
	}
	1412.1.1={
		death=yes
	}
}
12580003={
	name=character_name_12580003 # Gyoko
	dynasty=10000068 # Nikaido
	father=12580001 # Nikaido Gyojin
	religion="shinto"
	culture="kinai_buddhist"
	trait="poet"
	trait="devoted"
	trait="fujiwara_clan"
	1391.1.1={
		birth=yes
	}
	1455.8.17={
		death=yes
	}
}
12580100={
	name=character_name_12580100 # Engyo
	dynasty=10000420 # Yamato
	father=10041785 #  Gyoe
	religion="shinto"
	culture="kinai_buddhist"
	1145.1.1={
		birth=yes
	}
	1155.1.1={
		effect = {
			add_trait = "devoted"
		}
	}
	1180.1.1={
		effect = {
			set_employer = character:12570100
			return_to_court = yes
		}
	}
	1182.10.19={
		effect = {
			set_employer = character:10120075
			return_to_court = yes
		}
	}
	1200.01.01={
		death=yes
	}
}
12580101={
	name=character_name_12580101 # Songyo
	dynasty=10000420 # Yamato
	father=10041785 #  Gyoe
	religion="shinto"
	culture="kinai_buddhist"
	1150.1.1={
		birth=yes
	}
	1160.1.1={
		effect = {
			add_trait = "devoted"
		}
	}
	1200.01.01={
		effect = {
			set_employer = character:10120086
			return_to_court = yes
		}
	}
	1209.09.15={
		death=yes
	}
}
12581000={
	name=character_name_12581000 # MusoSoseki
	dna=12581000_tenryuji_musososeki
	dynasty=10007400 # Tenryuji
	martial=1
	diplomacy=12
	intrigue=5
	stewardship=9
	learning=10
	trait="education_learning_4"
#	trait="zen_buddhist"
	trait="poet"
	trait="intellect_good_2"
	trait="lifestyle_mystic"
	religion="shinto"
	culture="kinai_buddhist"
	prowess=9
	1275.1.1={
		birth=yes
		effect = {
			add_trait_xp = {
				trait = lifestyle_mystic
				value = 100
			}
		}
		effect = {
			add_character_flag = has_scripted_appearance
		}
	}
	1285.1.1={
		effect = {
			add_trait = "devoted"
		}
	}
	1330.1.1={
		effect = {
			set_employer = character:10132047
			return_to_court = yes
		}
	}
	1331.2.4 = {
		effect = {
			set_employer = character:10132207
			return_to_court = yes
		}
	}
	1333.6.19 = {
		effect = {
			set_employer = character:10041075
			return_to_court = yes
		}
	}
	1333.7.4={
		effect = {
			set_employer = character:12139028
			return_to_court = yes
		}
	}
	1351.10.20={
		death=yes
	}
}
12581005={
	name=character_name_12581005 # Koshin
	dna=12581005_monkanbo_koshin
	dynasty=10007401 # Monkanbo
	martial=1
	diplomacy=9
	intrigue=5
	stewardship=9
	learning=16
	trait="education_diplomacy_4"
#	trait="mikkyo_buddhist"
	trait="intellect_good_2"
	trait="lifestyle_mystic"
	trait="painter"
	religion="shinto"
	culture="kinai_buddhist"
	prowess=5
	1278.2.4={
		birth=yes
		effect = {
			add_trait_xp = {
				trait = lifestyle_mystic
				value = 100
			}
		}
		effect = {
			add_character_flag = has_scripted_appearance
		}
	}
	1288.2.4={
		effect = {
			add_trait = "devoted"
		}
	}
	1323.1.1={
		effect = {
			set_employer = character:10041075
			return_to_court = yes
		}
	}
	1331.10.22 = {
		effect = {
			host ?= {
				remove_courtier_or_guest = root
			}
		}
	}
	1333.1.1 = {
		effect = {
			set_employer = character:10041075
			return_to_court = yes
		}
	}
	1339.11.6={
		effect = {
			set_employer = character:10041077
			return_to_court = yes
		}
	}
	1357.11.21={
		death=yes
	}
}
12581010={
	name=character_name_12581010 # Enkan
	dynasty=10007402 # Hosshoji
	martial=1
	intrigue=9
	learning=8
	trait="education_learning_4"
#	trait="mikkyo_buddhist"
	trait="lifestyle_mystic"
	religion="shinto"
	culture="kinai_buddhist"
	prowess=5
	1281.9.1={
		birth=yes
		effect = {
			add_trait_xp = {
				trait = lifestyle_mystic
				value = 100
			}
		}
	}
	1291.9.1={
		effect = {
			add_trait = "devoted"
		}
	}
	1330.1.1={
		effect = {
			set_employer = character:10132047
			return_to_court = yes
		}
	}
	1331.2.4 = {
		effect = {
			set_employer = character:10132207
			return_to_court = yes
		}
	}
	1333.6.19 = {
		effect = {
			set_employer = character:10041075
			return_to_court = yes
		}
	}
	1333.7.4 = {
		effect = {
			host ?= {
				remove_courtier_or_guest = root
			}
		}
	}
	1336.7.22 = {
		effect = {
			set_employer = character:12139028
			return_to_court = yes
		}
	}
	1340.1.1={
		effect = {
			set_employer = character:12139028
			return_to_court = yes
		}
	}
	1353.3.5={
		effect = {
			set_employer = character:12139028
			return_to_court = yes
		}
	}
	1356.4.2={
		death=yes
	}
}
12581015={
	name=character_name_12581015 # Kenko
	dna=12581015_urabe_kenko
	dynasty=10005140 # Urabe
	martial=8
	diplomacy=1
	intrigue=7
	stewardship=6
	learning=10
	trait="education_diplomacy_3"
#	trait="mikkyo_buddhist"
	trait="poet"
	trait="gregarious"
	trait="intellect_good_2"
	religion="shinto"
	culture="central_kinai"
	prowess=12
	1283.1.1={
		birth=yes
		effect = {
			add_character_flag = has_scripted_appearance
		}
	}
	1313.1.1={
		effect = {
			add_trait = "devoted"
		}
	}
	1330.1.1={
		effect = {
			set_employer = character:10132047
			return_to_court = yes
		}
	}
	1331.2.4 = {
		effect = {
			set_employer = character:10132207
			return_to_court = yes
		}
	}
	1333.6.19 = {
		effect = {
			set_employer = character:10041075
			return_to_court = yes
		}
	}
	1333.7.4={
		effect = {
			set_employer = character:10041076
			return_to_court = yes
		}
	}
	1340.1.1={
		effect = {
			set_employer = character:12139028
			return_to_court = yes
		}
	}
	1353.1.1={
		death=yes
	}
}
12582000={
	name=character_name_12582000 # Daini
	dynasty=10007507 # Takama
	religion="shinto"
	culture="kinai_buddhist"
	1280.1.1={
		birth=yes
	}
	1330.1.1={
		death=yes
	}
}
12582001={
	name=character_name_12582001 # Gyoshu
	dynasty=10007507 # Takama
	father=12582000 # Takama Daini
#	trait="mikkyo_buddhist"
	religion="shinto"
	culture="kinai_buddhist"
	1310.1.1={
		birth=yes
	}
	1333.1.1={
		effect = {
			set_employer = character:10041075
			return_to_court = yes
		}
	}
	1339.11.6 = {
		effect = {
			host ?= {
				remove_courtier_or_guest = root
			}
		}
	}
	1340.1.1={
		death=yes
	}
}
12582002={
	name=character_name_12582002 # Kaizen
	dynasty=10007507 # Takama
	father=12582000 # Takama Daini
#	trait="mikkyo_buddhist"
	religion="shinto"
	culture="kinai_buddhist"
	1312.1.1={
		birth=yes
	}
	1333.1.1={
		effect = {
			set_employer = character:10041075
			return_to_court = yes
		}
	}
	1339.11.6 = {
		effect = {
			host ?= {
				remove_courtier_or_guest = root
			}
		}
	}
	1340.1.1={
		death=yes
	}
}
