﻿10013200={
	name=character_name_10013200 # Yasuyori
	dynasty=10013150 # Tanba
	religion="shinto"
	culture="northern_kinai"
	learning=9
	trait="education_learning_2"
	trait="lifestyle_physician"
	912.1.1={
		birth=yes
		effect = {
			add_trait_xp = {
				trait = lifestyle_physician
				value = 100
			}
		}
	}
	995.5.21={
		death=yes
	}
}
10013201={
	name=character_name_10013201 # Shigeaki
	dynasty=10013150 # Tanba
	father=10013200 # Tanba Yasuyori
	religion="shinto"
	culture="central_kinai"
	learning=9
	trait="education_learning_2"
	trait="lifestyle_physician"
	960.1.1={
		birth=yes
		effect = {
			add_trait_xp = {
				trait = lifestyle_physician
				value = 100
			}
		}
	}
	1010.1.1={
		death=yes
	}
}
10013202={
	name=character_name_10013202 # Kiyomasa
	dynasty=10013150 # Tanba
	father=10013200 # Tanba Yasuyori
	religion="shinto"
	culture="central_kinai"
	learning=9
	trait="education_learning_2"
	trait="lifestyle_physician"
	965.1.1={
		birth=yes
		effect = {
			add_trait_xp = {
				trait = lifestyle_physician
				value = 100
			}
		}
	}
	1015.1.1={
		death=yes
	}
}
10013203={
	name=character_name_10013203 # Tadaaki
	dynasty=10013150 # Tanba
	father=10013201 # Tanba Shigeaki
	religion="shinto"
	culture="central_kinai"
	learning=9
	trait="education_learning_2"
	trait="lifestyle_physician"
	990.1.1={
		birth=yes
		effect = {
			add_trait_xp = {
				trait = lifestyle_physician
				value = 100
			}
		}
	}
	1040.1.1={
		death=yes
	}
}
10013204={
	name=character_name_10013204 # Masatada
	dynasty=10013150 # Tanba
	father=10013203 # Tanba Tadaaki
	religion="shinto"
	culture="central_kinai"
	learning=9
	trait="education_learning_2"
	trait="lifestyle_physician"
	1021.1.1={
		birth=yes
		effect = {
			add_trait_xp = {
				trait = lifestyle_physician
				value = 100
			}
		}
	}
	1088.3.1={
		death=yes
	}
}
10013205={
	name=character_name_10013205 # Tadayasu
	dynasty=10013150 # Tanba
	father=10013204 # Tanba Masatada
	religion="shinto"
	culture="central_kinai"
	learning=9
	trait="education_learning_2"
	trait="lifestyle_physician"
	1050.1.1={
		birth=yes
		effect = {
			add_trait_xp = {
				trait = lifestyle_physician
				value = 100
			}
		}
	}
	1100.1.1={
		death=yes
	}
}
10013206={
	name=character_name_10013206 # Shigeyasu
	dynasty=10013150 # Tanba
	father=10013204 # Tanba Masatada
	religion="shinto"
	culture="central_kinai"
	learning=9
	trait="education_learning_2"
	trait="lifestyle_physician"
	1055.1.1={
		birth=yes
		effect = {
			add_trait_xp = {
				trait = lifestyle_physician
				value = 100
			}
		}
	}
	1105.1.1={
		death=yes
	}
}
10013207={
	name=character_name_10013207 # Masayasu
	dynasty=10013150 # Tanba
	father=10013205 # Tanba Tadayasu
	religion="shinto"
	culture="central_kinai"
	learning=9
	trait="education_learning_2"
	trait="lifestyle_physician"
	1080.1.1={
		birth=yes
		effect = {
			add_trait_xp = {
				trait = lifestyle_physician
				value = 100
			}
		}
	}
	1130.1.1={
		death=yes
	}
}
10013208={
	name=character_name_10013208 # Saneyasu
	dynasty=10013150 # Tanba
	father=10013207 # Tanba Masayasu
	religion="shinto"
	culture="central_kinai"
	learning=9
	trait="education_learning_2"
	trait="lifestyle_physician"
	1110.1.1={
		birth=yes
		effect = {
			add_trait_xp = {
				trait = lifestyle_physician
				value = 100
			}
		}
	}
	1160.1.1={
		death=yes
	}
}
10013209={
	name=character_name_10013209 # Tsuneyasu
	dynasty=10013150 # Tanba
	father=10013207 # Tanba Masayasu
	religion="shinto"
	culture="central_kinai"
	learning=9
	trait="education_learning_2"
	trait="lifestyle_physician"
	1115.1.1={
		birth=yes
		effect = {
			add_trait_xp = {
				trait = lifestyle_physician
				value = 100
			}
		}
	}
	1165.1.1={
		death=yes
	}
}
10013210={
	name=character_name_10013210 # Shigeyori
	dynasty=10013150 # Tanba
	father=10013206 # Tanba Shigeyasu
	religion="shinto"
	culture="central_kinai"
	learning=9
	trait="education_learning_2"
	trait="lifestyle_physician"
	1080.1.1={
		birth=yes
		effect = {
			add_trait_xp = {
				trait = lifestyle_physician
				value = 100
			}
		}
	}
	1130.1.1={
		death=yes
	}
}
10013211={
	name=character_name_10013211 # Yoriyasu
	dynasty=10013150 # Tanba
	father=10013206 # Tanba Shigeyasu
	religion="shinto"
	culture="central_kinai"
	learning=9
	trait="education_learning_2"
	trait="lifestyle_physician"
	1085.1.1={
		birth=yes
		effect = {
			add_trait_xp = {
				trait = lifestyle_physician
				value = 100
			}
		}
	}
	1135.1.1={
		death=yes
	}
}
10013212={
	name=character_name_10013212 # Shigetada
	dynasty=10013150 # Tanba
	father=10013206 # Tanba Shigeyasu
	religion="shinto"
	culture="central_kinai"
	learning=9
	trait="education_learning_2"
	trait="lifestyle_physician"
	1090.1.1={
		birth=yes
		effect = {
			add_trait_xp = {
				trait = lifestyle_physician
				value = 100
			}
		}
	}
	1140.1.1={
		death=yes
	}
}
10013213={
	name=character_name_10013213 # Motoyasu
	dynasty=10013150 # Tanba
	father=10013210 # Tanba Shigeyori
	religion="shinto"
	culture="central_kinai"
	learning=9
	trait="education_learning_2"
	trait="lifestyle_physician"
	1105.1.1={
		birth=yes
		effect = {
			add_trait_xp = {
				trait = lifestyle_physician
				value = 100
			}
		}
	}
	1155.1.1={
		death=yes
	}
}
10013214={
	name=character_name_10013214 # Yorimoto
	dynasty=10013150 # Tanba
	father=10013213 # Tanba Motoyasu
	religion="shinto"
	culture="central_kinai"
	learning=9
	trait="education_learning_2"
	trait="lifestyle_physician"
	1125.1.1={
		birth=yes
		effect = {
			add_trait_xp = {
				trait = lifestyle_physician
				value = 100
			}
		}
	}
	1175.1.1={
		death=yes
	}
}
10013215={
	name=character_name_10013215 # Tsunemoto
	dynasty=10013150 # Tanba
	father=10013213 # Tanba Motoyasu
	religion="shinto"
	culture="central_kinai"
	learning=9
	trait="education_learning_2"
	trait="lifestyle_physician"
	1130.1.1={
		birth=yes
		effect = {
			add_trait_xp = {
				trait = lifestyle_physician
				value = 100
			}
		}
	}
	1180.1.1={
		death=yes
	}
}
10013216={
	name=character_name_10013216 # Tomomoto
	dynasty=10013150 # Tanba
	father=10013213 # Tanba Motoyasu
	religion="shinto"
	culture="central_kinai"
	learning=9
	trait="education_learning_2"
	trait="lifestyle_physician"
	1135.1.1={
		birth=yes
		effect = {
			add_trait_xp = {
				trait = lifestyle_physician
				value = 100
			}
		}
	}
	1185.1.1={
		death=yes
	}
}
10013217={
	name=character_name_10013217 # Yasuuji
	dynasty=10013150 # Tanba
	father=10013213 # Tanba Motoyasu
	religion="shinto"
	culture="central_kinai"
	learning=9
	trait="education_learning_2"
	trait="lifestyle_physician"
	1140.1.1={
		birth=yes
		effect = {
			add_trait_xp = {
				trait = lifestyle_physician
				value = 100
			}
		}
	}
	1190.1.1={
		death=yes
	}
}
10013218={
	name=character_name_10013218 # Motoaki
	dynasty=10013150 # Tanba
	father=10013213 # Tanba Motoyasu
	religion="shinto"
	culture="central_kinai"
	learning=9
	trait="education_learning_2"
	trait="lifestyle_physician"
	1145.1.1={
		birth=yes
		effect = {
			add_trait_xp = {
				trait = lifestyle_physician
				value = 100
			}
		}
	}
	1195.1.1={
		death=yes
	}
}
10013219={
	name=character_name_10013219 # Nagamoto
	dynasty=10013150 # Tanba
	father=10013214 # Tanba Yorimoto
	religion="shinto"
	culture="central_kinai"
	learning=9
	trait="education_learning_2"
	trait="lifestyle_physician"
	1145.1.1={
		birth=yes
		effect = {
			add_trait_xp = {
				trait = lifestyle_physician
				value = 100
			}
		}
	}
	1195.1.1={
		death=yes
	}
}
10013220={
	name=character_name_10013220 # Mochitada
	dynasty=10013150 # Tanba
	father=10013214 # Tanba Yorimoto
	religion="shinto"
	culture="central_kinai"
	learning=9
	trait="education_learning_2"
	trait="lifestyle_physician"
	1150.1.1={
		birth=yes
		effect = {
			add_trait_xp = {
				trait = lifestyle_physician
				value = 100
			}
		}
	}
	1200.1.1={
		death=yes
	}
}
10013221={
	name=character_name_10013221 # Yorisue
	dynasty=10013150 # Tanba
	father=10013219 # Tanba Nagamoto
	religion="shinto"
	culture="central_kinai"
	learning=9
	trait="education_learning_2"
	trait="lifestyle_physician"
	1165.1.1={
		birth=yes
		effect = {
			add_trait_xp = {
				trait = lifestyle_physician
				value = 100
			}
		}
	}
	1215.1.1={
		death=yes
	}
}
10013222={
	name=character_name_10013222 # Tokinaga
	dynasty=10013150 # Tanba
	father=10013219 # Tanba Nagamoto
	religion="shinto"
	culture="central_kinai"
	learning=9
	trait="education_learning_2"
	trait="lifestyle_physician"
	1170.1.1={
		birth=yes
		effect = {
			add_trait_xp = {
				trait = lifestyle_physician
				value = 100
			}
		}
	}
	1220.1.1={
		death=yes
	}
}
10013223={
	name=character_name_10013223 # Tadanaga
	dynasty=10013150 # Tanba
	father=10013219 # Tanba Nagamoto
	religion="shinto"
	culture="central_kinai"
	learning=9
	trait="education_learning_2"
	trait="lifestyle_physician"
	1175.1.1={
		birth=yes
		effect = {
			add_trait_xp = {
				trait = lifestyle_physician
				value = 100
			}
		}
	}
	1225.1.1={
		death=yes
	}
}
10013224={
	name=character_name_10013224 # Suenaga
	dynasty=10013150 # Tanba
	father=10013219 # Tanba Nagamoto
	religion="shinto"
	culture="central_kinai"
	learning=9
	trait="education_learning_2"
	trait="lifestyle_physician"
	1180.1.1={
		birth=yes
		effect = {
			add_trait_xp = {
				trait = lifestyle_physician
				value = 100
			}
		}
	}
	1230.1.1={
		death=yes
	}
}
10013225={
	name=character_name_10013225 # Mitsumoto
	dynasty=10013150 # Tanba
	father=10013221 # Tanba Yorisue
	religion="shinto"
	culture="central_kinai"
	learning=9
	trait="education_learning_2"
	trait="lifestyle_physician"
	1200.1.1={
		birth=yes
		effect = {
			add_trait_xp = {
				trait = lifestyle_physician
				value = 100
			}
		}
	}
	1250.1.1={
		death=yes
	}
}
10013226={
	name=character_name_10013226 # Suemoto
	dynasty=10013150 # Tanba
	father=10013221 # Tanba Yorisue
	religion="shinto"
	culture="central_kinai"
	learning=9
	trait="education_learning_2"
	trait="lifestyle_physician"
	1205.1.1={
		birth=yes
		effect = {
			add_trait_xp = {
				trait = lifestyle_physician
				value = 100
			}
		}
	}
	1255.1.1={
		death=yes
	}
}
10013227={
	name=character_name_10013227 # Atsumoto
	dynasty=10013150 # Tanba
	father=10013225 # Tanba Mitsumoto
	religion="shinto"
	culture="central_kinai"
	learning=9
	trait="education_learning_2"
	trait="lifestyle_physician"
	1235.1.1={
		birth=yes
		effect = {
			add_trait_xp = {
				trait = lifestyle_physician
				value = 100
			}
		}
	}
	1310.1.1={
		death=yes
	}
}
10013228={
	name=character_name_10013228 # Naganao
	dynasty=10013150 # Tanba
	father=10013227 # Tanba Atsumoto
	religion="shinto"
	culture="central_kinai"
	learning=9
	trait="education_learning_2"
	trait="lifestyle_physician"
	1277.1.1={
		birth=yes
		effect = {
			add_trait_xp = {
				trait = lifestyle_physician
				value = 100
			}
		}
	}
	1342.8.21={
		death=yes
	}
}
10013229={
	name=character_name_10013229 # Atsunao
	dynasty=10013150 # Tanba
	father=10013227 # Tanba Atsumoto
	religion="shinto"
	culture="central_kinai"
	learning=9
	trait="education_learning_2"
	trait="lifestyle_physician"
	1305.1.1={
		birth=yes
		effect = {
			add_trait_xp = {
				trait = lifestyle_physician
				value = 100
			}
		}
	}
	1382.11.22={
		death=yes
	}
}
10013230={
	name=character_name_10013230 # Motoyuki
	dynasty=10013150 # Tanba
	father=10013228 # Tanba Naganao
	religion="shinto"
	culture="central_kinai"
	learning=9
	trait="education_learning_2"
	trait="lifestyle_physician"
	1320.1.1={
		birth=yes
		effect = {
			add_trait_xp = {
				trait = lifestyle_physician
				value = 100
			}
		}
	}
	1370.1.1={
		death=yes
	}
}
10013231={
	name=character_name_10013231 # Naofusa
	dynasty=10013150 # Tanba
	father=10013228 # Tanba Naganao
	religion="shinto"
	culture="central_kinai"
	learning=9
	trait="education_learning_2"
	trait="lifestyle_physician"
	1330.1.1={
		birth=yes
		effect = {
			add_trait_xp = {
				trait = lifestyle_physician
				value = 100
			}
		}
	}
	1405.1.1={
		death=yes
	}
}
10013232={
	name=character_name_10013232 # Masafuyu
	dynasty=10013150 # Tanba
	father=10013230 # Tanba Motoyuki
	religion="shinto"
	culture="central_kinai"
	learning=9
	trait="education_learning_2"
	trait="lifestyle_physician"
	1350.1.1={
		birth=yes
		effect = {
			add_trait_xp = {
				trait = lifestyle_physician
				value = 100
			}
		}
	}
	1400.1.1={
		death=yes
	}
}
10013233={
	name=character_name_10013233 # Atsutada
	dynasty=10013150 # Tanba
	father=10013230 # Tanba Motoyuki
	religion="shinto"
	culture="central_kinai"
	learning=9
	trait="education_learning_2"
	trait="lifestyle_physician"
	1355.1.1={
		birth=yes
		effect = {
			add_trait_xp = {
				trait = lifestyle_physician
				value = 100
			}
		}
	}
	1405.1.1={
		death=yes
	}
}
10013234={
	name=character_name_10013234 # Atsufusa
	dynasty=10013150 # Tanba
	father=10013231 # Tanba Naofusa
	religion="shinto"
	culture="central_kinai"
	learning=9
	trait="education_learning_2"
	trait="lifestyle_physician"
	1360.1.1={
		birth=yes
		effect = {
			add_trait_xp = {
				trait = lifestyle_physician
				value = 100
			}
		}
	}
	1410.1.1={
		death=yes
	}
}
10013235={
	name=character_name_10013235 # Shigenao
	dynasty=10013150 # Tanba
	father=10013229 # Tanba Atsunao
	religion="shinto"
	culture="central_kinai"
	learning=9
	trait="education_learning_2"
	trait="lifestyle_physician"
	1340.1.1={
		birth=yes
		effect = {
			add_trait_xp = {
				trait = lifestyle_physician
				value = 100
			}
		}
	}
	1390.1.1={
		death=yes
	}
}
10013236={
	name=character_name_10013236 # Yukimoto
	dynasty=10013150 # Tanba
	father=10013235 # Tanba Shigenao
	religion="shinto"
	culture="central_kinai"
	learning=9
	trait="education_learning_2"
	trait="lifestyle_physician"
	1370.1.1={
		birth=yes
		effect = {
			add_trait_xp = {
				trait = lifestyle_physician
				value = 100
			}
		}
	}
	1435.1.1={
		death=yes
	}
}
10013237={
	name=character_name_10013237 # Nagayo
	dynasty=10013150 # Tanba
	father=10013222 # Tanba Tokinaga
	religion="shinto"
	culture="central_kinai"
	learning=9
	trait="education_learning_2"
	trait="lifestyle_physician"
	1200.1.1={
		birth=yes
		effect = {
			add_trait_xp = {
				trait = lifestyle_physician
				value = 100
			}
		}
	}
	1270.1.1={
		death=yes
	}
}
10013238={
	name=character_name_10013238 # Tokinori
	dynasty=10013150 # Tanba
	father=10013222 # Tanba Tokinaga
	religion="shinto"
	culture="central_kinai"
	learning=9
	trait="education_learning_2"
	trait="lifestyle_physician"
	1205.1.1={
		birth=yes
		effect = {
			add_trait_xp = {
				trait = lifestyle_physician
				value = 100
			}
		}
	}
	1255.1.1={
		death=yes
	}
}
10013239={
	name=character_name_10013239 # Yasuyo
	dynasty=10013150 # Tanba
	father=10013222 # Tanba Tokinaga
	religion="shinto"
	culture="central_kinai"
	learning=9
	trait="education_learning_2"
	trait="lifestyle_physician"
	1210.1.1={
		birth=yes
		effect = {
			add_trait_xp = {
				trait = lifestyle_physician
				value = 100
			}
		}
	}
	1260.1.1={
		death=yes
	}
}
10013240={
	name=character_name_10013240 # Tokiyo
	dynasty=10013150 # Tanba
	father=10013237 # Tanba Nagayo
	religion="shinto"
	culture="central_kinai"
	learning=9
	trait="education_learning_2"
	trait="lifestyle_physician"
	1225.1.1={
		birth=yes
		effect = {
			add_trait_xp = {
				trait = lifestyle_physician
				value = 100
			}
		}
	}
	1285.1.1={
		death=yes
	}
}
10013241={
	name=character_name_10013241 # Sadayo
	dynasty=10013150 # Tanba
	father=10013240 # Tanba Tokiyo
	religion="shinto"
	culture="central_kinai"
	learning=9
	trait="education_learning_2"
	trait="lifestyle_physician"
	1250.1.1={
		birth=yes
		effect = {
			add_trait_xp = {
				trait = lifestyle_physician
				value = 100
			}
		}
	}
	1300.1.1={
		death=yes
	}
}
10013242={
	name=character_name_10013242 # Hideyo
	dynasty=10013150 # Tanba
	father=10013241 # Tanba Sadayo
	religion="shinto"
	culture="central_kinai"
	learning=9
	trait="education_learning_2"
	trait="lifestyle_physician"
	1275.1.1={
		birth=yes
		effect = {
			add_trait_xp = {
				trait = lifestyle_physician
				value = 100
			}
		}
	}
	1325.1.1={
		death=yes
	}
}
10013243={
	name=character_name_10013243 # Naganori
	dynasty=10013150 # Tanba
	father=10013238 # Tanba Tokinori
	religion="shinto"
	culture="central_kinai"
	learning=9
	trait="education_learning_2"
	trait="lifestyle_physician"
	1230.1.1={
		birth=yes
		effect = {
			add_trait_xp = {
				trait = lifestyle_physician
				value = 100
			}
		}
	}
	1280.1.1={
		death=yes
	}
}
10013244={
	name=character_name_10013244 # Chikanori
	dynasty=10013150 # Tanba
	father=10013243 # Tanba Chikanori
	religion="shinto"
	culture="central_kinai"
	learning=9
	trait="education_learning_2"
	trait="lifestyle_physician"
	1255.1.1={
		birth=yes
		effect = {
			add_trait_xp = {
				trait = lifestyle_physician
				value = 100
			}
		}
	}
	1305.1.1={
		death=yes
	}
}
10013245={
	name=character_name_10013245 # Chikatoki
	dynasty=10013150 # Tanba
	father=10013244 # Tanba Chikatoki
	religion="shinto"
	culture="central_kinai"
	learning=9
	trait="education_learning_2"
	trait="lifestyle_physician"
	1280.1.1={
		birth=yes
		effect = {
			add_trait_xp = {
				trait = lifestyle_physician
				value = 100
			}
		}
	}
	1330.1.1={
		death=yes
	}
}
10013246={
	name=character_name_10013246 # Tadachika
	dynasty=10013150 # Tanba
	father=10013245 # Tanba Tadachika
	religion="shinto"
	culture="central_kinai"
	learning=9
	trait="education_learning_2"
	trait="lifestyle_physician"
	1305.1.1={
		birth=yes
		effect = {
			add_trait_xp = {
				trait = lifestyle_physician
				value = 100
			}
		}
	}
	1355.1.1={
		death=yes
	}
}
10013247={
	name=character_name_10013247 # Mitsuyo
	dynasty=10013150 # Tanba
	father=10013239 # Tanba Yasuyo
	religion="shinto"
	culture="central_kinai"
	learning=9
	trait="education_learning_2"
	trait="lifestyle_physician"
	1235.1.1={
		birth=yes
		effect = {
			add_trait_xp = {
				trait = lifestyle_physician
				value = 100
			}
		}
	}
	1285.1.1={
		death=yes
	}
}
10013248={
	name=character_name_10013248 # Moroyo
	dynasty=10013150 # Tanba
	father=10013247 # Tanba Mitsuyo
	religion="shinto"
	culture="central_kinai"
	learning=9
	trait="education_learning_2"
	trait="lifestyle_physician"
	1260.1.1={
		birth=yes
		effect = {
			add_trait_xp = {
				trait = lifestyle_physician
				value = 100
			}
		}
	}
	1310.1.1={
		death=yes
	}
}
10013249={
	name=character_name_10013249 # Yukiyo
	dynasty=10013150 # Tanba
	father=10013248 # Tanba Moroyo
	religion="shinto"
	culture="central_kinai"
	learning=9
	trait="education_learning_2"
	trait="lifestyle_physician"
	1285.1.1={
		birth=yes
		effect = {
			add_trait_xp = {
				trait = lifestyle_physician
				value = 100
			}
		}
	}
	1335.1.1={
		death=yes
	}
}
10013250={
	name=character_name_10013250 # Nagamitsu
	dynasty=10013150 # Tanba
	father=10013223 # Tanba Tadanaga
	religion="shinto"
	culture="central_kinai"
	learning=9
	trait="education_learning_2"
	trait="lifestyle_physician"
	1200.1.1={
		birth=yes
		effect = {
			add_trait_xp = {
				trait = lifestyle_physician
				value = 100
			}
		}
	}
	1250.1.1={
		death=yes
	}
}
10013251={
	name=character_name_10013251 # Nagachika
	dynasty=10013150 # Tanba
	father=10013250 # Tanba Nagamitsu
	religion="shinto"
	culture="central_kinai"
	learning=9
	trait="education_learning_2"
	trait="lifestyle_physician"
	1225.1.1={
		birth=yes
		effect = {
			add_trait_xp = {
				trait = lifestyle_physician
				value = 100
			}
		}
	}
	1275.1.1={
		death=yes
	}
}
10013252={
	name=character_name_10013252 # Nagaharu
	dynasty=10013150 # Tanba
	father=10013251 # Tanba Nagachika
	religion="shinto"
	culture="central_kinai"
	learning=9
	trait="education_learning_2"
	trait="lifestyle_physician"
	1250.1.1={
		birth=yes
		effect = {
			add_trait_xp = {
				trait = lifestyle_physician
				value = 100
			}
		}
	}
	1300.1.1={
		death=yes
	}
}
10013253={
	name=character_name_10013253 # Nagaaki
	dynasty=10013150 # Tanba
	father=10013252 # Tanba Nagaharu
	religion="shinto"
	culture="central_kinai"
	learning=9
	trait="education_learning_2"
	trait="lifestyle_physician"
	1275.1.1={
		birth=yes
		effect = {
			add_trait_xp = {
				trait = lifestyle_physician
				value = 100
			}
		}
	}
	1325.1.1={
		death=yes
	}
}
10013254={
	name=character_name_10013254 # Tadayori
	dynasty=10013150 # Tanba
	father=10013224 # Tanba Suenaga
	religion="shinto"
	culture="central_kinai"
	learning=9
	trait="education_learning_2"
	trait="lifestyle_physician"
	1210.1.1={
		birth=yes
		effect = {
			add_trait_xp = {
				trait = lifestyle_physician
				value = 100
			}
		}
	}
	1260.1.1={
		death=yes
	}
}
10013255={
	name=character_name_10013255 # Tadakage
	dynasty=10013150 # Tanba
	father=10013254 # Tanba Tadayori
	religion="shinto"
	culture="central_kinai"
	learning=9
	trait="education_learning_2"
	trait="lifestyle_physician"
	1240.1.1={
		birth=yes
		effect = {
			add_trait_xp = {
				trait = lifestyle_physician
				value = 100
			}
		}
	}
	1290.1.1={
		death=yes
	}
}
10013256={
	name=character_name_10013256 # Tadayuki
	dynasty=10013150 # Tanba
	father=10013255 # Tanba Tadakage
	religion="shinto"
	culture="central_kinai"
	learning=9
	trait="education_learning_2"
	trait="lifestyle_physician"
	1270.1.1={
		birth=yes
		effect = {
			add_trait_xp = {
				trait = lifestyle_physician
				value = 100
			}
		}
	}
	1320.1.1={
		death=yes
	}
}
10013257={
	name=character_name_10013257 # Yorikage
	dynasty=10013150 # Tanba
	father=10013256 # Tanba Tadayuki
	religion="shinto"
	culture="central_kinai"
	learning=9
	trait="education_learning_2"
	trait="lifestyle_physician"
	1300.1.1={
		birth=yes
		effect = {
			add_trait_xp = {
				trait = lifestyle_physician
				value = 100
			}
		}
	}
	1350.1.1={
		death=yes
	}
}
10013258={
	name=character_name_10013258 # Suekage
	dynasty=10013150 # Tanba
	father=10013257 # Tanba Yorikage
	religion="shinto"
	culture="central_kinai"
	learning=9
	trait="education_learning_2"
	trait="lifestyle_physician"
	1330.1.1={
		birth=yes
		effect = {
			add_trait_xp = {
				trait = lifestyle_physician
				value = 100
			}
		}
	}
	1380.1.1={
		death=yes
	}
}
10013259={
	name=character_name_10013259 # Suekata
	dynasty=10013150 # Tanba
	father=10013258 # Tanba Suekage
	religion="shinto"
	culture="central_kinai"
	learning=9
	trait="education_learning_2"
	trait="lifestyle_physician"
	1360.1.1={
		birth=yes
		effect = {
			add_trait_xp = {
				trait = lifestyle_physician
				value = 100
			}
		}
	}
	1410.1.1={
		death=yes
	}
}
10013260={
	name=character_name_10013260 # Suemasu
	dynasty=10013150 # Tanba
	father=10013259 # Tanba Suekata
	religion="shinto"
	culture="central_kinai"
	learning=9
	trait="education_learning_2"
	trait="lifestyle_physician"
	1390.1.1={
		birth=yes
		effect = {
			add_trait_xp = {
				trait = lifestyle_physician
				value = 100
			}
		}
	}
	1440.1.1={
		death=yes
	}
}
10013261={
	name=character_name_10013261 # Sueshige
	dynasty=10013150 # Tanba
	father=10013260 # Tanba Suemasu
	religion="shinto"
	culture="central_kinai"
	learning=9
	trait="education_learning_2"
	trait="lifestyle_physician"
	1420.1.1={
		birth=yes
		effect = {
			add_trait_xp = {
				trait = lifestyle_physician
				value = 100
			}
		}
	}
	1470.1.1={
		death=yes
	}
}
10013262={
	name=character_name_10013262 # Munekiyo
	dynasty=10013150 # Tanba
	father=10013261 # Tanba Sueshige
	religion="shinto"
	culture="central_kinai"
	learning=9
	trait="education_learning_2"
	trait="lifestyle_physician"
	1450.1.1={
		birth=yes
		effect = {
			add_trait_xp = {
				trait = lifestyle_physician
				value = 100
			}
		}
	}
	1500.1.1={
		death=yes
	}
}
10013263={
	name=character_name_10013263 # Munetada
	dynasty=10013150 # Tanba
	father=10013262 # Tanba Munekiyo
	religion="shinto"
	culture="central_kinai"
	learning=9
	trait="education_learning_2"
	trait="lifestyle_physician"
	1480.1.1={
		birth=yes
		effect = {
			add_trait_xp = {
				trait = lifestyle_physician
				value = 100
			}
		}
	}
	1530.1.1={
		death=yes
	}
}
10013264={
	name=character_name_10013264 # Zenso
	dynasty=10013151 # Yakuin
	father=10013263 # Tanba Munetada
	religion="shinto"
	culture="central_kinai"
	learning=10
	trait="education_learning_4"
	trait="lifestyle_physician"
	1526.1.1={
		birth=yes
		effect = {
			add_trait_xp = {
				trait = lifestyle_physician
				value = 100
			}
		}
	}
	1600.1.25={
		death=yes
	}
}
10013265={
	name=character_name_10013265 # Hidetaka
	dynasty=10013151 # Yakuin
	father=10013264 # Yakuin Zenso
	religion="shinto"
	culture="central_kinai"
	learning=9
	trait="education_learning_2"
	trait="lifestyle_physician"
	1573.1.1={
		birth=yes
		effect = {
			add_trait_xp = {
				trait = lifestyle_physician
				value = 100
			}
		}
	}
	1590.1.1={
		death=yes
	}
}
10013266={
	name=character_name_10013266 # Sohaku
	dynasty=10013151 # Yakuin
	father=10013264 # Yakuin Zenso
	religion="shinto"
	culture="central_kinai"
	learning=9
	trait="education_learning_2"
	trait="lifestyle_physician"
	1576.1.1={
		birth=yes
		effect = {
			add_trait_xp = {
				trait = lifestyle_physician
				value = 100
			}
		}
	}
	1663.8.30={
		death=yes
	}
}
10013267={
	name=character_name_10013267 # Yoshimoto
	dynasty=10013150 # Tanba
	father=10013215 # Tanba Tsunemoto
	religion="shinto"
	culture="central_kinai"
	learning=9
	trait="education_learning_2"
	trait="lifestyle_physician"
	1175.1.1={
		birth=yes
		effect = {
			add_trait_xp = {
				trait = lifestyle_physician
				value = 100
			}
		}
	}
	1225.1.1={
		death=yes
	}
}
10013268={
	name=character_name_10013268 # Yoriyuki
	dynasty=10013150 # Tanba
	father=10013267 # Tanba Yoshimoto
	religion="shinto"
	culture="central_kinai"
	learning=9
	trait="education_learning_2"
	trait="lifestyle_physician"
	1205.1.1={
		birth=yes
		effect = {
			add_trait_xp = {
				trait = lifestyle_physician
				value = 100
			}
		}
	}
	1255.1.1={
		death=yes
	}
}
10013269={
	name=character_name_10013269 # Naganobu
	dynasty=10013150 # Tanba
	father=10013267 # Tanba Yoshimoto
	religion="shinto"
	culture="central_kinai"
	learning=9
	trait="education_learning_2"
	trait="lifestyle_physician"
	1210.1.1={
		birth=yes
		effect = {
			add_trait_xp = {
				trait = lifestyle_physician
				value = 100
			}
		}
	}
	1260.1.1={
		death=yes
	}
}
10013270={
	name=character_name_10013270 # Yorikane
	dynasty=10013150 # Tanba
	father=10013268 # Tanba Yoriyuki
	religion="shinto"
	culture="central_kinai"
	learning=9
	trait="education_learning_2"
	trait="lifestyle_physician"
	1235.1.1={
		birth=yes
		effect = {
			add_trait_xp = {
				trait = lifestyle_physician
				value = 100
			}
		}
	}
	1285.1.1={
		death=yes
	}
}
10013271={
	name=character_name_10013271 # Yorikiyo
	dynasty=10013150 # Tanba
	father=10013268 # Tanba Yoriyuki
	religion="shinto"
	culture="central_kinai"
	learning=9
	trait="education_learning_2"
	trait="lifestyle_physician"
	1240.1.1={
		birth=yes
		effect = {
			add_trait_xp = {
				trait = lifestyle_physician
				value = 100
			}
		}
	}
	1290.1.1={
		death=yes
	}
}
10013272={
	name=character_name_10013272 # Tsunenaga
	dynasty=10013150 # Tanba
	father=10013215 # Tanba Tsunemoto
	religion="shinto"
	culture="central_kinai"
	learning=9
	trait="education_learning_2"
	trait="lifestyle_physician"
	1180.1.1={
		birth=yes
		effect = {
			add_trait_xp = {
				trait = lifestyle_physician
				value = 100
			}
		}
	}
	1230.1.1={
		death=yes
	}
}
10013273={
	name=character_name_10013273 # Nagataka
	dynasty=10013150 # Tanba
	father=10013272 # Tanba Tsunenaga
	religion="shinto"
	culture="central_kinai"
	learning=9
	trait="education_learning_2"
	trait="lifestyle_physician"
	1210.1.1={
		birth=yes
		effect = {
			add_trait_xp = {
				trait = lifestyle_physician
				value = 100
			}
		}
	}
	1260.1.1={
		death=yes
	}
}
10013274={
	name=character_name_10013274 # Hisanaga
	dynasty=10013150 # Tanba
	father=10013272 # Tanba Tsunenaga
	religion="shinto"
	culture="central_kinai"
	learning=9
	trait="education_learning_2"
	trait="lifestyle_physician"
	1215.1.1={
		birth=yes
		effect = {
			add_trait_xp = {
				trait = lifestyle_physician
				value = 100
			}
		}
	}
	1265.1.1={
		death=yes
	}
}
10013275={
	name=character_name_10013275 # Hiroshige
	dynasty=10013150 # Tanba
	father=10013273 # Tanba Nagataka
	religion="shinto"
	culture="central_kinai"
	learning=9
	trait="education_learning_2"
	trait="lifestyle_physician"
	1245.1.1={
		birth=yes
		effect = {
			add_trait_xp = {
				trait = lifestyle_physician
				value = 100
			}
		}
	}
	1295.1.1={
		death=yes
	}
}
10013276={
	name=character_name_10013276 # Yukinaga
	dynasty=10013150 # Tanba
	father=10013274 # Tanba Hisanaga
	religion="shinto"
	culture="central_kinai"
	learning=9
	trait="education_learning_2"
	trait="lifestyle_physician"
	1245.1.1={
		birth=yes
		effect = {
			add_trait_xp = {
				trait = lifestyle_physician
				value = 100
			}
		}
	}
	1295.1.1={
		death=yes
	}
}
10013277={
	name=character_name_10013277 # Morinaga
	dynasty=10013150 # Tanba
	father=10013274 # Tanba Hisanaga
	religion="shinto"
	culture="central_kinai"
	learning=9
	trait="education_learning_2"
	trait="lifestyle_physician"
	1250.1.1={
		birth=yes
		effect = {
			add_trait_xp = {
				trait = lifestyle_physician
				value = 100
			}
		}
	}
	1300.1.1={
		death=yes
	}
}
10013278={
	name=character_name_10013278 # Hisayasu
	dynasty=10013150 # Tanba
	father=10013276 # Tanba Yukinaga
	religion="shinto"
	culture="central_kinai"
	learning=9
	trait="education_learning_2"
	trait="lifestyle_physician"
	1275.1.1={
		birth=yes
		effect = {
			add_trait_xp = {
				trait = lifestyle_physician
				value = 100
			}
		}
	}
	1325.1.1={
		death=yes
	}
}
10013279={
	name=character_name_10013279 # Kaneyuki
	dynasty=10013150 # Tanba
	father=10013278 # Tanba Hisayasu
	religion="shinto"
	culture="central_kinai"
	learning=9
	trait="education_learning_2"
	trait="lifestyle_physician"
	1305.1.1={
		birth=yes
		effect = {
			add_trait_xp = {
				trait = lifestyle_physician
				value = 100
			}
		}
	}
	1355.1.1={
		death=yes
	}
}
10013280={
	name=character_name_10013280 # Hidenaga
	dynasty=10013150 # Tanba
	father=10013279 # Tanba Kaneyuki
	religion="shinto"
	culture="central_kinai"
	learning=9
	trait="education_learning_2"
	trait="lifestyle_physician"
	1335.1.1={
		birth=yes
		effect = {
			add_trait_xp = {
				trait = lifestyle_physician
				value = 100
			}
		}
	}
	1385.1.1={
		death=yes
	}
}
10013281={
	name=character_name_10013281 # Tomonaga
	dynasty=10013150 # Tanba
	father=10013278 # Tanba Hisayasu
	religion="shinto"
	culture="central_kinai"
	learning=9
	trait="education_learning_2"
	trait="lifestyle_physician"
	1310.1.1={
		birth=yes
		effect = {
			add_trait_xp = {
				trait = lifestyle_physician
				value = 100
			}
		}
	}
	1360.1.1={
		death=yes
	}
}
10013282={
	name=character_name_10013282 # Tsugunaga
	dynasty=10013150 # Tanba
	father=10013281 # Tanba Tomonaga
	religion="shinto"
	culture="central_kinai"
	learning=9
	trait="education_learning_2"
	trait="lifestyle_physician"
	1340.1.1={
		birth=yes
		effect = {
			add_trait_xp = {
				trait = lifestyle_physician
				value = 100
			}
		}
	}
	1390.1.1={
		death=yes
	}
}
10013283={
	name=character_name_10013283 # Sadanaga
	dynasty=10013150 # Tanba
	father=10013282 # Tanba  Tsugunaga
	religion="shinto"
	culture="central_kinai"
	learning=9
	trait="education_learning_2"
	trait="lifestyle_physician"
	1370.1.1={
		birth=yes
		effect = {
			add_trait_xp = {
				trait = lifestyle_physician
				value = 100
			}
		}
	}
	1420.1.1={
		death=yes
	}
}
10013284={
	name=character_name_10013284 # Morinaga
	dynasty=10013150 # Tanba
	father=10013283 # Tanba Sadanaga
	religion="shinto"
	culture="central_kinai"
	learning=9
	trait="education_learning_2"
	trait="lifestyle_physician"
	1400.1.1={
		birth=yes
		effect = {
			add_trait_xp = {
				trait = lifestyle_physician
				value = 100
			}
		}
	}
	1457.5.4={
		death=yes
	}
}
10013285={
	name=character_name_10013285 # Shigenaga
	dynasty=10013150 # Tanba
	father=10013284 # Tanba Morinaga
	religion="shinto"
	culture="central_kinai"
	learning=9
	trait="education_learning_2"
	trait="lifestyle_physician"
	1430.1.1={
		birth=yes
		effect = {
			add_trait_xp = {
				trait = lifestyle_physician
				value = 100
			}
		}
	}
	1490.5.27={
		death=yes
	}
}
10013286={
	name=character_name_10013286 # Toshinaga
	dynasty=10013150 # Tanba
	father=10013285 # Tanba Shigenaga
	religion="shinto"
	culture="central_kinai"
	learning=9
	trait="education_learning_2"
	trait="lifestyle_physician"
	1460.1.1={
		birth=yes
		effect = {
			add_trait_xp = {
				trait = lifestyle_physician
				value = 100
			}
		}
	}
	1510.1.1={
		death=yes
	}
}
10013287={
	name=character_name_10013287 # Yasunaga
	dynasty=10013150 # Tanba
	father=10013286 # Tanba Toshinaga
	religion="shinto"
	culture="central_kinai"
	learning=9
	trait="education_learning_2"
	trait="lifestyle_physician"
	1490.1.1={
		birth=yes
		effect = {
			add_trait_xp = {
				trait = lifestyle_physician
				value = 100
			}
		}
	}
	1540.1.1={
		death=yes
	}
}
10013288={
	name=character_name_10013288 # Motokane
	dynasty=10013150 # Tanba
	father=10013216 # Tanba Tomomoto
	religion="shinto"
	culture="central_kinai"
	learning=9
	trait="education_learning_2"
	trait="lifestyle_physician"
	1165.1.1={
		birth=yes
		effect = {
			add_trait_xp = {
				trait = lifestyle_physician
				value = 100
			}
		}
	}
	1215.1.1={
		death=yes
	}
}
10013289={
	name=character_name_10013289 # Motosada
	dynasty=10013150 # Tanba
	father=10013288 # Tanba Motokane
	religion="shinto"
	culture="central_kinai"
	learning=9
	trait="education_learning_2"
	trait="lifestyle_physician"
	1195.1.1={
		birth=yes
		effect = {
			add_trait_xp = {
				trait = lifestyle_physician
				value = 100
			}
		}
	}
	1245.1.1={
		death=yes
	}
}
10013290={
	name=character_name_10013290 # Toshiyasu
	dynasty=10013150 # Tanba
	father=10013289 # Tanba Motosada
	religion="shinto"
	culture="central_kinai"
	learning=9
	trait="education_learning_2"
	trait="lifestyle_physician"
	1225.1.1={
		birth=yes
		effect = {
			add_trait_xp = {
				trait = lifestyle_physician
				value = 100
			}
		}
	}
	1275.1.1={
		death=yes
	}
}
10013291={
	name=character_name_10013291 # Yukimoto
	dynasty=10013150 # Tanba
	father=10013289 # Tanba Motosada
	religion="shinto"
	culture="central_kinai"
	learning=9
	trait="education_learning_2"
	trait="lifestyle_physician"
	1230.1.1={
		birth=yes
		effect = {
			add_trait_xp = {
				trait = lifestyle_physician
				value = 100
			}
		}
	}
	1280.1.1={
		death=yes
	}
}
10013292={
	name=character_name_10013292 # Muneyasu
	dynasty=10013150 # Tanba
	father=10013290 # Tanba Toshiyasu
	religion="shinto"
	culture="central_kinai"
	learning=9
	trait="education_learning_2"
	trait="lifestyle_physician"
	1255.1.1={
		birth=yes
		effect = {
			add_trait_xp = {
				trait = lifestyle_physician
				value = 100
			}
		}
	}
	1305.1.1={
		death=yes
	}
}
10013293={
	name=character_name_10013293 # Fuyuyasu
	dynasty=10013150 # Tanba
	father=10013290 # Tanba Toshiyasu
	religion="shinto"
	culture="central_kinai"
	learning=9
	trait="education_learning_2"
	trait="lifestyle_physician"
	1260.1.1={
		birth=yes
		effect = {
			add_trait_xp = {
				trait = lifestyle_physician
				value = 100
			}
		}
	}
	1310.1.1={
		death=yes
	}
}
10013294={
	name=character_name_10013294 # Moroyasu
	dynasty=10013150 # Tanba
	father=10013293 # Tanba Fuyuyasu
	religion="shinto"
	culture="central_kinai"
	learning=9
	trait="education_learning_2"
	trait="lifestyle_physician"
	1290.1.1={
		birth=yes
		effect = {
			add_trait_xp = {
				trait = lifestyle_physician
				value = 100
			}
		}
	}
	1340.1.1={
		death=yes
	}
}
10013295={
	name=character_name_10013295 # Kaneyasu
	dynasty=10013150 # Tanba
	father=10013294 # Tanba Moroyasu
	religion="shinto"
	culture="central_kinai"
	learning=9
	trait="education_learning_2"
	trait="lifestyle_physician"
	1320.1.1={
		birth=yes
		effect = {
			add_trait_xp = {
				trait = lifestyle_physician
				value = 100
			}
		}
	}
	1370.1.1={
		death=yes
	}
}
10013296={
	name=character_name_10013296 # Sadayasu
	dynasty=10013150 # Tanba
	father=10013295 # Tanba Kaneyasu
	religion="shinto"
	culture="central_kinai"
	learning=9
	trait="education_learning_2"
	trait="lifestyle_physician"
	1350.1.1={
		birth=yes
		effect = {
			add_trait_xp = {
				trait = lifestyle_physician
				value = 100
			}
		}
	}
	1400.1.1={
		death=yes
	}
}
10013297={
	name=character_name_10013297 # Ariyasu
	dynasty=10013150 # Tanba
	father=10013296 # Tanba Sadayasu
	religion="shinto"
	culture="central_kinai"
	learning=9
	trait="education_learning_2"
	trait="lifestyle_physician"
	1380.1.1={
		birth=yes
		effect = {
			add_trait_xp = {
				trait = lifestyle_physician
				value = 100
			}
		}
	}
	1430.1.1={
		death=yes
	}
}
10013298={
	name=character_name_10013298 # Haruyasu
	dynasty=10013150 # Tanba
	father=10013297 # Tanba Ariyasu
	religion="shinto"
	culture="central_kinai"
	learning=9
	trait="education_learning_2"
	trait="lifestyle_physician"
	1410.1.1={
		birth=yes
		effect = {
			add_trait_xp = {
				trait = lifestyle_physician
				value = 100
			}
		}
	}
	1463.5.1={
		death=yes
	}
}
10013299={
	name=character_name_10013299 # Yorisada
	dynasty=10013150 # Tanba
	father=10013295 # Tanba Kaneyasu
	religion="shinto"
	culture="central_kinai"
	learning=9
	trait="education_learning_2"
	trait="lifestyle_physician"
	1360.1.1={
		birth=yes
		effect = {
			add_trait_xp = {
				trait = lifestyle_physician
				value = 100
			}
		}
	}
	1410.1.1={
		death=yes
	}
}
10013300={
	name=character_name_10013300 # Yoritoyo
	dynasty=10013150 # Tanba
	father=10013299 # Tanba Yorisada
	religion="shinto"
	culture="central_kinai"
	learning=9
	trait="education_learning_2"
	trait="lifestyle_physician"
	1400.1.1={
		birth=yes
		effect = {
			add_trait_xp = {
				trait = lifestyle_physician
				value = 100
			}
		}
	}
	1450.1.1={
		death=yes
	}
}
10013301={
	name=character_name_10013301 # Yorihide
	dynasty=10013150 # Tanba
	father=10013300 # Tanba Yoritoyo
	religion="shinto"
	culture="central_kinai"
	learning=9
	trait="education_learning_2"
	trait="lifestyle_physician"
	1440.1.1={
		birth=yes
		effect = {
			add_trait_xp = {
				trait = lifestyle_physician
				value = 100
			}
		}
	}
	1490.1.1={
		death=yes
	}
}
10013302={
	name=character_name_10013302 # Yorikazu
	dynasty=10013150 # Tanba
	father=10013301 # Tanba Yorihide
	religion="shinto"
	culture="central_kinai"
	learning=9
	trait="education_learning_2"
	trait="lifestyle_physician"
	1471.1.1={
		birth=yes
		effect = {
			add_trait_xp = {
				trait = lifestyle_physician
				value = 100
			}
		}
	}
	1529.1.1={
		death=yes
	}
}
10013303={
	name=character_name_10013303 # Tomoyasu
	dynasty=10013150 # Tanba
	father=10013211 # Tanba Yoriyasu
	religion="shinto"
	culture="central_kinai"
	learning=9
	trait="education_learning_2"
	trait="lifestyle_physician"
	1115.1.1={
		birth=yes
		effect = {
			add_trait_xp = {
				trait = lifestyle_physician
				value = 100
			}
		}
	}
	1165.1.1={
		death=yes
	}
}
10013304={
	name=character_name_10013304 # Norimoto
	dynasty=10013150 # Tanba
	father=10013211 # Tanba Yoriyasu
	religion="shinto"
	culture="central_kinai"
	learning=9
	trait="education_learning_2"
	trait="lifestyle_physician"
	1120.1.1={
		birth=yes
		effect = {
			add_trait_xp = {
				trait = lifestyle_physician
				value = 100
			}
		}
	}
	1170.1.1={
		death=yes
	}
}
10013305={
	name=character_name_10013305 # Chikamoto
	dynasty=10013150 # Tanba
	father=10013211 # Tanba Yoriyasu
	religion="shinto"
	culture="central_kinai"
	learning=9
	trait="education_learning_2"
	trait="lifestyle_physician"
	1125.1.1={
		birth=yes
		effect = {
			add_trait_xp = {
				trait = lifestyle_physician
				value = 100
			}
		}
	}
	1175.1.1={
		death=yes
	}
}
10013306={
	name=character_name_10013306 # Mochitada
	dynasty=10013150 # Tanba
	father=10013211 # Tanba Yoriyasu
	religion="shinto"
	culture="central_kinai"
	learning=9
	trait="education_learning_2"
	trait="lifestyle_physician"
	1130.1.1={
		birth=yes
		effect = {
			add_trait_xp = {
				trait = lifestyle_physician
				value = 100
			}
		}
	}
	1180.1.1={
		death=yes
	}
}
10013307={
	name=character_name_10013307 # Nobuyasu
	dynasty=10013150 # Tanba
	father=10013303 # Tanba Tomoyasu
	religion="shinto"
	culture="central_kinai"
	learning=9
	trait="education_learning_2"
	trait="lifestyle_physician"
	1145.1.1={
		birth=yes
		effect = {
			add_trait_xp = {
				trait = lifestyle_physician
				value = 100
			}
		}
	}
	1195.1.1={
		death=yes
	}
}
10013308={
	name=character_name_10013308 # Masatsugu
	dynasty=10013150 # Tanba
	father=10013307 # Tanba Nobuyasu
	religion="shinto"
	culture="central_kinai"
	learning=9
	trait="education_learning_2"
	trait="lifestyle_physician"
	1175.1.1={
		birth=yes
		effect = {
			add_trait_xp = {
				trait = lifestyle_physician
				value = 100
			}
		}
	}
	1225.1.1={
		death=yes
	}
}
10013309={
	name=character_name_10013309 # Ieyuki
	dynasty=10013150 # Tanba
	father=10013308 # Tanba Masatsugu
	religion="shinto"
	culture="central_kinai"
	learning=9
	trait="education_learning_2"
	trait="lifestyle_physician"
	1205.1.1={
		birth=yes
		effect = {
			add_trait_xp = {
				trait = lifestyle_physician
				value = 100
			}
		}
	}
	1255.1.1={
		death=yes
	}
}
10013310={
	name=character_name_10013310 # Shigenaga
	dynasty=10013150 # Tanba
	father=10013212 # Tanba Shigetada
	religion="shinto"
	culture="central_kinai"
	learning=9
	trait="education_learning_2"
	trait="lifestyle_physician"
	1120.1.1={
		birth=yes
		effect = {
			add_trait_xp = {
				trait = lifestyle_physician
				value = 100
			}
		}
	}
	1170.1.1={
		death=yes
	}
}
10013311={
	name=character_name_10013311 # Yasunaga
	dynasty=10013150 # Tanba
	father=10013310 # Tanba Shigenaga
	religion="shinto"
	culture="central_kinai"
	learning=9
	trait="education_learning_2"
	trait="lifestyle_physician"
	1160.1.1={
		birth=yes
		effect = {
			add_trait_xp = {
				trait = lifestyle_physician
				value = 100
			}
		}
	}
	1210.1.1={
		death=yes
	}
}
10013312={
	name=character_name_10013312 # Aritada
	dynasty=10013150 # Tanba
	father=10013310 # Tanba Shigenaga
	religion="shinto"
	culture="central_kinai"
	learning=9
	trait="education_learning_2"
	trait="lifestyle_physician"
	1165.1.1={
		birth=yes
		effect = {
			add_trait_xp = {
				trait = lifestyle_physician
				value = 100
			}
		}
	}
	1215.1.1={
		death=yes
	}
}
10013313={
	name=character_name_10013313 # Yasutaka
	dynasty=10013150 # Tanba
	father=10013311 # Tanba Yasunaga
	religion="shinto"
	culture="central_kinai"
	learning=9
	trait="education_learning_2"
	trait="lifestyle_physician"
	1200.1.1={
		birth=yes
		effect = {
			add_trait_xp = {
				trait = lifestyle_physician
				value = 100
			}
		}
	}
	1250.1.1={
		death=yes
	}
}
10013314={
	name=character_name_10013314 # Yasumitsu
	dynasty=10013150 # Tanba
	father=10013311 # Tanba Yasunaga
	religion="shinto"
	culture="central_kinai"
	learning=9
	trait="education_learning_2"
	trait="lifestyle_physician"
	1205.1.1={
		birth=yes
		effect = {
			add_trait_xp = {
				trait = lifestyle_physician
				value = 100
			}
		}
	}
	1255.1.1={
		death=yes
	}
}
10013315={
	name=character_name_10013315 # Shigeuji
	dynasty=10013150 # Tanba
	father=10013313 # Tanba Yasutaka
	religion="shinto"
	culture="central_kinai"
	learning=9
	trait="education_learning_2"
	trait="lifestyle_physician"
	1240.1.1={
		birth=yes
		effect = {
			add_trait_xp = {
				trait = lifestyle_physician
				value = 100
			}
		}
	}
	1290.1.1={
		death=yes
	}
}
10013316={
	name=character_name_10013316 # Norinaga
	dynasty=10013150 # Tanba
	father=10013315 # Tanba Shigeuji
	religion="shinto"
	culture="central_kinai"
	learning=9
	trait="education_learning_2"
	trait="lifestyle_physician"
	1280.1.1={
		birth=yes
		effect = {
			add_trait_xp = {
				trait = lifestyle_physician
				value = 100
			}
		}
	}
	1330.1.1={
		death=yes
	}
}
10013317={
	name=character_name_10013317 # Nagauji
	dynasty=10013150 # Tanba
	father=10013316 # Tanba Norinaga
	religion="shinto"
	culture="central_kinai"
	learning=9
	trait="education_learning_2"
	trait="lifestyle_physician"
	1320.1.1={
		birth=yes
		effect = {
			add_trait_xp = {
				trait = lifestyle_physician
				value = 100
			}
		}
	}
	1370.1.1={
		death=yes
	}
}
10013318={
	name=character_name_10013318 # Nagayo
	dynasty=10013150 # Tanba
	father=10013317 # Tanba Nagauji
	religion="shinto"
	culture="central_kinai"
	learning=9
	trait="education_learning_2"
	trait="lifestyle_physician"
	1345.1.1={
		birth=yes
		effect = {
			add_trait_xp = {
				trait = lifestyle_physician
				value = 100
			}
		}
	}
	1395.1.1={
		death=yes
	}
}
10013319={
	name=character_name_10013319 # Shigeyo
	dynasty=10013150 # Tanba
	father=10013318 # Tanba Nagayo
	religion="shinto"
	culture="central_kinai"
	learning=9
	trait="education_learning_2"
	trait="lifestyle_physician"
	1375.1.1={
		birth=yes
		effect = {
			add_trait_xp = {
				trait = lifestyle_physician
				value = 100
			}
		}
	}
	1438.1.1={
		death=yes
	}
}
10013320={
	name=character_name_10013320 # Nagatada
	dynasty=10013150 # Tanba
	father=10013312 # Tanba Aritada
	religion="shinto"
	culture="central_kinai"
	learning=9
	trait="education_learning_2"
	trait="lifestyle_physician"
	1195.1.1={
		birth=yes
		effect = {
			add_trait_xp = {
				trait = lifestyle_physician
				value = 100
			}
		}
	}
	1245.1.1={
		death=yes
	}
}
10013321={
	name=character_name_10013321 # Tadatoshi
	dynasty=10013150 # Tanba
	father=10013312 # Tanba Aritada
	religion="shinto"
	culture="central_kinai"
	learning=9
	trait="education_learning_2"
	trait="lifestyle_physician"
	1200.1.1={
		birth=yes
		effect = {
			add_trait_xp = {
				trait = lifestyle_physician
				value = 100
			}
		}
	}
	1250.1.1={
		death=yes
	}
}
10013322={
	name=character_name_10013322 # Tadashige
	dynasty=10013150 # Tanba
	father=10013320 # Tanba Nagatada
	religion="shinto"
	culture="central_kinai"
	learning=9
	trait="education_learning_2"
	trait="lifestyle_physician"
	1225.1.1={
		birth=yes
		effect = {
			add_trait_xp = {
				trait = lifestyle_physician
				value = 100
			}
		}
	}
	1275.1.1={
		death=yes
	}
}
10013323={
	name=character_name_10013323 # Nagaari
	dynasty=10013150 # Tanba
	father=10013320 # Tanba Nagatada
	religion="shinto"
	culture="central_kinai"
	learning=9
	trait="education_learning_2"
	trait="lifestyle_physician"
	1230.1.1={
		birth=yes
		effect = {
			add_trait_xp = {
				trait = lifestyle_physician
				value = 100
			}
		}
	}
	1280.1.1={
		death=yes
	}
}
10013324={
	name=character_name_10013324 # Nagasue
	dynasty=10013150 # Tanba
	father=10013323 # Tanba Nagaari
	religion="shinto"
	culture="central_kinai"
	learning=9
	trait="education_learning_2"
	trait="lifestyle_physician"
	1260.1.1={
		birth=yes
		effect = {
			add_trait_xp = {
				trait = lifestyle_physician
				value = 100
			}
		}
	}
	1310.1.1={
		death=yes
	}
}
10013325={
	name=character_name_10013325 # Tadamori
	dynasty=10013150 # Tanba
	father=10013323 # Tanba Nagaari
	religion="shinto"
	culture="central_kinai"
	learning=9
	trait="education_learning_2"
	trait="lifestyle_physician"
	1270.1.1={
		birth=yes
		effect = {
			add_trait_xp = {
				trait = lifestyle_physician
				value = 100
			}
		}
	}
	1344.8.1={
		death=yes
	}
}
10013326={
	name=character_name_10013326 # Tameshige
	dynasty=10013150 # Tanba
	father=10013202 # Tanba Kiyomasa
	religion="shinto"
	culture="central_kinai"
	learning=9
	trait="education_learning_2"
	trait="lifestyle_physician"
	995.1.1={
		birth=yes
		effect = {
			add_trait_xp = {
				trait = lifestyle_physician
				value = 100
			}
		}
	}
	1045.1.1={
		death=yes
	}
}
10013327={
	name=character_name_10013327 # Tamekiyo
	dynasty=10013150 # Tanba
	father=10013326 # Tanba Tameshige
	religion="shinto"
	culture="central_kinai"
	learning=9
	trait="education_learning_2"
	trait="lifestyle_physician"
	1025.1.1={
		birth=yes
		effect = {
			add_trait_xp = {
				trait = lifestyle_physician
				value = 100
			}
		}
	}
	1075.1.1={
		death=yes
	}
}
10013328={
	name=character_name_10013328 # Tadashige
	dynasty=10013150 # Tanba
	father=10013327 # Tanba Tamekiyo
	religion="shinto"
	culture="central_kinai"
	learning=9
	trait="education_learning_2"
	trait="lifestyle_physician"
	1055.1.1={
		birth=yes
		effect = {
			add_trait_xp = {
				trait = lifestyle_physician
				value = 100
			}
		}
	}
	1105.1.1={
		death=yes
	}
}
10013329={
	name=character_name_10013329 # Tameyori
	dynasty=10013150 # Tanba
	father=10013328 # Tanba Tadashige
	religion="shinto"
	culture="central_kinai"
	learning=9
	trait="education_learning_2"
	trait="lifestyle_physician"
	1085.1.1={
		birth=yes
		effect = {
			add_trait_xp = {
				trait = lifestyle_physician
				value = 100
			}
		}
	}
	1135.1.1={
		death=yes
	}
}
10013330={
	name=character_name_10013330 # Hideyori
	dynasty=10013150 # Tanba
	father=10013329 # Tanba Tameyori
	religion="shinto"
	culture="central_kinai"
	learning=9
	trait="education_learning_2"
	trait="lifestyle_physician"
	1115.1.1={
		birth=yes
		effect = {
			add_trait_xp = {
				trait = lifestyle_physician
				value = 100
			}
		}
	}
	1165.1.1={
		death=yes
	}
}
10013331={
	name=character_name_10013331 # Tanehide
	dynasty=10013150 # Tanba
	father=10013330 # Tanba Hideyori
	religion="shinto"
	culture="central_kinai"
	learning=9
	trait="education_learning_2"
	trait="lifestyle_physician"
	1145.1.1={
		birth=yes
		effect = {
			add_trait_xp = {
				trait = lifestyle_physician
				value = 100
			}
		}
	}
	1195.1.1={
		death=yes
	}
}
10013332={
	name=character_name_10013332 # Hidemasa
	dynasty=10013150 # Tanba
	father=10013331 # Tanba Tanehide
	religion="shinto"
	culture="central_kinai"
	learning=9
	trait="education_learning_2"
	trait="lifestyle_physician"
	1175.1.1={
		birth=yes
		effect = {
			add_trait_xp = {
				trait = lifestyle_physician
				value = 100
			}
		}
	}
	1225.1.1={
		death=yes
	}
}
10013333={
	name=character_name_10013333 # Kiyohide
	dynasty=10013150 # Tanba
	father=10013332 # Tanba Hidemasa
	religion="shinto"
	culture="central_kinai"
	learning=9
	trait="education_learning_2"
	trait="lifestyle_physician"
	1205.1.1={
		birth=yes
		effect = {
			add_trait_xp = {
				trait = lifestyle_physician
				value = 100
			}
		}
	}
	1255.1.1={
		death=yes
	}
}
10013334={
	name=character_name_10013334 # Tamehide
	dynasty=10013150 # Tanba
	father=10013329 # Tanba Tameyori
	religion="shinto"
	culture="central_kinai"
	learning=9
	trait="education_learning_2"
	trait="lifestyle_physician"
	1120.1.1={
		birth=yes
		effect = {
			add_trait_xp = {
				trait = lifestyle_physician
				value = 100
			}
		}
	}
	1170.1.1={
		death=yes
	}
}
10013335={
	name=character_name_10013335 # Chikahide
	dynasty=10013150 # Tanba
	father=10013334 # Tanba Tamehide
	religion="shinto"
	culture="central_kinai"
	learning=9
	trait="education_learning_2"
	trait="lifestyle_physician"
	1150.1.1={
		birth=yes
		effect = {
			add_trait_xp = {
				trait = lifestyle_physician
				value = 100
			}
		}
	}
	1200.1.1={
		death=yes
	}
}
10013336={
	name=character_name_10013336 # Arihide
	dynasty=10013150 # Tanba
	father=10013335 # Tanba Chikahide
	religion="shinto"
	culture="central_kinai"
	learning=9
	trait="education_learning_2"
	trait="lifestyle_physician"
	1180.1.1={
		birth=yes
		effect = {
			add_trait_xp = {
				trait = lifestyle_physician
				value = 100
			}
		}
	}
	1230.1.1={
		death=yes
	}
}
10013337={
	name=character_name_10013337 # Masahide
	dynasty=10013150 # Tanba
	father=10013336 # Tanba Arihide
	religion="shinto"
	culture="central_kinai"
	learning=9
	trait="education_learning_2"
	trait="lifestyle_physician"
	1210.1.1={
		birth=yes
		effect = {
			add_trait_xp = {
				trait = lifestyle_physician
				value = 100
			}
		}
	}
	1260.1.1={
		death=yes
	}
}
10013340={
	name=character_name_10013340 # Kagehide
	dynasty=10013152 # Otsuki
	religion="shinto"
	culture="western_hokuriku"
	learning=9
	trait="education_learning_2"
	trait="lifestyle_physician"
	1510.1.1={
		birth=yes
		effect = {
			add_trait_xp = {
				trait = lifestyle_physician
				value = 100
			}
		}
	}
	1573.12.2={
		death=yes
	}
}
10013345={
	name=character_name_10013345 # Tokuhon
	dynasty=10013153 # Nagata
	religion="shinto"
	culture="koshin"
	learning=10
	trait="education_learning_4"
	trait="lifestyle_physician"
	1513.1.1={
		birth=yes
		effect = {
			add_trait_xp = {
				trait = lifestyle_physician
				value = 100
			}
		}
	}
	1630.3.27={
		death=yes
	}
}
12531318={
	name=character_name_12531318 # Sanki
	dynasty=10006015 # Tashiro
	religion="shinto"
	culture="western_kanto"
	learning=10
	trait="education_learning_4"
	trait="minamoto_clan"
	trait="lifestyle_physician"
	1465.5.3={
		birth=yes
		effect = {
			add_trait_xp = {
				trait = lifestyle_physician
				value = 100
			}
		}
	}
	1544.5.6={
		death=yes
	}
}
10013350={
	name=character_name_10013350 # Dosan
	dynasty=10013154 # Manase
	religion="shinto"
	culture="central_kinai"
	learning=10
	trait="education_learning_4"
	trait="lifestyle_physician"
	1507.10.23={
		birth=yes
		effect = {
			add_trait_xp = {
				trait = lifestyle_physician
				value = 100
			}
		}
	}
	1594.2.23={
		death=yes
	}
}
10013351={
	name=character_name_10013351 # Gensaku
	dynasty=10013154 # Manase
	father=10013350 # Manase Gensaku
	religion="shinto"
	culture="central_kinai"
	learning=9
	trait="education_learning_2"
	trait="lifestyle_physician"
	1549.1.1={
		birth=yes
		effect = {
			add_trait_xp = {
				trait = lifestyle_physician
				value = 100
			}
		}
	}
	1632.1.31={
		death=yes
	}
}
10013352={
	name=character_name_10013352 # Genkan
	dynasty=10013154 # Manase
	father=10013351 # Manase Gensaku
	religion="shinto"
	culture="central_kinai"
	learning=9
	trait="education_learning_2"
	trait="lifestyle_physician"
	1577.1.1={
		birth=yes
		effect = {
			add_trait_xp = {
				trait = lifestyle_physician
				value = 100
			}
		}
	}
	1626.11.7={
		death=yes
	}
}