war = {
	name = "war_1180_genpei_war_of_kanto"
	start_date = 1180.9.8
	end_date = 1180.10.8
	targeted_titles = {
		e_nmih_japan
	}
	casus_belli = event_genpei_war
	attackers = { 10120075 12155017 } # Minamoto Yoritomo, Kazusa Hirotsune
	defenders = { 10110025 12122002 } # Taira Kiyomori, Satake Takayoshi
}
