war = {
	name = "war_1180_genpei_war_of_shinano"
	start_date = 1181.3.11
	end_date = 1181.3.20
	targeted_titles = {
		e_nmih_japan
	}
	casus_belli = event_genpei_war
	attackers = { 10120084 } # Minamoto Yoshinaka
	defenders = { 10110025 12270131 } # Taira Kiyomori, Jo [Taira] Nagamochi
}
