war = {
	name = "war_1487_chokyo_war"
	start_date = 1487.1.1
	end_date = 1494.11.20
	targeted_titles = {
		d_nmih_musashi
	}
	casus_belli = event_sengoku_invasion_war_duchy
	attackers = { 10017024 } # Uesugi [Yamauchi] Akisada
	defenders = { 10017040 10040059 } # Uesugi [Ogigaya] Sadamasa, Ashikaga Shigeuji
}
