version="0.8.7.2 - Fuji no Uraba"
tags={
	"Historical"
	"Total Conversion"
}
name="Shogunate"
supported_version="1.14.2.*"
replace_path="common/accolade_names"
replace_path="common/bookmarks/bookmarks"
replace_path="common/bookmarks/challenge_characters"
replace_path="common/bookmarks/groups"
replace_path="common/coat_of_arms/dynamic_definitions"
replace_path="common/culture/creation_names"
replace_path="common/dna_data"
replace_path="common/dynasties"
replace_path="common/dynasty_houses"
replace_path="common/landed_titles"
replace_path="common/nicknames"
replace_path="common/religion/holy_sites"
replace_path="common/struggle/struggles"
replace_path="gfx/interface/illustrations/loading_screens"
replace_path="history/artifacts"
replace_path="history/characters"
replace_path="history/cultures"
replace_path="history/provinces"
replace_path="history/titles"
replace_path="history/wars"
replace_path="music/in_game"
replace_path="music/main_themes"
replace_path="music/music_player_categories"
