name="Japanese_3_g3"
culture="yamato"
visual_culture_level=3
cubemap="gfx/portraits/environments/castle_interior_01_fire.dds"
environment="gfx/court_scene/scene_environment/court_scene_environment_indian.txt"
audio_culture=2.000000
camera={ {
		description="Establishing Shot"
		fov=50.000000
		position={ 15.800000 164.199997 -1050.000000 }
		pitch=-2.000000
		yaw=0.000000
		camera_near_far={ 70.000000 2570.000000 }
		is_camera_used_for_screenshots=yes
		royal_court_camera_name_key="ROYAL_COURT_ESTABLISHING_VIEW_CAMERA"
	}
 {
		description="Wall View"
		fov=50.000000
		position={ 136.800003 285.200012 -239.800003 }
		pitch=13.000000
		yaw=-52.000000
		camera_near_far={ 70.000000 2570.000000 }
		is_camera_used_for_screenshots=yes
		royal_court_camera_name_key="ROYAL_COURT_WALL_VIEW_CAMERA"
	}
 {
		description="Default View"
		fov=50.000000
		position={ 269.466248 320.961853 -785.039062 }
		pitch=13.318518
		yaw=-18.187525
		camera_near_far={ 70.000000 3000.000000 }
		is_camera_used_for_screenshots=yes
		royal_court_camera_name_key="ROYAL_COURT_COURT_VIEW_CAMERA"
	}
 {
		description="Artifact View"
		fov=50.000000
		position={ 0.000000 250.000000 -750.000000 }
		pitch=10.000000
		yaw=0.000000
		camera_near_far={ 70.000000 3000.000000 }
		is_camera_used_for_screenshots=yes
		royal_court_camera_name_key="ROYAL_COURT_ARTIFACT_VIEW_CAMERA"
	}
 {
		description="Throne View"
		fov=50.000000
		position={ 0.000000 150.000000 400.000000 }
		pitch=8.000000
		yaw=180.000000
		camera_near_far={ 70.000000 2570.000000 }
		is_camera_used_for_screenshots=yes
		royal_court_camera_name_key="ROYAL_COURT_THRONE_VIEW_CAMERA"
	}
 {
		description="Front Wall View"
		fov=45.000000
		position={ -44.700001 200.500000 -306.300018 }
		pitch=5.000000
		yaw=8.000000
		camera_near_far={ 70.000000 2570.000000 }
		is_camera_used_for_screenshots=yes
		royal_court_camera_name_key="ROYAL_COURT_BACK_WALL_VIEW_CAMERA"
	}
 {
		description="Right Wall View"
		fov=65.000000
		position={ -480.000000 270.000000 -150.000000 }
		pitch=20.000000
		yaw=60.000000
		camera_near_far={ 70.000000 2570.000000 }
		is_camera_used_for_screenshots=yes
		royal_court_camera_name_key="ROYAL_COURT_RIGHT_WALL_VIEW_CAMERA"
	}
 {
		description="Petitioner View"
		fov=50.000000
		position={ 420.000000 394.500000 33.000000 }
		pitch=33.000000
		yaw=-38.000000
		camera_near_far={ 70.000000 2570.000000 }
	}
 {
		description="character_group_1"
		fov=50.000000
		position={ 200.000000 232.312622 -237.247421 }
		pitch=21.170507
		yaw=-44.095623
		camera_near_far={ 70.000000 2570.000000 }
	}
 {
		description="character_group_2"
		fov=50.000000
		position={ 287.360504 211.279922 61.113678 }
		pitch=14.880767
		yaw=-47.965492
		camera_near_far={ 70.000000 2570.000000 }
	}
 {
		description="character_group_3"
		fov=50.000000
		position={ 325.000000 210.000000 -160.000000 }
		pitch=21.128048
		yaw=3.840622
		camera_near_far={ 70.000000 2570.000000 }
	}
 {
		description="artifact_pedestal_locator_1"
		fov=50.000000
		position={ -29.900000 260.538147 -432.600006 }
		pitch=31.311007
		yaw=-50.810398
		camera_near_far={ 70.000000 2570.000000 }
	}
 {
		description="artifact_pedestal_locator_2"
		fov=50.000000
		position={ 1.200000 260.000000 -493.899994 }
		pitch=32.000000
		yaw=-20.000000
		camera_near_far={ 70.000000 2570.000000 }
	}
 {
		description="artifact_pedestal_locator_3"
		fov=50.000000
		position={ -15.300000 262.800018 -509.500000 }
		pitch=30.000000
		yaw=20.000000
		camera_near_far={ 70.000000 2570.000000 }
	}
 {
		description="artifact_pedestal_locator_4"
		fov=50.000000
		position={ -9.700000 260.000000 -455.800018 }
		pitch=31.000000
		yaw=50.000000
		camera_near_far={ 70.000000 2570.000000 }
	}
 {
		description="artifact_sculpture_1"
		fov=50.000000
		position={ -266.100006 259.800018 182.500000 }
		pitch=27.000000
		yaw=-26.000000
		camera_near_far={ 70.000000 2570.000000 }
	}
 {
		description="artifact_sculpture_2"
		fov=50.000000
		position={ -80.299988 330.200012 488.600006 }
		pitch=24.000000
		yaw=-7.000000
		camera_near_far={ 70.000000 2570.000000 }
	}
 {
		description="artifact_bookshelf_1"
		fov=50.000000
		position={ -356.800018 280.500000 -128.900009 }
		pitch=27.000000
		yaw=-41.000000
		camera_near_far={ 70.000000 2570.000000 }
	}
 {
		description="artifact_bookshelf_2"
		fov=50.000000
		position={ 232.900009 264.600006 61.000000 }
		pitch=29.000000
		yaw=19.000000
		camera_near_far={ 70.000000 2570.000000 }
	}
 {
		description="artifact_wall_small_1"
		fov=50.000000
		position={ -302.399994 354.600006 306.600006 }
		pitch=25.000000
		yaw=-25.000000
		camera_near_far={ 70.000000 2570.000000 }
	}
 {
		description="artifact_wall_small_2"
		fov=50.000000
		position={ 267.299988 339.600006 321.700012 }
		pitch=25.000000
		yaw=25.000000
		camera_near_far={ 70.000000 2570.000000 }
	}
 {
		description="artifact_wall_small_3"
		fov=50.000000
		position={ 267.299988 339.600006 321.700012 }
		pitch=25.000000
		yaw=25.000000
		camera_near_far={ 70.000000 2570.000000 }
	}
 {
		description="artifact_wall_small_4"
		fov=50.000000
		position={ 267.299988 339.600006 321.700012 }
		pitch=25.000000
		yaw=25.000000
		camera_near_far={ 70.000000 2570.000000 }
	}
 {
		description="artifact_wall_large_1"
		fov=50.000000
		position={ 233.500000 400.000000 367.100006 }
		pitch=25.000000
		yaw=-15.000000
		camera_near_far={ 70.000000 2570.000000 }
	}
 {
		description="artifact_wall_large_2"
		fov=50.000000
		position={ 233.500000 400.000000 367.100006 }
		pitch=25.000000
		yaw=-15.000000
		camera_near_far={ 70.000000 2570.000000 }
	}
 {
		description="artifact_wall_large_3"
		fov=50.000000
		position={ 233.500000 400.000000 367.100006 }
		pitch=25.000000
		yaw=-15.000000
		camera_near_far={ 70.000000 2570.000000 }
	}
 {
		description="artifact_throne_1"
		fov=50.000000
		position={ 118.800003 140.000000 310.800018 }
		pitch=8.000000
		yaw=-17.000000
		camera_near_far={ 70.000000 2570.000000 }
	}
 {
		description="Free cam"
		fov=50.000000
		position={ -20.500000 351.700012 178.300003 }
		pitch=12.000000
		yaw=0.000000
		camera_near_far={ 70.000000 2570.000000 }
	}
 {
		fov=1.000000
		position={ 0.000000 0.000000 0.000000 }
		pitch=90.000000
		yaw=0.000000
		camera_near_far={ 0.100000 1000.000000 }
	}
 {
		description="Ruler"
		fov=1.000000
		position={ 0.000000 0.000000 0.000000 }
		pitch=90.000000
		yaw=0.000000
		camera_near_far={ 0.100000 1000.000000 }
	}
 {
		description="Adviser"
		fov=1.000000
		position={ -94.999947 16.000000 640.000000 }
		pitch=90.000000
		yaw=0.000000
		camera_near_far={ 0.100000 1000.000000 }
	}
 {
		description="Jester"
		fov=1.000000
		position={ -279.999969 0.000000 520.000000 }
		pitch=90.000000
		yaw=0.000000
		camera_near_far={ 0.100000 1000.000000 }
	}
 {
		description="Guard 1"
		fov=1.000000
		position={ -249.999939 3.000000 693.000000 }
		pitch=90.000000
		yaw=0.000000
		camera_near_far={ 0.100000 1000.000000 }
	}
 {
		description="Guard 2"
		fov=1.000000
		position={ 290.000061 3.000000 693.000000 }
		pitch=90.000000
		yaw=0.000000
		camera_near_far={ 0.100000 1000.000000 }
	}
 {
		description="Petitioner Kneeling"
		fov=1.000000
		position={ 0.000000 0.000000 0.000000 }
		pitch=90.000000
		yaw=0.000000
		camera_near_far={ 0.100000 1000.000000 }
	}
 {
		description="Petitioner Front Right"
		fov=1.000000
		position={ 60.000031 0.000000 362.000000 }
		pitch=90.000000
		yaw=0.000000
		camera_near_far={ 0.100000 1000.000000 }
	}
 {
		description="Petitioner Front Left"
		fov=1.000000
		position={ -59.999969 0.000000 362.000000 }
		pitch=90.000000
		yaw=0.000000
		camera_near_far={ 0.100000 1000.000000 }
	}
 {
		description="Petitioner Mid right"
		fov=1.000000
		position={ 60.000023 0.000000 240.000000 }
		pitch=90.000000
		yaw=0.000000
		camera_near_far={ 0.100000 1000.000000 }
	}
 {
		description="Petitioner Mid Left"
		fov=1.000000
		position={ -59.999977 0.000000 240.000000 }
		pitch=90.000000
		yaw=0.000000
		camera_near_far={ 0.100000 1000.000000 }
	}
 {
		description="Petitioner Rear Right"
		fov=1.000000
		position={ 60.000008 0.000000 106.999992 }
		pitch=90.000000
		yaw=0.000000
		camera_near_far={ 0.100000 1000.000000 }
	}
 {
		description="Petitioner Rear Left"
		fov=1.000000
		position={ -59.999992 0.000000 107.000008 }
		pitch=90.000000
		yaw=0.000000
		camera_near_far={ 0.100000 1000.000000 }
	}
 {
		description="Event group 1_1"
		fov=1.000000
		position={ -266.000000 0.000000 -107.999977 }
		pitch=90.000000
		yaw=0.000000
		camera_near_far={ 0.100000 1000.000000 }
	}
 {
		description="Event group 1_2"
		fov=1.000000
		position={ -197.000000 0.000000 22.000017 }
		pitch=90.000000
		yaw=0.000000
		camera_near_far={ 0.100000 1000.000000 }
	}
 {
		description="Event group 1_3"
		fov=1.000000
		position={ -276.000000 0.000000 18.000025 }
		pitch=90.000000
		yaw=0.000000
		camera_near_far={ 0.100000 1000.000000 }
	}
 {
		description="Event group 2_1"
		fov=1.000000
		position={ -67.999985 0.000000 180.000000 }
		pitch=90.000000
		yaw=0.000000
		camera_near_far={ 0.100000 1000.000000 }
	}
 {
		description="Event group 2_2"
		fov=1.000000
		position={ 21.000025 0.000000 282.000000 }
		pitch=90.000000
		yaw=0.000000
		camera_near_far={ 0.100000 1000.000000 }
	}
 {
		description="Event group 2_3"
		fov=1.000000
		position={ -62.999973 0.000000 290.000000 }
		pitch=90.000000
		yaw=0.000000
		camera_near_far={ 0.100000 1000.000000 }
	}
 {
		description="Event group 3_1"
		fov=1.000000
		position={ -30.000000 0.000000 -9.999997 }
		pitch=90.000000
		yaw=0.000000
		camera_near_far={ 0.100000 1000.000000 }
	}
 {
		description="Event group 3_2"
		fov=1.000000
		position={ 99.000000 0.000000 23.999990 }
		pitch=90.000000
		yaw=0.000000
		camera_near_far={ 0.100000 1000.000000 }
	}
 {
		description="Event group 3_3"
		fov=1.000000
		position={ 49.000008 0.000000 82.999992 }
		pitch=90.000000
		yaw=0.000000
		camera_near_far={ 0.100000 1000.000000 }
	}
 {
		description="BG Courtier 1"
		fov=1.000000
		position={ -419.000031 0.000000 -191.999969 }
		pitch=90.000000
		yaw=0.000000
		camera_near_far={ 0.100000 1000.000000 }
	}
 {
		description="BG Courtier 2"
		fov=1.000000
		position={ -459.000000 0.000000 -71.999962 }
		pitch=90.000000
		yaw=0.000000
		camera_near_far={ 0.100000 1000.000000 }
	}
 {
		description="BG Courtier 3"
		fov=1.000000
		position={ -388.000000 0.000000 -10.999966 }
		pitch=90.000000
		yaw=0.000000
		camera_near_far={ 0.100000 1000.000000 }
	}
 {
		description="BG Courtier 4"
		fov=1.000000
		position={ -323.999969 0.000000 193.000031 }
		pitch=90.000000
		yaw=0.000000
		camera_near_far={ 0.100000 1000.000000 }
	}
 {
		description="BG Courtier 5"
		fov=1.000000
		position={ -292.999969 0.000000 266.000031 }
		pitch=90.000000
		yaw=0.000000
		camera_near_far={ 0.100000 1000.000000 }
	}
 {
		description="BG Courtier 6"
		fov=1.000000
		position={ 224.000031 0.000000 417.999969 }
		pitch=90.000000
		yaw=0.000000
		camera_near_far={ 0.100000 1000.000000 }
	}
 {
		description="BG Courtier 7"
		fov=1.000000
		position={ 270.000031 0.000000 257.999969 }
		pitch=90.000000
		yaw=0.000000
		camera_near_far={ 0.100000 1000.000000 }
	}
 {
		description="BG Courtier 8"
		fov=1.000000
		position={ 301.000031 0.000000 348.999969 }
		pitch=90.000000
		yaw=0.000000
		camera_near_far={ 0.100000 1000.000000 }
	}
 {
		description="BG Courtier 9"
		fov=1.000000
		position={ 323.000000 0.000000 44.999973 }
		pitch=90.000000
		yaw=0.000000
		camera_near_far={ 0.100000 1000.000000 }
	}
 {
		description="BG Courtier 10"
		fov=1.000000
		position={ 280.000000 0.000000 118.999977 }
		pitch=90.000000
		yaw=0.000000
		camera_near_far={ 0.100000 1000.000000 }
	}
 {
		description="character_councillor_2"
		fov=1.000000
		position={ 310.000000 3.000000 620.000000 }
		pitch=90.000000
		yaw=0.000000
		camera_near_far={ 0.100000 1000.000000 }
	}
 {
		description="character_councillor_1"
		fov=1.000000
		position={ -361.999969 0.000000 389.000031 }
		pitch=90.000000
		yaw=0.000000
		camera_near_far={ 0.100000 1000.000000 }
	}
 }
default_camera=0
shadows_fade=1000.000000
shadows_strength=1.000000
lights={ {
		description="Back light 1"
		light={
			outer_cone_angle=1.000000
			inner_cone_angle=0.000000
			affected_by_shadow=no
			radius=100.000000
			intensity=20.000000
			position={ 0.000000 669.500000 -411.300018 }
			pitch=90.000000
			yaw=0.000000
			color={ 1.000000 0.553223 0.285156 }
			type="disc_light"
		}

		shadow_camera={
			fov=5.000000
			position={ 0.000000 669.500000 -411.300018 }
			pitch=90.000000
			yaw=-173.000000
			camera_near_far={ 70.000000 5000.000000 }
		}
	}
 {
		description="light_outside"
		light={
			outer_cone_angle=1.000000
			inner_cone_angle=0.000000
			affected_by_shadow=no
			radius=848.799988
			intensity=1076.000000
			position={ 765.100037 257.000000 0.000000 }
			pitch=0.000000
			yaw=0.000000
			color={ 0.996094 0.937706 0.844345 }
			position_variation=6.000000
			position_variation_frequency=2.000000
			intensity_variation=27.000000
			intensity_variation_frequency=54.000000
			animation=yes
			type="point_light"
		}

		shadow_camera={
			fov=1.000000
			position={ 765.100037 257.000000 0.000000 }
			pitch=90.000000
			yaw=0.000000
			camera_near_far={ 0.100000 1000.000000 }
		}
	}
 {
		description="light door"
		light={
			outer_cone_angle=1.000000
			inner_cone_angle=0.000000
			cubemap_shadow=yes
			radius=1141.200073
			intensity=209.000000
			position={ 494.600006 90.700005 -15.100000 }
			pitch=0.000000
			yaw=0.000000
			color={ 1.000000 0.941116 0.867187 }
			type="point_light"
		}

		shadow_camera={
			fov=1.000000
			position={ 494.600006 90.700005 -15.100000 }
			pitch=90.000000
			yaw=0.000000
			camera_near_far={ 160.000000 890.000000 }
		}
	}
 {
		description="fill light"
		light={
			outer_cone_angle=1.000000
			inner_cone_angle=0.000000
			affected_by_shadow=no
			radius=709.200012
			intensity=68.000000
			position={ 509.000000 166.300003 302.399994 }
			pitch=0.000000
			yaw=0.000000
			color={ 0.839844 0.657667 0.428944 }
			type="point_light"
		}

		shadow_camera={
			fov=1.000000
			position={ 509.000000 166.300003 302.399994 }
			pitch=90.000000
			yaw=0.000000
			camera_near_far={ 0.100000 1000.000000 }
		}
	}
 {
		description="fill light"
		light={
			outer_cone_angle=1.000000
			inner_cone_angle=0.000000
			affected_by_shadow=no
			radius=3545.300049
			intensity=194.000000
			position={ 60.500000 241.900009 90.700005 }
			pitch=0.000000
			yaw=0.000000
			color={ 0.957031 0.790871 0.582256 }
			type="point_light"
		}

		shadow_camera={
			fov=1.000000
			position={ 60.500000 241.900009 90.700005 }
			pitch=90.000000
			yaw=0.000000
			camera_near_far={ 0.100000 1000.000000 }
		}
	}
 {
		description="fill light"
		light={
			outer_cone_angle=1.000000
			inner_cone_angle=0.000000
			affected_by_shadow=no
			radius=709.200012
			intensity=68.000000
			position={ 509.000000 166.300003 -317.600006 }
			pitch=0.000000
			yaw=0.000000
			color={ 0.839844 0.657667 0.428944 }
			type="point_light"
		}

		shadow_camera={
			fov=1.000000
			position={ 509.000000 166.300003 -317.600006 }
			pitch=90.000000
			yaw=0.000000
			camera_near_far={ 0.100000 1000.000000 }
		}
	}
 {
		description="throne light"
		light={
			outer_cone_angle=1.000000
			inner_cone_angle=0.000000
			cubemap_shadow=yes
			radius=1277.200073
			intensity=93.000000
			position={ -166.300003 150.300003 786.299988 }
			pitch=0.000000
			yaw=-36.000000
			color={ 0.971680 0.775612 0.311241 }
			type="point_light"
		}

		shadow_camera={
			fov=1.000000
			position={ -166.300003 150.300003 786.299988 }
			pitch=90.000000
			yaw=0.000000
			camera_near_far={ 180.000000 520.000000 }
		}
	}
 {
		description="left outside light"
		light={
			outer_cone_angle=1.000000
			inner_cone_angle=0.000000
			cubemap_shadow=yes
			radius=924.400024
			intensity=43.000000
			position={ -725.799988 150.300003 181.500000 }
			pitch=0.000000
			yaw=-36.000000
			color={ 0.971680 0.775612 0.311241 }
			type="point_light"
		}

		shadow_camera={
			fov=1.000000
			position={ -725.799988 150.300003 181.500000 }
			pitch=90.000000
			yaw=0.000000
			camera_near_far={ 180.000000 520.000000 }
		}
	}
 }
characters={ {
		position={ 0.000000 25.000000 0.000000 }
		locator="Ruler"
		description="Ruler"
		camera="Throne View"
		roles={ ruler }
	}
 {
		position={ 0.000000 0.000000 500.000000 }
		locator="standing_ruler"
		description="Standing Ruler"
		camera="Throne View"
		roles={ standing_ruler }
	}
 {
		position={ -180.000000 20.000000 650.000000 }
		locator="character_optional_adviser_heir"
		description="Heir"
		roles={ heir }
	}
 {
		position={ 300.000000 0.000000 500.000000 }
		direction=0.000010
		locator="character_flavor_guard_1"
		description="Guard 1"
		roles={ special_guard knights }
	}
 {
		position={ 400.000000 0.000000 500.000000 }
		locator="character_flavor_guard_2"
		description="Guard 2"
		roles={ special_guard knights }
	}
 {
		position={ 200.000000 0.000000 -100.000000 }
		rotation={ 180.000000 0.000000 180.000000 }
		locator="character_flavor_courtier_1"
		description="Courtier 1"
		roles={ adviser low_prio_warriors low_prio_clergy low_prio_diplomats low_prio_stewards low_prio_intriguers low_prio_courtiers }
	}
 {
		position={ 100.000000 0.000000 -100.000000 }
		rotation={ 180.000000 0.000000 180.000000 }
		locator="character_flavor_courtier_2"
		description="Courtier 2"
		roles={ adviser low_prio_warriors low_prio_clergy low_prio_diplomats low_prio_stewards low_prio_intriguers low_prio_courtiers }
	}
 {
		position={ 0.000000 0.000000 -100.000000 }
		rotation={ 180.000000 0.000000 180.000000 }
		locator="character_flavor_courtier_3"
		description="Courtier 3"
		roles={ adviser low_prio_warriors low_prio_clergy low_prio_diplomats low_prio_stewards low_prio_intriguers low_prio_courtiers }
	}
 {
		position={ -100.000000 0.000000 -100.000000 }
		rotation={ 180.000000 0.000000 180.000000 }
		locator="character_flavor_courtier_4"
		description="Courtier 4"
		roles={ adviser low_prio_warriors low_prio_clergy low_prio_diplomats low_prio_stewards low_prio_intriguers low_prio_courtiers }
	}
 {
		position={ -200.000000 0.000000 -100.000000 }
		rotation={ 180.000000 0.000000 180.000000 }
		locator="character_flavor_courtier_5"
		description="Courtier 5"
		roles={ adviser low_prio_warriors low_prio_clergy low_prio_diplomats low_prio_stewards low_prio_intriguers low_prio_courtiers }
	}
 {
		position={ 150.000000 0.000000 -200.000000 }
		rotation={ 180.000000 0.000000 180.000000 }
		locator="character_flavor_courtier_6"
		description="Courtier 6"
		roles={ low_prio_warriors low_prio_clergy low_prio_diplomats low_prio_stewards low_prio_intriguers low_prio_courtiers }
	}
 {
		position={ 50.000000 0.000000 -200.000000 }
		rotation={ 180.000000 0.000000 180.000000 }
		locator="character_flavor_courtier_7"
		description="Courtier 7"
		roles={ low_prio_warriors low_prio_clergy low_prio_diplomats low_prio_stewards low_prio_intriguers low_prio_courtiers }
	}
 {
		position={ -50.000000 0.000000 -200.000000 }
		rotation={ 180.000000 0.000000 180.000000 }
		locator="character_flavor_courtier_8"
		description="Courtier 8"
		roles={ low_prio_warriors low_prio_clergy low_prio_diplomats low_prio_stewards low_prio_intriguers low_prio_courtiers }
	}
 {
		position={ -150.000000 0.000000 -200.000000 }
		rotation={ 180.000000 0.000000 180.000000 }
		locator="character_flavor_courtier_9"
		description="Courtier 9"
		roles={ low_prio_warriors low_prio_clergy low_prio_diplomats low_prio_stewards low_prio_intriguers low_prio_courtiers }
	}
 {
		position={ -350.000000 0.000000 -250.000000 }
		direction=-90.000000
		locator="character_councillor_1"
		description="Special Courtier 1"
		roles={ inspired_person antiquarian jester poet flirty_flirts family low_prio_lone_courtier }
	}
 {
		position={ -350.000000 0.000000 -350.000000 }
		direction=-90.000000
		locator="character_councillor_2"
		description="Special Courtier 2"
		roles={ inspired_person antiquarian jester poet flirty_flirts family low_prio_lone_courtier }
	}
 {
		position={ 350.000000 0.000000 -250.000000 }
		direction=90.000000
		locator="character_councillor_3"
		description="Special Courtier 3"
		roles={ inspired_person antiquarian jester poet flirty_flirts family low_prio_lone_courtier }
	}
 {
		position={ 350.000000 0.000000 -350.000000 }
		direction=90.000000
		locator="character_flavor_jester"
		description="Special Courtier 4"
		roles={ inspired_person antiquarian jester poet flirty_flirts family low_prio_lone_courtier }
	}
 {
		position = { 0.000000 0.000000 362.000000 }
		rotation = { 180.000000 10.000000 180.000000 }
		locator="character_petitioner_kneeling"
		description="Petitioner Kneeling"
		roles={ kneeling }
	}
 {
		position={ 60.000031 0.000000 362.000000 }
		rotation={ 180.000000 9.999995 180.000000 }
		locator="character_petitioner_front_right"
		description="Petitioner Front Right"
		camera="Petitioner View"
		roles={ petitioners_1 }
	}
 {
		position={ -59.999969 0.000000 362.000000 }
		rotation={ 180.000000 -20.000006 180.000000 }
		locator="character_petitioner_front_left"
		description="Petitioner Front Left"
		camera="Petitioner View"
		roles={ petitioners_1 }
	}
 {
		position={ 60.000023 0.000000 240.000000 }
		rotation={ 180.000000 9.999995 180.000000 }
		locator="character_petitioner_mid_right"
		description="Petitioner Mid right"
		camera="Petitioner View"
		roles={ petitioners_2 }
	}
 {
		position={ -59.999977 0.000000 240.000000 }
		rotation={ 180.000000 -20.000006 180.000000 }
		locator="character_petitioner_mid_left"
		description="Petitioner Mid Left"
		camera="Petitioner View"
		roles={ petitioners_2 }
	}
 {
		position={ 60.000008 0.000000 106.999992 }
		rotation={ 180.000000 9.999995 180.000000 }
		locator="character_petitioner_rear_right"
		description="Petitioner Rear Right"
		camera="Petitioner View"
		roles={ petitioners_3 }
	}
 {
		position={ -59.999992 0.000000 107.000008 }
		rotation={ 180.000000 -20.000006 180.000000 }
		locator="character_petitioner_rear_left"
		description="Petitioner Rear Left"
		camera="Petitioner View"
		roles={ petitioners_3 }
	}
 {
		position={ -266.000000 0.000000 200.000000 }
		rotation={ 180.000000 -27.000006 180.000000 }
		locator="character_group_1_1"
		description="Event group 1_1"
		camera="character_group_1"
		roles={ event_group_1 }
	}
 {
		position={ -197.000000 0.000000 320.000000 }
		direction=16.000015
		locator="character_group_1_2"
		description="Event group 1_2"
		camera="character_group_1"
		roles={ event_group_1 }
	}
 {
		position={ -276.000000 0.000000 320.000000 }
		direction=-13.999993
		locator="character_group_1_3"
		description="Event group 1_3"
		camera="character_group_1"
		roles={ event_group_1 }
	}
 {
		position={ -70.000000 0.000000 180.000000 }
		rotation={ 180.000000 -40.000000 180.000000 }
		locator="character_group_2_1"
		description="Event group 2_1"
		camera="character_group_2"
		roles={ event_group_2 }
	}
 {
		position={ 20.000000 0.000000 280.000000 }
		direction=30.000000
		locator="character_group_2_2"
		description="Event group 2_2"
		camera="character_group_2"
		roles={ event_group_2 }
	}
 {
		position={ -60.000000 0.000000 290.000000 }
		direction=-15.000000
		locator="character_group_2_3"
		description="Event group 2_3"
		camera="character_group_2"
		roles={ event_group_2 }
	}
 {
		position={ 230.000000 0.000000 190.000000 }
		rotation={ 180.000000 -85.000000 180.000000 }
		locator="character_group_3_1"
		description="Event group 3_1"
		camera="character_group_3"
		roles={ event_group_3 }
	}
 {
		position={ 300.000000 0.000000 225.000000 }
		direction=60.000000
		locator="character_group_3_2"
		description="Event group 3_2"
		camera="character_group_3"
		roles={ event_group_3 }
	}
 {
		position={ 250.000000 0.000000 280.000000 }
		direction=30.000000
		locator="character_group_3_3"
		description="Event group 3_3"
		camera="character_group_3"
		roles={ event_group_3 }
	}
 }
assets={ {
		position={ 0.000058 -47.899765 660.000000 }
		direction=0.000010
		description="Throne"
		asset="ep1_indian_throne_basic_01_a_entity"
		roles=ruler_throne
	}
 {
		position={ -81.599998 277.899994 -189.300003 }
		description="Event Group 1"
		asset="ep1_court_indian_event_group_sounds"
		roles=dynamic_sound_entity
		tag=event_group_1	}
 {
		position={ 223.900009 236.600006 107.599998 }
		description="Event Group 2"
		asset="ep1_court_indian_event_group_sounds"
		roles=dynamic_sound_entity
		tag=event_group_2	}
 {
		position={ 96.099998 274.000000 -202.300003 }
		description="Event Group 3"
		asset="ep1_court_indian_event_group_sounds"
		roles=dynamic_sound_entity
		tag=event_group_3	}
 {
		position={ 0.000000 0.000000 145.900604 }
		scale=8.000000
		description="floor"
		asset="shogunate_tatami_floor_01_entity"
	}
 {
		position={ 251.300003 16.200005 1149.200073 }
		direction=90.000000
		scale=8.000000
		description="floor"
		asset="shogunate_tatami_floor_01_entity"
	}
 {
		position={ 592.603027 0.000000 190.500000 }
		scale=8.000000
		description="wall_right"
		asset="shogunate_japanese_sliding_door_01_painted_entity"
	}
 {
		position={ 592.603027 0.000000 -177.500000 }
		scale=8.000000
		description="wall_right"
		asset="shogunate_japanese_sliding_door_open_painted_entity"
	}
 {
		position={ 592.603027 0.000000 -546.299988 }
		scale=8.000000
		description="wall_right"
		asset="shogunate_japanese_sliding_door_01_painted_entity"
	}
 {
		position={ 592.603027 0.000000 -914.499878 }
		scale=8.000000
		description="wall_right"
		asset="shogunate_japanese_sliding_door_01_painted_entity"
	}
 {
		position={ -588.804016 0.000000 -546.299988 }
		direction=180.000000
		scale=8.000000
		description="wall_left"
		asset="shogunate_japanese_sliding_door_01_b_entity"
	}
 {
		position={ -588.804016 -4.600000 939.697327 }
		direction=180.000000
		scale=8.000000
		description="wall_alcove_left"
		asset="shogunate_japanese_wall_02_painted_entity"
	}
 {
		position={ 0.000000 0.000000 942.202087 }
		scale=9.000000
		description="tokonama"
		asset="shogunate_tokonoma_01_painted_entity"
	}
 {
		position={ 0.000000 416.600006 -589.700012 }
		direction=180.000000
		scale=8.000000
		description="ceiling"
		asset="shogunate_japanese_ceiling_01_entity"
	}
 {
		position={ 592.603027 0.000000 -177.500000 }
		scale=8.000000
		description="exterior"
		asset="shogunate_japanese_sliding_door_exterior_entity"
	}
 {
		position={ 0.000000 404.700012 916.198547 }
		direction=180.000000
		scale=8.000000
		description="ceiling_alcove"
		asset="shogunate_japanese_ceiling_01_entity"
	}
 {
		position={ -8.300000 95.399933 810.202026 }
		direction=180.000000
		scale=8.000000
		description="divider_top"
		asset="shogunate_room_divider_01_painted_entity"
	}
 {
		position={ 582.500000 -140.699997 564.497986 }
		direction=-90.000000
		scale=10.000000
		description="divider_pillar_1"
		asset="shogunate_pillar_01_entity"
	}
 {
		position={ -581.000183 -140.699997 564.497986 }
		direction=-90.000000
		scale=10.000000
		description="divider_pillar_2"
		asset="shogunate_pillar_01_entity"
	}
 {
		position={ 583.299988 -140.699997 549.400024 }
		direction=-90.000000
		scale=10.000000
		description="pillar_right"
		asset="shogunate_pillar_01_entity"
	}
 {
		position={ 592.299988 -140.699997 190.500000 }
		direction=-90.000000
		scale=10.000000
		description="pillar_right"
		asset="shogunate_pillar_01_entity"
	}
 {
		position={ 592.299988 -140.699997 -177.500000 }
		direction=-90.000000
		scale=10.000000
		description="pillar_right"
		asset="shogunate_pillar_01_entity"
	}
 {
		position={ 592.299988 -140.699997 -546.299988 }
		direction=-90.000000
		scale=10.000000
		description="pillar_right"
		asset="shogunate_pillar_01_entity"
	}
 {
		position={ -592.402832 -125.599998 554.401917 }
		direction=-90.000000
		scale=15.000000
		description="pillar_left"
		asset="shogunate_pillar_01_entity"
	}
 {
		position={ -588.804016 -140.699997 -360.400604 }
		direction=-90.000000
		scale=15.000000
		description="pillar_left"
		asset="shogunate_pillar_01_entity"
	}
 {
		position={ -588.804016 -140.699997 -546.299988 }
		direction=-90.000000
		scale=15.000000
		description="pillar_left"
		asset="shogunate_pillar_01_entity"
	}
 {
		position={ -845.900024 0.000000 190.500000 }
		direction=180.000000
		scale=8.000000
		description="wall_left_outside"
		asset="shogunate_japanese_sliding_door_02_d_entity"
	}
 {
		position={ -845.900024 0.000000 -177.500000 }
		direction=180.000000
		scale=8.000000
		description="wall_left_outside"
		asset="shogunate_japanese_sliding_door_01_b_entity"
	}
 {
		position={ -845.900024 0.000000 559.400024 }
		direction=180.000000
		scale=8.000000
		description="wall_left_outside"
		asset="shogunate_japanese_sliding_door_01_b_entity"
	}
 {
		position={ -1179.702393 -1.800000 599.500000 }
		scale=8.000000
		description="floor_left_outside"
		asset="shogunate_wood_floor_01_entity"
	}
 {
		position={ -845.900024 0.000000 926.598938 }
		direction=180.000000
		scale=8.000000
		description="wall_left_outside"
		asset="shogunate_japanese_sliding_door_02_b_entity"
	}
 {
		position={ 578.299133 90.700005 170.800003 }
		direction=7.000000
		description="sunlight"
		asset="roco_window_sunlight_01"
	}
 {
		position={ 472.399994 60.500000 -7.200000 }
		direction=7.000000
		description="atmospheric"
		asset="roco_atmospheric_01"
	}
 {
		position={ 472.399994 151.199997 -326.000000 }
		direction=58.000000
		description="atmospheric"
		asset="roco_atmospheric_01"
	}
 {
		position={ 438.399994 217.000000 332.700012 }
		rotation={ -28.000000 68.000000 -16.000000 }
		scale=1.500000
		description="godray"
		asset="roco_god_ray_01"
	}
 {
		position={ 438.399994 217.000000 -393.100006 }
		rotation={ -28.000000 68.000000 -16.000000 }
		scale=1.500000
		description="godray"
		asset="roco_god_ray_01"
	}
 {
		position={ -861.500122 0.000000 15.000000 }
		direction=90.000000
		scale=8.000000
		description="divider1"
		asset="shogunate_room_divider_01_painted_entity"
	}
 {
		position={ -588.804016 -140.699997 395.099243 }
		direction=-90.000000
		scale=15.000000
		description="pillar_left"
		asset="shogunate_pillar_01_entity"
	}
 {
		position={ -596.801147 57.000000 -32.300014 }
		direction=180.000000
		scale=7.000000
		description="sudare"
		asset="shogunate_sudare_01_entity"
	}
 {
		position={ -596.801147 57.000000 562.600037 }
		direction=180.000000
		scale=7.000000
		description="sudare"
		asset="shogunate_sudare_01_entity"
	}
 {
		position={ -596.801147 57.000000 265.499420 }
		direction=180.000000
		scale=7.000000
		description="sudare"
		asset="shogunate_sudare_01_entity"
	}
 {
		position={ -597.900879 57.000000 -330.800079 }
		direction=180.000000
		scale=7.000000
		description="sudare"
		asset="shogunate_sudare_01_entity"
	}
 {
		position={ 590.700012 -4.600000 572.700012 }
		scale=8.000000
		description="wall_alcove_right"
		asset="shogunate_japanese_wall_02_painted_entity"
	}
 {
		position={ -277.700012 -125.599998 554.401917 }
		direction=-90.000000
		scale=15.000000
		description="pillar_front"
		asset="shogunate_pillar_01_entity"
	}
 {
		position={ 278.199707 -125.599998 554.401917 }
		direction=-90.000000
		scale=15.000000
		description="pillar_front"
		asset="shogunate_pillar_01_entity"
	}
 {
		position={ -845.900024 0.000000 1289.500000 }
		direction=180.000000
		scale=8.000000
		description="wall_left_outside"
		asset="shogunate_japanese_sliding_door_02_b_entity"
	}
 {
		position={ -573.700012 0.000000 563.700012 }
		direction=-90.000000
		scale=8.000000
		description="wall_left_outside"
		asset="shogunate_japanese_sliding_door_02_d_entity"
	}
 {
		position={ -786.299988 0.000000 393.100006 }
		direction=-31.000000
		scale=7.000000
		description="deco_shoji"
		asset="shogunate_shoji_01_e_entity"
	}
 {
		position={ -588.804016 -140.699997 141.800232 }
		direction=-90.000000
		scale=15.000000
		description="pillar_left"
		asset="shogunate_pillar_01_entity"
	}
 {
		position={ -588.804016 -140.699997 -110.500076 }
		direction=-90.000000
		scale=15.000000
		description="pillar_left"
		asset="shogunate_pillar_01_entity"
	}
 {
		position={ 636.100037 -82.299973 565.801697 }
		direction=-90.000000
		scale=8.000000
		description="wall_front_right"
		asset="shogunate_japanese_wall_02_painted_entity"
	}
 {
		position={ -271.200012 -82.299973 565.801697 }
		direction=-90.000000
		scale=8.000000
		description="wall_front_left"
		asset="shogunate_japanese_wall_02_painted_entity"
	}
 {
		position={ 430.799011 -10.600005 1028.102051 }
		scale=9.000000
		description="deco_tokonoma_1"
		asset="shogunate_shelves_01_a_entity"
	}
 {
		position={ 431.100159 -9.600001 1019.898376 }
		scale=9.200000
		description="deco_tokonoma_2"
		asset="shogunate_cabinet_01_a_entity"
	}
 {
		position={ -430.799011 -10.600000 1028.102051 }
		direction=180.000000
		scale=9.000000
		description="deco_tokonoma_1"
		asset="shogunate_shelves_01_a_entity"
	}
 {
		position={ -430.799011 -9.600001 1019.898376 }
		scale=9.200000
		description="deco_tokonoma_2"
		asset="shogunate_cabinet_01_a_entity"
	}
 {
		position={ -529.200012 0.000000 -257.100006 }
		direction=86.000000
		scale=7.000000
		description="deco_shoji"
		asset="shogunate_shoji_01_a_entity"
	}
 {
		position={ 200.000000 0.000000 -920.000000 }
		direction=90.000000
		scale=8.700003
		description="wall_rear_1"
		asset="shogunate_japanese_wall_01_entity"
	}
 {
		position={ -200.000000 0.000000 -920.000000 }
		direction=90.000000
		scale=8.700000
		description="wall_rear_2"
		asset="shogunate_japanese_wall_01_entity"
	}
 {
		position={ -600.000000 0.000000 -920.000000 }
		direction=90.000000
		scale=8.700000
		description="wall_rear_3"
		asset="shogunate_japanese_wall_01_entity"
	}
 }
artifacts={ {
		locator="artifact_wall_large_1"
		position={ -159.300003 330.000000 995.000000 }
		slot="wall_big_1"
	}
 {
		locator="artifact_wall_large_2"
		position={ 159.300003 330.000000 995.000000 }
		slot="wall_big_2"
	}
 {
		locator="artifact_wall_large_3"
		position={ 0.000000 330.000000 995.000000 }
		direction=0.000010
		slot="wall_big_3"
	}
 {
		locator="artifact_wall_small_1"
		position={ -429.000000 312.000000 550.000000 }
		direction=0.000010
		slot="wall_small_1"
	}
 {
		locator="artifact_wall_small_2"
		position={ 429.000000 312.000000 550.000000 }
		direction=0.000010
		slot="wall_small_2"
	}
 {
		locator="artifact_wall_small_3"
		position={ 429.000000 160.800003 550.000000 }
		slot="wall_small_3"
	}
 {
		locator="artifact_bookshelf_1"
		position={ -761.700012 2.000000 219.100006 }
		direction=0.000010
		slot="lectern_1"
	}
 {
		locator="artifact_bookshelf_2"
		position={ 503.399994 2.000000 426.600006 }
		direction=-38.000000
		slot="lectern_2"
	}
 {
		locator="artifact_throne_1"
		position={ 0.000058 0.000000 660.000000 }
		direction=0.000010
		slot="throne"
	}
 {
		locator="artifact_sculpture_1"
		position={ -434.100006 0.000000 509.100006 }
		direction=0.000010
		slot="sculpture_1"
	}
 {
		locator="artifact_sculpture_2"
		position={ -151.199997 30.200001 1013.200012 }
		direction=0.000010
		slot="sculpture_2"
	}
 {
		locator="artifact_pedestal_locator_1"
		position={ -195.000000 0.000000 -300.000000 }
		slot="pedestal_1"
	}
 {
		locator="artifact_pedestal_locator_2"
		position={ -65.000000 0.000000 -300.000000 }
		slot="pedestal_2"
	}
 {
		locator="artifact_pedestal_locator_3"
		position={ 65.000000 0.000000 -300.000000 }
		slot="pedestal_3"
	}
 {
		locator="artifact_pedestal_locator_4"
		position={ 195.000000 0.000000 -300.000000 }
		slot="pedestal_4"
	}
 }
support_type={
	lectern=ep1_mena_lectern_01_a_entity
	tall=ep1_indian_pedestal_tall_01_a_entity
	short_pillow=ep1_indian_pedestal_short_01_a_pillow_entity
	tall_pillow=ep1_indian_pedestal_tall_01_a_pillow_entity
	armorstand=ep1_western_armorstand_01_entity
	short=ep1_indian_pedestal_short_01_a_entity
}
