﻿name_list_nivkh = {

	dynasty_names = {
		dynasty_name_38600341 dynasty_name_38600342 dynasty_name_38600343 dynasty_name_38600344 dynasty_name_38600345 dynasty_name_38600346 dynasty_name_38600347 dynasty_name_38600348 dynasty_name_38600349 dynasty_name_38600350
	}

	male_names = {
		character_name_20003938 character_name_20003939 character_name_20003940 character_name_20003941 character_name_20003942 character_name_20003943 character_name_20003944 character_name_20003945 character_name_20003946 character_name_20003947 character_name_20003948 character_name_20003949 character_name_20003950 character_name_20003951 character_name_20003952 character_name_20003953 character_name_20003954 character_name_20003955 character_name_20003956 character_name_20003957 character_name_20003958 character_name_20003959 character_name_20003960 character_name_20003961 character_name_20003962 character_name_20003963 character_name_20003964 character_name_20003965 character_name_20003966 character_name_20003967 character_name_20003968 character_name_20003969 character_name_20003970 character_name_20003971 character_name_20003972 character_name_20003973 character_name_20003974 character_name_20003975 character_name_20003976 character_name_20003977 character_name_20003978 character_name_20003979 character_name_20003980 character_name_20003981 character_name_20003982 character_name_20003983 character_name_20003984 character_name_20003985 character_name_20003986 character_name_20003987 character_name_20003988 character_name_20003989 character_name_20003990 character_name_20003991 character_name_20003992 character_name_20003993 character_name_20003994 character_name_20003995 character_name_20003996 character_name_20003997 character_name_20003998 character_name_20003999
	}

	female_names = {
		character_name_20004000 character_name_20004001 character_name_20004002 character_name_20004003 character_name_20004004 character_name_20004005 character_name_20004006 character_name_20004007 character_name_20004008 character_name_20004009 character_name_20004010 character_name_20004011 character_name_20004012 character_name_20004013 character_name_20004014 character_name_20004015 character_name_20004016 character_name_20004017 character_name_20004018 character_name_20004019 character_name_20004020 character_name_20004021 character_name_20004022 character_name_20004023
	}

	dynasty_of_location_prefix = ""

	# Chance of male children being named after their paternal or maternal grandfather, or their father. Sum must not exceed 100.
	pat_grf_name_chance = 0
	mat_grf_name_chance = 0
	father_name_chance = 0

	# Chance of female children being named after their paternal or maternal grandmother, or their mother. Sum must not exceed 100.
	pat_grm_name_chance = 0
	mat_grm_name_chance = 0
	mother_name_chance = 0

}

name_list_uilta = {

	dynasty_names = {
		dynasty_name_38800344 dynasty_name_38800345 dynasty_name_38800346 dynasty_name_38800347 dynasty_name_38800348 dynasty_name_38800349 dynasty_name_38800350 dynasty_name_38800351 dynasty_name_38800352 dynasty_name_38800353
	}

	male_names = {
		character_name_20004024 character_name_20004025 character_name_20004026 character_name_20004027 character_name_20004028 character_name_20004029 character_name_20004030 character_name_20004031 character_name_20004032 character_name_20004033 character_name_20004034 character_name_20004035 character_name_20004036 character_name_20004037 character_name_20004038 character_name_20004039 character_name_20004040 character_name_20004041 character_name_20004042 character_name_20004043 character_name_20004044 character_name_20004045 character_name_20004046 character_name_20004047 character_name_20004048 character_name_20004049 character_name_20004050 character_name_20004051 character_name_20004052 character_name_20004053 character_name_20004054 character_name_20004055 character_name_20004056 character_name_20004057 character_name_20004058 character_name_20004059 character_name_20004060 character_name_20004061 character_name_20004062 character_name_20004063 character_name_20004064 character_name_20004065 character_name_20004066 character_name_20004067 character_name_20004068 character_name_20004069 character_name_20004070 character_name_20004071 character_name_20004072 character_name_20004073 character_name_20004074 character_name_20004075 character_name_20004076 character_name_20004077 character_name_20004078 character_name_20004079 character_name_20004080 character_name_20004081 character_name_20004082 character_name_20004083 character_name_20004084 character_name_20004085 character_name_20004086 character_name_20004087 character_name_20004088 character_name_20004089 character_name_20004090 character_name_20004091 character_name_20004092 character_name_20004093 character_name_20004094 character_name_20004095 character_name_20004096
	}

	female_names = {
		character_name_20004097 character_name_20004098 character_name_20004099 character_name_20004100 character_name_20004101 character_name_20004102 character_name_20004103 character_name_20004104 character_name_20004105 character_name_20004106 character_name_20004107 character_name_20004108 character_name_20004109 character_name_20004110 character_name_20004111 character_name_20004112 character_name_20004113 character_name_20004114 character_name_20004115 character_name_20004116
	}

	dynasty_of_location_prefix = ""

	# Chance of male children being named after their paternal or maternal grandfather, or their father. Sum must not exceed 100.
	pat_grf_name_chance = 0
	mat_grf_name_chance = 0
	father_name_chance = 0

	# Chance of female children being named after their paternal or maternal grandmother, or their mother. Sum must not exceed 100.
	pat_grm_name_chance = 0
	mat_grm_name_chance = 0
	mother_name_chance = 0

}

name_list_old_okhotsk = {

	dynasty_names = {
		dynasty_name_39000000 dynasty_name_39000001 dynasty_name_39000002 dynasty_name_39000003 dynasty_name_39000004 dynasty_name_39000005 dynasty_name_39000006 dynasty_name_39000007 dynasty_name_39000008 dynasty_name_39000009
	}

	male_names = {
		character_name_20003463 character_name_20003464 character_name_20003465 character_name_20003466 character_name_20003467 character_name_20003468 character_name_20003469 character_name_20003470 character_name_20003471 character_name_20003472 character_name_20003473 character_name_20003474 character_name_20003475 character_name_20003476 character_name_20003477 character_name_20003478 character_name_20003479 character_name_20003480 character_name_20003481 character_name_20003482 character_name_20003483 character_name_20003484 character_name_20003485 character_name_20003486 character_name_20003487 character_name_20003488 character_name_20003489 character_name_20003490 character_name_20003491 character_name_20003492 character_name_20003493 character_name_20003494 character_name_20003495 character_name_20003496 character_name_20003497 character_name_20003498 character_name_20003499 character_name_20003500 character_name_20003501 character_name_20003502 character_name_20003503 character_name_20003504 character_name_20003505 character_name_20003506 character_name_20003507 character_name_20003508 character_name_20003509 character_name_20003510 character_name_20003511 character_name_20003512 character_name_20003513 character_name_20003514 character_name_20003515 character_name_20003516 character_name_20003517 character_name_20003518 character_name_20003519 character_name_20003520 character_name_20003521 character_name_20003522 character_name_20003523 character_name_20003524 character_name_20003525 character_name_20003526 character_name_20003527 character_name_20003528 character_name_20003529 character_name_20003530 character_name_20003531 character_name_20003532 character_name_20003533 character_name_20003534 character_name_20003535 character_name_20003536 character_name_20003537 character_name_20003538 character_name_20003539 character_name_20003540 character_name_20003541 character_name_20003542 character_name_20003543 character_name_20003544 character_name_20003545 character_name_20003546 character_name_20003547 character_name_20003548 character_name_20003549 character_name_20003550 character_name_20003551 character_name_20003552 character_name_20003553 character_name_20003554 character_name_20003555 character_name_20003556 character_name_20003557 character_name_20003558 character_name_20003559 character_name_20003560 character_name_20003561 character_name_20003562 character_name_20003563 character_name_20003564 character_name_20003565 character_name_20003566 character_name_20003567 character_name_20003568 character_name_20003569 character_name_20003570 character_name_20003571 character_name_20003572 character_name_20003573 character_name_20003574 character_name_20003575 character_name_20003576 character_name_20003577 character_name_20003578 character_name_20003579 character_name_20003580 character_name_20003581 character_name_20003582 character_name_20003583 character_name_20003584 character_name_20003585 character_name_20003586 character_name_20003587 character_name_20003588 character_name_20003589 character_name_20003590 character_name_20003591 character_name_20003592 character_name_20003593 character_name_20003594 character_name_20003595 character_name_20003596 character_name_20003597 character_name_20003598 character_name_20003599 character_name_20003600 character_name_20003601 character_name_20003602 character_name_20003603 character_name_20003604 character_name_20003605 character_name_20003606 character_name_20003607 character_name_20003608 character_name_20003609 character_name_20003610 character_name_20003611 character_name_20003612 character_name_20003613 character_name_20003614 character_name_20003615 character_name_20003616 character_name_20003617 character_name_20003618 character_name_20003619 character_name_20003620 character_name_20003621 character_name_20003622 character_name_20003623 character_name_20003624 character_name_20003625 character_name_20003626 character_name_20003627 character_name_20003628 character_name_20003629 character_name_20003630 character_name_20003631 character_name_20003632 character_name_20003633 character_name_20003634 character_name_20003635 character_name_20003636 character_name_20003637 character_name_20003638 character_name_20003639 character_name_20003640 character_name_20003641 character_name_20003642 character_name_20003643 character_name_20003644 character_name_20003645 character_name_20003646 character_name_20003647 character_name_20003648 character_name_20003649 character_name_20003650 character_name_20003651 character_name_20003652 character_name_20003653 character_name_20003654 character_name_20003655 character_name_20003656 character_name_20003657 character_name_20003658 character_name_20003659 character_name_20003660 character_name_20003661 character_name_20003662 character_name_20003663 character_name_20003664 character_name_20003665 character_name_20003666 character_name_20003667 character_name_20003668 character_name_20003669 character_name_20003670 character_name_20003671 character_name_20003672 character_name_20003673 character_name_20003674 character_name_20003675 character_name_20003676 character_name_20003677 character_name_20003678 character_name_20003679 character_name_20003680 character_name_20003681 character_name_20003682 character_name_20003683 character_name_20003684 character_name_20003685 character_name_20003686 character_name_20003687 character_name_20003688 character_name_20003689 character_name_20003690 character_name_20003691 character_name_20003692 character_name_20003693 character_name_20003694 character_name_20003695 character_name_20003696 character_name_20003697 character_name_20003698 character_name_20003699 character_name_20003700 character_name_20003701 character_name_20003702 character_name_20003703 character_name_20003704 character_name_20003705 character_name_20003706 character_name_20003707 character_name_20003708 character_name_20003709 character_name_20003710 character_name_20003711 character_name_20003712 character_name_20003713 character_name_20003714 character_name_20003715 character_name_20003716 character_name_20003717 character_name_20003718 character_name_20003719 character_name_20003720 character_name_20003721 character_name_20003722 character_name_20003723 character_name_20003724 character_name_20003725 character_name_20003726 character_name_20003727 character_name_20003728 character_name_20003729 character_name_20003730 character_name_20003731 character_name_20003732 character_name_20003733 character_name_20003734 character_name_20003735 character_name_20003736 character_name_20003737 character_name_20003738 character_name_20003739 character_name_20003740 character_name_20003741 character_name_20003742 character_name_20003743 character_name_20003744 character_name_20003745 character_name_20003746 character_name_20003747 character_name_20003748 character_name_20003749 character_name_20003750 character_name_20003751 character_name_20003752 character_name_20003753 character_name_20003754 character_name_20003755 character_name_20003756 character_name_20003757 character_name_20003758 character_name_20003759 character_name_20003760 character_name_20003761 character_name_20003762 character_name_20003763 character_name_20003764 character_name_20003765 character_name_20003766 character_name_20003767 character_name_20003768 character_name_20003769 character_name_20003770 character_name_20003771
	}

	female_names = {
		character_name_20003772 character_name_20003773 character_name_20003774 character_name_20003775 character_name_20003776 character_name_20003777 character_name_20003778 character_name_20003779 character_name_20003780 character_name_20003781 character_name_20003782 character_name_20003783 character_name_20003784 character_name_20003785 character_name_20003786 character_name_20003787 character_name_20003788 character_name_20003789 character_name_20003790 character_name_20003791 character_name_20003792 character_name_20003793 character_name_20003794 character_name_20003795 character_name_20003796 character_name_20003797 character_name_20003798 character_name_20003799 character_name_20003800 character_name_20003801 character_name_20003802 character_name_20003803 character_name_20003804 character_name_20003805 character_name_20003806 character_name_20003807 character_name_20003808 character_name_20003809 character_name_20003810 character_name_20003811 character_name_20003812 character_name_20003813 character_name_20003814 character_name_20003815 character_name_20003816 character_name_20003817 character_name_20003818 character_name_20003819 character_name_20003820 character_name_20003821 character_name_20003822 character_name_20003823 character_name_20003824 character_name_20003825 character_name_20003826 character_name_20003827 character_name_20003828 character_name_20003829 character_name_20003830 character_name_20003831 character_name_20003832 character_name_20003833 character_name_20003834 character_name_20003835 character_name_20003836 character_name_20003837 character_name_20003838 character_name_20003839 character_name_20003840 character_name_20003841 character_name_20003842 character_name_20003843 character_name_20003844 character_name_20003845 character_name_20003846 character_name_20003847 character_name_20003848 character_name_20003849 character_name_20003850 character_name_20003851 character_name_20003852 character_name_20003853 character_name_20003854 character_name_20003855 character_name_20003856 character_name_20003857 character_name_20003858 character_name_20003859 character_name_20003860 character_name_20003861 character_name_20003862 character_name_20003863 character_name_20003864 character_name_20003865 character_name_20003866 character_name_20003867 character_name_20003868 character_name_20003869 character_name_20003870 character_name_20003871 character_name_20003872 character_name_20003873 character_name_20003874 character_name_20003875 character_name_20003876 character_name_20003877 character_name_20003878 character_name_20003879 character_name_20003880 character_name_20003881 character_name_20003882 character_name_20003883 character_name_20003884 character_name_20003885 character_name_20003886 character_name_20003887 character_name_20003888 character_name_20003889 character_name_20003890 character_name_20003891 character_name_20003892 character_name_20003893 character_name_20003894 character_name_20003895 character_name_20003896 character_name_20003897 character_name_20003898 character_name_20003899 character_name_20003900 character_name_20003901 character_name_20003902 character_name_20003903 character_name_20003904 character_name_20003905 character_name_20003906 character_name_20003907 character_name_20003908 character_name_20003909 character_name_20003910 character_name_20003911 character_name_20003912 character_name_20003913 character_name_20003914 character_name_20003915 character_name_20003916 character_name_20003917 character_name_20003918 character_name_20003919 character_name_20003920 character_name_20003921 character_name_20003922 character_name_20003923 character_name_20003924 character_name_20003925 character_name_20003926 character_name_20003927 character_name_20003928 character_name_20003929 character_name_20003930 character_name_20003931 character_name_20003932 character_name_20003933 character_name_20003934 character_name_20003935 character_name_20003936 character_name_20003937
	}

	dynasty_of_location_prefix = ""

	# Chance of male children being named after their paternal or maternal grandfather, or their father. Sum must not exceed 100.
	pat_grf_name_chance = 0
	mat_grf_name_chance = 0
	father_name_chance = 0

	# Chance of female children being named after their paternal or maternal grandmother, or their mother. Sum must not exceed 100.
	pat_grm_name_chance = 0
	mat_grm_name_chance = 0
	mother_name_chance = 0

}
