k_nmih_chubu = {
	0001.1.1={
	}
	1179.12.16={ # 1179.12.18 in history
		liege="e_nmih_japan"
		holder = 10110025 # Taira Kiyomori
	}
	1181.3.20={
		holder=10110042 # Taira Munemori
	}
	1183.8.17={
		liege=0
		holder=0 # Taira's escape to the west
	}
	1335.12.31={ # 1336.1.2 in history
		liege="e_nmih_nancho"
		holder=10125120 # Kitabatake Chikafusa
	}
	1354.5.10={
		liege=0
		holder=0 # 
	}
	1567.9.29={ # Nobunaga ruled Owari and Mino # 1567.10.1 in history
		liege=0
		holder=10029120 # Oda Nobunaga
	}
	1568.11.7={
		liege="e_nmih_japan" # Ashikaga Yoshiaki
	}
	1572.10.1={
		liege=0
	}
	1575.12.9={
		liege="e_nmih_japan" # Oda Nobunaga
	}
	1582.04.15={
		holder=10029160 # Oda Nobutada
	}
	1582.6.21={ # Honno-ji incident
		liege=0
		holder=10029184 # Oda Hidenobu
	}
	1582.10.28={ 
		holder=10029161 # Oda Nobukatsu
	}
	1585.7.27={
		liege="e_nmih_japan"
	}
	1590.7.25={
		holder=10029411 # Toyotomi Hidetsugu
	}
	1595.8.20={
		holder=0
	}
}
