k_nmih_mutsu_shogun = {
	100.1.1={
	}
	1333.7.2={ # 1333.7.4 in history
		liege=0
		liege = "e_nmih_nancho"
		holder=10125125 # Kitabatake Akiie
	}
	1338.6.10={
		liege = 0
		liege="e_nmih_nancho"
		holder=10125126 # Kitabatake Akinobu
	}
	1362.1.1={
		liege=0
		holder=0 # 
	}

}
