﻿historical_characters_accessories = {

    usage = game
    selection_behavior = max
    priority = 2

    shogunate_empty = {
        dna_modifiers = {
            accessory = {
                mode = add
                gene = beards
                template = scripted_character_beards_shogunate_01
                accessory = empty
            }
        }
        weight = {
            base = 0
            modifier = {
                add = 200
                exists = this
                exists = character:12030020    # Fujiwara Hidehira
                this   = character:12030020
            }
            modifier = {
                add = 200
                exists = this
                exists = character:12202006    # Adachi Morinaga
                this   = character:12202006
            }
            modifier = {
                add = 200
                exists = this
                exists = character:12211040    # Miura Yoshimura
                this   = character:12211040
            }
            modifier = {
                add = 200
                exists = this
                exists = character:12375961    # Suwa Yorishige
                this   = character:12375961
            }
            modifier = {
                add = 200
                exists = this
                exists = character:12375967    # Suwa Tokitsugu
                this   = character:12375967
            }
            modifier = {
                add = 200
                exists = this
                exists = character:12560005    # Kusunoki Masatsura
                this   = character:12560005
            }
            modifier = {
                add = 200
                exists = this
                exists = character:12581000    # Tenryuji MusoSoseki
                this   = character:12581000
            }
            modifier = {
                add = 200
                exists = this
                exists = character:12581005    # Monkanbo Koshin
                this   = character:12581005
            }
            modifier = {
                add = 200
                exists = this
                exists = character:10040003    # Ashikaga Yoshimitsu
                this   = character:10040003
            }
            modifier = {
                add = 200
                exists = this
                exists = character:10040009    # Ashikaga Yoshihisa
                this   = character:10040009
            }
            modifier = {
                add = 200
                exists = this
                exists = character:10040010    # Ashikaga Yoshimi
                this   = character:10040010
            }
            modifier = {
                add = 200
                exists = this
                exists = character:10040036    # Ashikaga Tadafuyu
                this   = character:10040036
            }
            modifier = {
                add = 200
                exists = this
                exists = character:10040400    # Ninagawa Chikamasa
                this   = character:10040400
            }
            modifier = {
                add = 200
                exists = this
                exists = character:10040566    # Hosokawa Takakuni
                this   = character:10040566
            }
            modifier = {
                add = 200
                exists = this
                exists = character:10042201    # Honganji Kenju
                this   = character:10042201
            }
            modifier = {
                add = 200
                exists = this
                exists = character:10042203    # Honganji Koken
                this   = character:10042203
            }
            modifier = {
                add = 200
                exists = this
                exists = character:10042210    # Honganji Kosa
                this   = character:10042210
            }
            modifier = {
                add = 200
                exists = this
                exists = character:10042830    # Takeno Nakaki
                this   = character:10042830
            }
            modifier = {
                add = 200
                exists = this
                exists = character:10042891    # Sen Soeki
                this   = character:10042891
            }
            modifier = {
                add = 200
                exists = this
                exists = character:10043302    # Todo Takatora
                this   = character:10043302
            }
            modifier = {
                add = 200
                exists = this
                exists = character:10044003    # Rokkaku Yoshikata
                this   = character:10044003
            }
            modifier = {
                add = 200
                exists = this
                exists = character:10044203    # Kyogoku Takauji
                this   = character:10044203
            }
            modifier = {
                add = 200
                exists = this
                exists = character:10044219    # Kyogoku Takatsugu
                this   = character:10044219
            }
            modifier = {
                add = 200
                exists = this
                exists = character:10044500    # Gamo Sadahide
                this   = character:10044500
            }
            modifier = {
                add = 200
                exists = this
                exists = character:10045900    # Murata Juko
                this   = character:10045900
            }
            modifier = {
                add = 200
                exists = this
                exists = character:10064822    # Yoshihiro Shigesato
                this   = character:10064822
            }
            modifier = {
                add = 200
                exists = this
                exists = character:10025423    # Mori Naritoshi
                this   = character:10025423
            }
            modifier = {
                add = 200
                exists = this
                exists = character:10025426    # Mori Tadamasa
                this   = character:10025426
            }
            modifier = {
                add = 200
                exists = this
                exists = character:10025632    # Akechi Mitsuhide
                this   = character:10025632
            }
            modifier = {
                add = 200
                exists = this
                exists = character:10025639    # Akechi Hidemitsu
                this   = character:10025639
            }
            modifier = {
                add = 200
                exists = this
                exists = character:10029160    # Oda Nobutada
                this   = character:10029160
            }
            modifier = {
                add = 200
                exists = this
                exists = character:10029161    # Oda Nobukatsu
                this   = character:10029161
            }
            modifier = {
                add = 200
                exists = this
                exists = character:10029200    # Murai Sadakatsu
                this   = character:10029200
            }
            modifier = {
                add = 200
                exists = this
                exists = character:10029349    # Takigawa Toshimasu
                this   = character:10029349
            }
            modifier = {
                add = 200
                exists = this
                exists = character:10029553    # Ikeda Motosuke
                this   = character:10029553
            }
            modifier = {
                add = 200
                exists = this
                exists = character:10029587    # Yamauchi Kazutoyo
                this   = character:10029587
            }
            modifier = {
                add = 200
                exists = this
                exists = character:10131584    # Ito Kagekiyo
                this   = character:10131584
            }
            modifier = {
                add = 200
                exists = this
                exists = character:10013046    # Toda Seigen
                this   = character:10013046
            }
            modifier = {
                add = 200
                exists = this
                exists = character:10013060    # Sasaki Ganryu
                this   = character:10013060
            }
            modifier = {
                add = 200
                exists = this
                exists = character:10041054    # Yamato Masahito
                this   = character:10041054
            }
            modifier = {
                add = 200
                exists = this
                exists = character:10041060    # Yamato Takanari
                this   = character:10041060
            }
            modifier = {
                add = 200
                exists = this
                exists = character:10041097    # Yamato Michihito
                this   = character:10041097
            }
            modifier = {
                add = 200
                exists = this
                exists = character:10041901    # Yamato Moriyoshi
                this   = character:10041901
            }
            modifier = {
                add = 200
                exists = this
                exists = character:10131998    # Hojo Tokimune
                this   = character:10131998
            }
            modifier = {
                add = 200
                exists = this
                exists = character:10132313    # Hojo Tokiyuki
                this   = character:10132313
            }
            modifier = {
                add = 200
                exists = this
                exists = character:10020000    # Takeda Nobutora
                this   = character:10020000
            }
            modifier = {
                add = 200
                exists = this
                exists = character:10021305    # Kiso Yoshimasa
                this   = character:10021305
            }
            modifier = {
                add = 200
                exists = this
                exists = character:10120086    # Minamoto Yoriie
                this   = character:10120086
            }
            modifier = {
                add = 200
                exists = this
                exists = character:10120250    # Minamoto Yorimasa
                this   = character:10120250
            }
            modifier = {
                add = 200
                exists = this
                exists = character:10125075    # Minamoto Shunkan
                this   = character:10125075
            }
            modifier = {
                add = 200
                exists = this
                exists = character:10125125    # Kitabatake Akiie
                this   = character:10125125
            }
            modifier = {
                add = 200
                exists = this
                exists = character:11050030    #  Temujin
                this   = character:11050030
            }
            modifier = {
                add = 200
                exists = this
                exists = character:10067406    # Bekki Akitsura
                this   = character:10067406
            }
            modifier = {
                add = 200
                exists = this
                exists = character:10067837    # Kamiya Sadakiyo
                this   = character:10067837
            }
            modifier = {
                add = 200
                exists = this
                exists = character:10067941    # Oga Nobuyoshi
                this   = character:10067941
            }
            modifier = {
                add = 200
                exists = this
                exists = character:10067893    # Suetsugu Masanao
                this   = character:10067893
            }
            modifier = {
                add = 200
                exists = this
                exists = character:10068202    # Matsura Takanobu
                this   = character:10068202
            }
            modifier = {
                add = 200
                exists = this
                exists = character:10068205    # Matsura Shigenobu
                this   = character:10068205
            }
            modifier = {
                add = 200
                exists = this
                exists = character:10068108    # Nabeshima Katsushige
                this   = character:10068108
            }
            modifier = {
                add = 200
                exists = this
                exists = character:10230100    # Mononobe Futsu
                this   = character:10230100
            }
            modifier = {
                add = 200
                exists = this
                exists = character:10241549    # Ki Shigesada
                this   = character:10241549
            }
            modifier = {
                add = 200
                exists = this
                exists = character:10050048    # Yamana Toyosada
                this   = character:10050048
            }
            modifier = {
                add = 200
                exists = this
                exists = character:10050060    # Yamana Toyokuni
                this   = character:10050060
            }
            modifier = {
                add = 200
                exists = this
                exists = character:10051552    # Yamanaka Yukimori
                this   = character:10051552
            }
            modifier = {
                add = 200
                exists = this
                exists = character:10053500    # Akamatsu Norimura
                this   = character:10053500
            }
            modifier = {
                add = 200
                exists = this
                exists = character:10055101    # Ukita Hideie
                this   = character:10055101
            }
            modifier = {
                add = 200
                exists = this
                exists = character:10055103    # Ukita Tadaie
                this   = character:10055103
            }
            modifier = {
                add = 200
                exists = this
                exists = character:10055211    # Kuroda Nagamasa
                this   = character:10055211
            }
            modifier = {
                add = 200
                exists = this
                exists = character:10055270    # Goto Mototsugu
                this   = character:10055270
            }
            modifier = {
                add = 200
                exists = this
                exists = character:10058100    # Ichijo Fusaie
                this   = character:10058100
            }
            modifier = {
                add = 200
                exists = this
                exists = character:10059010    # Miyoshi Fuyuyasu
                this   = character:10059010
            }
            modifier = {
                add = 200
                exists = this
                exists = character:10059014    # Sogo Yoshitsugu
                this   = character:10059014
            }
            modifier = {
                add = 200
                exists = this
                exists = character:10045400    # Matsunaga Hisahide
                this   = character:10045400
            }
            modifier = {
                add = 200
                exists = this
                exists = character:10016001    # Ise Moritoki
                this   = character:10016001
            }
            modifier = {
                add = 200
                exists = this
                exists = character:10016020    # Hojo Kagetora
                this   = character:10016020
            }
            modifier = {
                add = 200
                exists = this
                exists = character:10060024    # Shimazu Yoshihisa
                this   = character:10060024
            }
            modifier = {
                add = 200
                exists = this
                exists = character:10060045    # Shimazu Yoshihiro
                this   = character:10060045
            }
            modifier = {
                add = 200
                exists = this
                exists = character:10060060    # Shimazu Toyohisa
                this   = character:10060060
            }
            modifier = {
                add = 200
                exists = this
                exists = character:10060503    # Ito Yoshisuke
                this   = character:10060503
            }
            modifier = {
                add = 200
                exists = this
                exists = character:10060504    # Ito Yoshimasu
                this   = character:10060504
            }
            modifier = {
                add = 200
                exists = this
                exists = character:10110025    # Taira Kiyomori
                this   = character:10110025
            }
            modifier = {
                add = 200
                exists = this
                exists = character:10110042    # Taira Munemori
                this   = character:10110042
            }
            modifier = {
                add = 200
                exists = this
                exists = character:10023010    # Imagawa Yoshimoto
                this   = character:10023010
            }
            modifier = {
                add = 200
                exists = this
                exists = character:10023017    # Imagawa Ujizane
                this   = character:10023017
            }
            modifier = {
                add = 200
                exists = this
                exists = character:10023302    # Ii Naomori
                this   = character:10023302
            }
            modifier = {
                add = 200
                exists = this
                exists = character:10023305    # Ii Naochika
                this   = character:10023305
            }
            modifier = {
                add = 200
                exists = this
                exists = character:10023308    # Ii Nankei
                this   = character:10023308
            }
            modifier = {
                add = 200
                exists = this
                exists = character:10023310    # Ii Towa
                this   = character:10023310
            }
            modifier = {
                add = 200
                exists = this
                exists = character:10023392    # Ono Masatsugu
                this   = character:10023392
            }
            modifier = {
                add = 200
                exists = this
                exists = character:10023394    # Ono Tomoyuki
                this   = character:10023394
            }
            modifier = {
                add = 200
                exists = this
                exists = character:10024027    # Matsudaira Nobuyasu
                this   = character:10024027
            }
            modifier = {
                add = 200
                exists = this
                exists = character:10017261    # Nagano Narimori
                this   = character:10017261
            }
        }
    }

    shogunate_japanese_moustache_03 = { # Japanese Moustache
        dna_modifiers = {
            accessory = {
                mode = add
                gene = beards
                template = scripted_character_beards_shogunate_01
                accessory = japanese_moustache_03
            }
        }
        weight = {
            base = 0
            modifier = {
                add = 200
                exists = this
                exists = character:12130003    # Utsunomiya Tomotsuna
                this   = character:12130003
            }
            modifier = {
                add = 200
                exists = this
                exists = character:12140117    # Nasu Munetaka
                this   = character:12140117
            }
            modifier = {
                add = 200
                exists = this
                exists = character:12150120    # Chiba Tsunetane
                this   = character:12150120
            }
            modifier = {
                add = 200
                exists = this
                exists = character:12185040    # Nitta Yoshisada
                this   = character:12185040
            }
            modifier = {
                add = 200
                exists = this
                exists = character:12185041    # Wakiya Yoshisuke
                this   = character:12185041
            }
            modifier = {
                add = 200
                exists = this
                exists = character:12211030    # Miura Yoshizumi
                this   = character:12211030
            }
            modifier = {
                add = 200
                exists = this
                exists = character:12215110    # Kajiwara Kagetoki
                this   = character:12215110
            }
            modifier = {
                add = 200
                exists = this
                exists = character:12380110    # Higuchi Kanemitsu
                this   = character:12380110
            }
            modifier = {
                add = 200
                exists = this
                exists = character:12380111    # Imai Kanehira
                this   = character:12380111
            }
            modifier = {
                add = 200
                exists = this
                exists = character:12387322    # Ichikawa Sukefusa
                this   = character:12387322
            }
            modifier = {
                add = 200
                exists = this
                exists = character:12510063    # Sasaki Takatsuna
                this   = character:12510063
            }
            modifier = {
                add = 200
                exists = this
                exists = character:12581015    # Urabe Kenko
                this   = character:12581015
            }
            modifier = {
                add = 200
                exists = this
                exists = character:10040000    # Ashikaga Yoshiharu
                this   = character:10040000
            }
            modifier = {
                add = 200
                exists = this
                exists = character:10040006    # Ashikaga Yoshinori
                this   = character:10040006
            }
            modifier = {
                add = 200
                exists = this
                exists = character:10040008    # Ashikaga Yoshimasa
                this   = character:10040008
            }
            modifier = {
                add = 200
                exists = this
                exists = character:10040011    # Ashikaga Yoshiki
                this   = character:10040011
            }
            modifier = {
                add = 200
                exists = this
                exists = character:10040500    # Hosokawa Harumoto
                this   = character:10040500
            }
            modifier = {
                add = 200
                exists = this
                exists = character:10040501    # Hosokawa Sumimoto
                this   = character:10040501
            }
            modifier = {
                add = 200
                exists = this
                exists = character:10040831    # Kizawa Nagamasa
                this   = character:10040831
            }
            modifier = {
                add = 200
                exists = this
                exists = character:10042200    # Honganji Kokyo
                this   = character:10042200
            }
            modifier = {
                add = 200
                exists = this
                exists = character:10043201    # Katagiri Katsumoto
                this   = character:10043201
            }
            modifier = {
                add = 200
                exists = this
                exists = character:10044508    # Gamo Ujisato
                this   = character:10044508
            }
            modifier = {
                add = 200
                exists = this
                exists = character:10045820    # Ishida Mitsunari
                this   = character:10045820
            }
            modifier = {
                add = 200
                exists = this
                exists = character:10066400    # Sagara Nagatada
                this   = character:10066400
            }
            modifier = {
                add = 200
                exists = this
                exists = character:10026002    # Kanbe Tomomori
                this   = character:10026002
            }
            modifier = {
                add = 200
                exists = this
                exists = character:10029100    # Oda Nobuhide
                this   = character:10029100
            }
            modifier = {
                add = 200
                exists = this
                exists = character:10029120    # Oda Nobunaga
                this   = character:10029120
            }
            modifier = {
                add = 200
                exists = this
                exists = character:10029126    # Oda Nobukatsu
                this   = character:10029126
            }
            modifier = {
                add = 200
                exists = this
                exists = character:10029162    # Oda Nobutaka
                this   = character:10029162
            }
            modifier = {
                add = 200
                exists = this
                exists = character:10029330    # Takigawa Kazumasu
                this   = character:10029330
            }
            modifier = {
                add = 200
                exists = this
                exists = character:10029360    # Maeda Toshiie
                this   = character:10029360
            }
            modifier = {
                add = 200
                exists = this
                exists = character:10029439    # Yasui Nagayoshi
                this   = character:10029439
            }
            modifier = {
                add = 200
                exists = this
                exists = character:10029552    # Ikeda Tsuneoki
                this   = character:10029552
            }
            modifier = {
                add = 200
                exists = this
                exists = character:10029554    # Ikeda Terumasa
                this   = character:10029554
            }
            modifier = {
                add = 200
                exists = this
                exists = character:10029710    # Kato Kiyomasa
                this   = character:10029710
            }
            modifier = {
                add = 200
                exists = this
                exists = character:10029720    # Fukushima Masanori
                this   = character:10029720
            }
            modifier = {
                add = 200
                exists = this
                exists = character:10029750    # Furuta Shigenari
                this   = character:10029750
            }
            modifier = {
                add = 200
                exists = this
                exists = character:10040067    # Ashikaga Motouji
                this   = character:10040067
            }
            modifier = {
                add = 200
                exists = this
                exists = character:10206200    # Kimura Shigenari
                this   = character:10206200
            }
            modifier = {
                add = 200
                exists = this
                exists = character:10159001    # Kakizaki Nobuzumi
                this   = character:10159001
            }
            modifier = {
                add = 200
                exists = this
                exists = character:10030011    # Asakura Yoshikage
                this   = character:10030011
            }
            modifier = {
                add = 200
                exists = this
                exists = character:10031200    # Jinbo Nagamoto
                this   = character:10031200
            }
            modifier = {
                add = 200
                exists = this
                exists = character:10032032    # Nagao Akikage
                this   = character:10032032
            }
            modifier = {
                add = 200
                exists = this
                exists = character:10041290    # Yamato Toyotomimi
                this   = character:10041290
            }
            modifier = {
                add = 200
                exists = this
                exists = character:10041903    # Yamato Muneyoshi
                this   = character:10041903
            }
            modifier = {
                add = 200
                exists = this
                exists = character:10131653    # Hojo Yoshitoki
                this   = character:10131653
            }
            modifier = {
                add = 200
                exists = this
                exists = character:10131824    # Hojo Tokiyori
                this   = character:10131824
            }
            modifier = {
                add = 200
                exists = this
                exists = character:10132269    # Hojo Yasuie
                this   = character:10132269
            }
            modifier = {
                add = 200
                exists = this
                exists = character:10020011    # Takeda Nobushige
                this   = character:10020011
            }
            modifier = {
                add = 200
                exists = this
                exists = character:10020012    # Takeda Nobukado
                this   = character:10020012
            }
            modifier = {
                add = 200
                exists = this
                exists = character:10020070    # Obu Masakage
                this   = character:10020070
            }
            modifier = {
                add = 200
                exists = this
                exists = character:10020080    # Kasuga Toratsuna
                this   = character:10020080
            }
            modifier = {
                add = 200
                exists = this
                exists = character:10021150    # Sanada Masayuki
                this   = character:10021150
            }
            modifier = {
                add = 200
                exists = this
                exists = character:10021163    # Sanada Nobuyuki
                this   = character:10021163
            }
            modifier = {
                add = 200
                exists = this
                exists = character:10021164    # Sanada Nobushige
                this   = character:10021164
            }
            modifier = {
                add = 200
                exists = this
                exists = character:10021195    # Muroga Masatake
                this   = character:10021195
            }
            modifier = {
                add = 200
                exists = this
                exists = character:10021594    # Ideura Morikiyo
                this   = character:10021594
            }
            modifier = {
                add = 200
                exists = this
                exists = character:10120063    # Minamoto Yoshitomo
                this   = character:10120063
            }
            modifier = {
                add = 200
                exists = this
                exists = character:10120072    # Minamoto Yoshimori
                this   = character:10120072
            }
            modifier = {
                add = 200
                exists = this
                exists = character:10120078    # Minamoto Noriyori
                this   = character:10120078
            }
            modifier = {
                add = 200
                exists = this
                exists = character:10120084    # Minamoto Yoshinaka
                this   = character:10120084
            }
            modifier = {
                add = 200
                exists = this
                exists = character:10125120    # Kitabatake Chikafusa
                this   = character:10125120
            }
            modifier = {
                add = 200
                exists = this
                exists = character:10125166    # Chigusa Tadaaki
                this   = character:10125166
            }
            modifier = {
                add = 200
                exists = this
                exists = character:10067004    # Buzen=Utsunomiya Sadafusa
                this   = character:10067004
            }
            modifier = {
                add = 200
                exists = this
                exists = character:10067802    # Shimai Shigekatsu
                this   = character:10067802
            }
            modifier = {
                add = 200
                exists = this
                exists = character:10068105    # Nabeshima Naoshige
                this   = character:10068105
            }
            modifier = {
                add = 200
                exists = this
                exists = character:10003154    # Nanbu Nobunao
                this   = character:10003154
            }
            modifier = {
                add = 200
                exists = this
                exists = character:10230156    # Yuge Dokyo
                this   = character:10230156
            }
            modifier = {
                add = 200
                exists = this
                exists = character:10050005    # Yamana Suketoyo
                this   = character:10050005
            }
            modifier = {
                add = 200
                exists = this
                exists = character:10050039    # Yamana Mochitoyo
                this   = character:10050039
            }
            modifier = {
                add = 200
                exists = this
                exists = character:10051501    # Amago Tsunehisa
                this   = character:10051501
            }
            modifier = {
                add = 200
                exists = this
                exists = character:10051508    # Amago Haruhisa
                this   = character:10051508
            }
            modifier = {
                add = 200
                exists = this
                exists = character:10053518    # Akamatsu Masanori
                this   = character:10053518
            }
            modifier = {
                add = 200
                exists = this
                exists = character:10054407    # Uragami Munekage
                this   = character:10054407
            }
            modifier = {
                add = 200
                exists = this
                exists = character:10055001    # Ishikawa Hidehisa
                this   = character:10055001
            }
            modifier = {
                add = 200
                exists = this
                exists = character:10055204    # Kuroda Yoshitaka
                this   = character:10055204
            }
            modifier = {
                add = 200
                exists = this
                exists = character:10055260    # Akashi Teruzumi
                this   = character:10055260
            }
            modifier = {
                add = 200
                exists = this
                exists = character:10058104    # Ichijo Kanesada
                this   = character:10058104
            }
            modifier = {
                add = 200
                exists = this
                exists = character:10059001    # Miyoshi Yukinaga
                this   = character:10059001
            }
            modifier = {
                add = 200
                exists = this
                exists = character:10059007    # Miyoshi Nagayoshi
                this   = character:10059007
            }
            modifier = {
                add = 200
                exists = this
                exists = character:10059008    # Miyoshi Koretora
                this   = character:10059008
            }
            modifier = {
                add = 200
                exists = this
                exists = character:10016000    # Ise Ujitsuna
                this   = character:10016000
            }
            modifier = {
                add = 200
                exists = this
                exists = character:10016004    # Ise Ujiyasu
                this   = character:10016004
            }
            modifier = {
                add = 200
                exists = this
                exists = character:10016014    # Hojo Ujimasa
                this   = character:10016014
            }
            modifier = {
                add = 200
                exists = this
                exists = character:10016029    # Hojo Ujinao
                this   = character:10016029
            }
            modifier = {
                add = 200
                exists = this
                exists = character:10048121    # Hatakeyama Masanaga
                this   = character:10048121
            }
            modifier = {
                add = 200
                exists = this
                exists = character:10048127    # Hatakeyama Takamasa
                this   = character:10048127
            }
            modifier = {
                add = 200
                exists = this
                exists = character:10048129    # Hatakeyama Akitaka
                this   = character:10048129
            }
            modifier = {
                add = 200
                exists = this
                exists = character:10048413    # Tsutsui Junkei
                this   = character:10048413
            }
            modifier = {
                add = 200
                exists = this
                exists = character:10060000    # Shimazu Takahisa
                this   = character:10060000
            }
            modifier = {
                add = 200
                exists = this
                exists = character:10060050    # Shimazu Tadatsune
                this   = character:10060050
            }
            modifier = {
                add = 200
                exists = this
                exists = character:10060533    # Ito Sukemasu
                this   = character:10060533
            }
            modifier = {
                add = 200
                exists = this
                exists = character:10001002    # Date Harumune
                this   = character:10001002
            }
            modifier = {
                add = 200
                exists = this
                exists = character:10001021    # Date Terumune
                this   = character:10001021
            }
            modifier = {
                add = 200
                exists = this
                exists = character:10001031    # Date Shigezane
                this   = character:10001031
            }
            modifier = {
                add = 200
                exists = this
                exists = character:10110031    # Taira Tsunemori
                this   = character:10110031
            }
            modifier = {
                add = 200
                exists = this
                exists = character:10110043    # Taira Tomomori
                this   = character:10110043
            }
            modifier = {
                add = 200
                exists = this
                exists = character:10110060    # Taira Koremori
                this   = character:10110060
            }
            modifier = {
                add = 200
                exists = this
                exists = character:10110061    # Taira Sukemori
                this   = character:10110061
            }
            modifier = {
                add = 200
                exists = this
                exists = character:10110402    # Taira Masakado
                this   = character:10110402
            }
            modifier = {
                add = 200
                exists = this
                exists = character:10023306    # Ii Naomasa
                this   = character:10023306
            }
            modifier = {
                add = 200
                exists = this
                exists = character:10023391    # Ono Masanao
                this   = character:10023391
            }
            modifier = {
                add = 200
                exists = this
                exists = character:10023393    # Ono Tomonao
                this   = character:10023393
            }
            modifier = {
                add = 200
                exists = this
                exists = character:10024006    # Matsudaira Motonobu
                this   = character:10024006
            }
            modifier = {
                add = 200
                exists = this
                exists = character:10024031    # Tokugawa Hidetada
                this   = character:10024031
            }
            modifier = {
                add = 200
                exists = this
                exists = character:10024900    # Sakakibara Yasumasa
                this   = character:10024900
            }
            modifier = {
                add = 200
                exists = this
                exists = character:10057002    # Ouchi Yoshitaka
                this   = character:10057002
            }
            modifier = {
                add = 200
                exists = this
                exists = character:10057102    # Sue Takafusa
                this   = character:10057102
            }
            modifier = {
                add = 200
                exists = this
                exists = character:10056013    # Mori Takamoto
                this   = character:10056013
            }
            modifier = {
                add = 200
                exists = this
                exists = character:10056015    # Mori Motoharu
                this   = character:10056015
            }
            modifier = {
                add = 200
                exists = this
                exists = character:10017344    # Nagao Nobutsuna
                this   = character:10017344
            }
            modifier = {
                add = 200
                exists = this
                exists = character:10018351    # Musashi=Ota Sukenaga
                this   = character:10018351
            }
        }
    }

    shogunate_japanese_beard_01 = { # Japanese Beard
        dna_modifiers = {
            accessory = {
                mode = add
                gene = beards
                template = scripted_character_beards_shogunate_01
                accessory = japanese_beard_01
            }
        }
        weight = {
            base = 0
            modifier = {
                add = 200
                exists = this
                exists = character:12130050    # Utsunomiya Kintsuna
                this   = character:12130050
            }
            modifier = {
                add = 200
                exists = this
                exists = character:12139028    # Ashikaga Takauji
                this   = character:12139028
            }
            modifier = {
                add = 200
                exists = this
                exists = character:12139029    # Ashikaga Tadayoshi
                this   = character:12139029
            }
            modifier = {
                add = 200
                exists = this
                exists = character:12139049    # Shiba Takatsune
                this   = character:12139049
            }
            modifier = {
                add = 200
                exists = this
                exists = character:12155017    # Kazusa Hirotsune
                this   = character:12155017
            }
            modifier = {
                add = 200
                exists = this
                exists = character:12186256    # Yamana Tokiuji
                this   = character:12186256
            }
            modifier = {
                add = 200
                exists = this
                exists = character:12204341    # Hiki Yoshikazu
                this   = character:12204341
            }
            modifier = {
                add = 200
                exists = this
                exists = character:12360710    # Ogasawara Sadamune
                this   = character:12360710
            }
            modifier = {
                add = 200
                exists = this
                exists = character:12780645    # Kikuchi Takanao
                this   = character:12780645
            }
            modifier = {
                add = 200
                exists = this
                exists = character:10040002    # Ashikaga Yoshiakira
                this   = character:10040002
            }
            modifier = {
                add = 200
                exists = this
                exists = character:10040004    # Ashikaga Yoshimochi
                this   = character:10040004
            }
            modifier = {
                add = 200
                exists = this
                exists = character:10040012    # Ashikaga Yoshizumi
                this   = character:10040012
            }
            modifier = {
                add = 200
                exists = this
                exists = character:10040042    # Ashikaga Yoshiaki
                this   = character:10040042
            }
            modifier = {
                add = 200
                exists = this
                exists = character:10040203    # Mitsubuchi Fujitaka
                this   = character:10040203
            }
            modifier = {
                add = 200
                exists = this
                exists = character:10040543    # Hosokawa Katsumoto
                this   = character:10040543
            }
            modifier = {
                add = 200
                exists = this
                exists = character:10040544    # Hosokawa Masamoto
                this   = character:10040544
            }
            modifier = {
                add = 200
                exists = this
                exists = character:10040567    # Kujo Sumiyuki
                this   = character:10040567
            }
            modifier = {
                add = 200
                exists = this
                exists = character:10040998    # Honekawa Doken
                this   = character:10040998
            }
            modifier = {
                add = 200
                exists = this
                exists = character:10043006    # Azai Hisamasa
                this   = character:10043006
            }
            modifier = {
                add = 200
                exists = this
                exists = character:10043015    # Azai Nagamasa
                this   = character:10043015
            }
            modifier = {
                add = 200
                exists = this
                exists = character:10043250    # Wakisaka Yasuharu
                this   = character:10043250
            }
            modifier = {
                add = 200
                exists = this
                exists = character:10064002    # Otomo Yoshishige
                this   = character:10064002
            }
            modifier = {
                add = 200
                exists = this
                exists = character:10066022    # Kikuchi Takemitsu
                this   = character:10066022
            }
            modifier = {
                add = 200
                exists = this
                exists = character:10066023    # Kikuchi Takeshige
                this   = character:10066023
            }
            modifier = {
                add = 200
                exists = this
                exists = character:10066331    # Nawa Nagataka
                this   = character:10066331
            }
            modifier = {
                add = 200
                exists = this
                exists = character:10066428    # Sagara Yorifusa
                this   = character:10066428
            }
            modifier = {
                add = 200
                exists = this
                exists = character:10025421    # Mori Nagayoshi
                this   = character:10025421
            }
            modifier = {
                add = 200
                exists = this
                exists = character:10025451    # Nagai Norihide
                this   = character:10025451
            }
            modifier = {
                add = 200
                exists = this
                exists = character:10025502    # Nagai Takamasa
                this   = character:10025502
            }
            modifier = {
                add = 200
                exists = this
                exists = character:10028904    # Hattori Masashige
                this   = character:10028904
            }
            modifier = {
                add = 200
                exists = this
                exists = character:10029310    # Niwa Nagahide
                this   = character:10029310
            }
            modifier = {
                add = 200
                exists = this
                exists = character:10029350    # Sassa Narimasa
                this   = character:10029350
            }
            modifier = {
                add = 200
                exists = this
                exists = character:10029400    # Kinoshita Tokichiro
                this   = character:10029400
            }
            modifier = {
                add = 200
                exists = this
                exists = character:10029401    # Kinoshita Koichiro
                this   = character:10029401
            }
            modifier = {
                add = 200
                exists = this
                exists = character:10029510    # Sakuma Nobumori
                this   = character:10029510
            }
            modifier = {
                add = 200
                exists = this
                exists = character:10029514    # Sakuma Morimasa
                this   = character:10029514
            }
            modifier = {
                add = 200
                exists = this
                exists = character:10000136    # Ando Chikasue
                this   = character:10000136
            }
            modifier = {
                add = 200
                exists = this
                exists = character:10000716    # Mogami Yoshiaki
                this   = character:10000716
            }
            modifier = {
                add = 200
                exists = this
                exists = character:10010402    # Oda Ujiharu
                this   = character:10010402
            }
            modifier = {
                add = 200
                exists = this
                exists = character:10040066    # Ashikaga Ujimitsu
                this   = character:10040066
            }
            modifier = {
                add = 200
                exists = this
                exists = character:10131591    # Saito Sanemori
                this   = character:10131591
            }
            modifier = {
                add = 200
                exists = this
                exists = character:10013001    # Miyamoto Harunobu
                this   = character:10013001
            }
            modifier = {
                add = 200
                exists = this
                exists = character:10032672    # Higuchi Kanetsugu
                this   = character:10032672
            }
            modifier = {
                add = 200
                exists = this
                exists = character:10041075    # Yamato Takaharu
                this   = character:10041075
            }
            modifier = {
                add = 200
                exists = this
                exists = character:10041077    # Yamato Noriyoshi
                this   = character:10041077
            }
            modifier = {
                add = 200
                exists = this
                exists = character:10041091    # Yamato Mochihito
                this   = character:10041091
            }
            modifier = {
                add = 200
                exists = this
                exists = character:10041820    # Yamato IkkyuSojun
                this   = character:10041820
            }
            modifier = {
                add = 200
                exists = this
                exists = character:10041908    # Yamato Kaneyoshi
                this   = character:10041908
            }
            modifier = {
                add = 200
                exists = this
                exists = character:10131650    # Hojo Tokimasa
                this   = character:10131650
            }
            modifier = {
                add = 200
                exists = this
                exists = character:10131666    # Hojo Yasutoki
                this   = character:10131666
            }
            modifier = {
                add = 200
                exists = this
                exists = character:10132155    # Hojo Sadatoki
                this   = character:10132155
            }
            modifier = {
                add = 200
                exists = this
                exists = character:10132268    # Hojo Takatoki
                this   = character:10132268
            }
            modifier = {
                add = 200
                exists = this
                exists = character:10020010    # Takeda Harunobu
                this   = character:10020010
            }
            modifier = {
                add = 200
                exists = this
                exists = character:10020033    # Takeda Katsuyori
                this   = character:10020033
            }
            modifier = {
                add = 200
                exists = this
                exists = character:10020075    # Baba Nobuharu
                this   = character:10020075
            }
            modifier = {
                add = 200
                exists = this
                exists = character:10020093    # Kudo Masahide
                this   = character:10020093
            }
            modifier = {
                add = 200
                exists = this
                exists = character:10020400    # Saigusa Masasada
                this   = character:10020400
            }
            modifier = {
                add = 200
                exists = this
                exists = character:10021142    # Sanada Yukitsuna
                this   = character:10021142
            }
            modifier = {
                add = 200
                exists = this
                exists = character:10021143    # Yazawa Yoritsuna
                this   = character:10021143
            }
            modifier = {
                add = 200
                exists = this
                exists = character:10021165    # Yazawa Yoriyasu
                this   = character:10021165
            }
            modifier = {
                add = 200
                exists = this
                exists = character:10021166    # Yazawa Yorikuni
                this   = character:10021166
            }
            modifier = {
                add = 200
                exists = this
                exists = character:10021500    # Murakami Yoshikiyo
                this   = character:10021500
            }
            modifier = {
                add = 200
                exists = this
                exists = character:10021607    # Takanashi Naiki
                this   = character:10021607
            }
            modifier = {
                add = 200
                exists = this
                exists = character:10120001    # Minamoto Tsunemoto
                this   = character:10120001
            }
            modifier = {
                add = 200
                exists = this
                exists = character:10120002    # Minamoto Mitsunaka
                this   = character:10120002
            }
            modifier = {
                add = 200
                exists = this
                exists = character:10120011    # Minamoto Yorimitsu
                this   = character:10120011
            }
            modifier = {
                add = 200
                exists = this
                exists = character:10120035    # Minamoto Yoriyoshi
                this   = character:10120035
            }
            modifier = {
                add = 200
                exists = this
                exists = character:10120040    # Minamoto Yoshiie
                this   = character:10120040
            }
            modifier = {
                add = 200
                exists = this
                exists = character:10120048    # Minamoto Tameyoshi
                this   = character:10120048
            }
            modifier = {
                add = 200
                exists = this
                exists = character:10120070    # Minamoto Tametomo
                this   = character:10120070
            }
            modifier = {
                add = 200
                exists = this
                exists = character:10120075    # Minamoto Yoritomo
                this   = character:10120075
            }
            modifier = {
                add = 200
                exists = this
                exists = character:10120081    # Minamoto Yoshitsune
                this   = character:10120081
            }
            modifier = {
                add = 200
                exists = this
                exists = character:10120087    # Minamoto Sanetomo
                this   = character:10120087
            }
            modifier = {
                add = 200
                exists = this
                exists = character:10120231    # Minamoto Nakamasa
                this   = character:10120231
            }
            modifier = {
                add = 200
                exists = this
                exists = character:10042000    # Takeda Motomitsu
                this   = character:10042000
            }
            modifier = {
                add = 200
                exists = this
                exists = character:10067408    # Takahashi Munetora
                this   = character:10067408
            }
            modifier = {
                add = 200
                exists = this
                exists = character:10210616    # Sugawara Michizane
                this   = character:10210616
            }
            modifier = {
                add = 200
                exists = this
                exists = character:10220001    # Oe Hiromoto
                this   = character:10220001
            }
            modifier = {
                add = 200
                exists = this
                exists = character:10240266    # Soga Tojiko
                this   = character:10240266
            }
            modifier = {
                add = 200
                exists = this
                exists = character:10051516    # Amago Katsuhisa
                this   = character:10051516
            }
            modifier = {
                add = 200
                exists = this
                exists = character:10053568    # Bessho Nagaharu
                this   = character:10053568
            }
            modifier = {
                add = 200
                exists = this
                exists = character:10055100    # Ukita Naoie
                this   = character:10055100
            }
            modifier = {
                add = 200
                exists = this
                exists = character:10059003    # Miyoshi Motonaga
                this   = character:10059003
            }
            modifier = {
                add = 200
                exists = this
                exists = character:10045403    # Matsunaga Hisamichi
                this   = character:10045403
            }
            modifier = {
                add = 200
                exists = this
                exists = character:10059104    # Chosokabe Motochika
                this   = character:10059104
            }
            modifier = {
                add = 200
                exists = this
                exists = character:10059124    # Chosokabe Morichika
                this   = character:10059124
            }
            modifier = {
                add = 200
                exists = this
                exists = character:10048110    # Hatakeyama Motokuni
                this   = character:10048110
            }
            modifier = {
                add = 200
                exists = this
                exists = character:10048550    # Suzuki Magoichi
                this   = character:10048550
            }
            modifier = {
                add = 200
                exists = this
                exists = character:10060023    # Shimazu Tadayoshi
                this   = character:10060023
            }
            modifier = {
                add = 200
                exists = this
                exists = character:10060047    # Shimazu Iehisa
                this   = character:10060047
            }
            modifier = {
                add = 200
                exists = this
                exists = character:10060505    # Ito Suketaka
                this   = character:10060505
            }
            modifier = {
                add = 200
                exists = this
                exists = character:10001001    # Date Tanemune
                this   = character:10001001
            }
            modifier = {
                add = 200
                exists = this
                exists = character:10001035    # Date Masamune
                this   = character:10001035
            }
            modifier = {
                add = 200
                exists = this
                exists = character:10006838    # Nikaido Moriyoshi
                this   = character:10006838
            }
            modifier = {
                add = 200
                exists = this
                exists = character:10110009    # Taira Sadamori
                this   = character:10110009
            }
            modifier = {
                add = 200
                exists = this
                exists = character:10110026    # Taira Tadamori
                this   = character:10110026
            }
            modifier = {
                add = 200
                exists = this
                exists = character:10110032    # Taira Norimori
                this   = character:10110032
            }
            modifier = {
                add = 200
                exists = this
                exists = character:10110040    # Taira Shigemori
                this   = character:10110040
            }
            modifier = {
                add = 200
                exists = this
                exists = character:10110046    # Taira Shigehira
                this   = character:10110046
            }
            modifier = {
                add = 200
                exists = this
                exists = character:10024664    # Sekiguchi Chikanori
                this   = character:10024664
            }
            modifier = {
                add = 200
                exists = this
                exists = character:10024803    # Honda Tadakatsu
                this   = character:10024803
            }
            modifier = {
                add = 200
                exists = this
                exists = character:10024952    # Torii Mototada
                this   = character:10024952
            }
            modifier = {
                add = 200
                exists = this
                exists = character:10056004    # Mori Motonari
                this   = character:10056004
            }
            modifier = {
                add = 200
                exists = this
                exists = character:10056016    # Mori Takakage
                this   = character:10056016
            }
            modifier = {
                add = 200
                exists = this
                exists = character:10056025    # Mori Terumoto
                this   = character:10056025
            }
            modifier = {
                add = 200
                exists = this
                exists = character:10017250    # Nagano Narimasa
                this   = character:10017250
            }
        }
    }

    shogunate_male_beard_steppe_02 = { # Low Rough
        dna_modifiers = {
            accessory = {
                mode = add
                gene = beards
                template = scripted_character_beards_shogunate_01
                accessory = male_beard_steppe_02
            }
        }
        weight = {
            base = 0
            modifier = {
                add = 200
                exists = this
                exists = character:12139567    # Kou Moronao
                this   = character:12139567
            }
            modifier = {
                add = 200
                exists = this
                exists = character:12200060    # Hatakeyama Shigetada
                this   = character:12200060
            }
            modifier = {
                add = 200
                exists = this
                exists = character:12211020    # Miura Yoshiaki
                this   = character:12211020
            }
            modifier = {
                add = 200
                exists = this
                exists = character:12211501    # Sugimoto Yoshimori
                this   = character:12211501
            }
            modifier = {
                add = 200
                exists = this
                exists = character:12510030    # Sasaki Hideyoshi
                this   = character:12510030
            }
            modifier = {
                add = 200
                exists = this
                exists = character:12510062    # Sasaki Moritsuna
                this   = character:12510062
            }
            modifier = {
                add = 200
                exists = this
                exists = character:12550060    # Musashibo Benkei
                this   = character:12550060
            }
            modifier = {
                add = 200
                exists = this
                exists = character:12560001    # Kusunoki Masashige
                this   = character:12560001
            }
            modifier = {
                add = 200
                exists = this
                exists = character:12560007    # Kusunoki Masanori
                this   = character:12560007
            }
            modifier = {
                add = 200
                exists = this
                exists = character:10040040    # Ashikaga Yoshifuji
                this   = character:10040040
            }
            modifier = {
                add = 200
                exists = this
                exists = character:10045700    # Araki Murashige
                this   = character:10045700
            }
            modifier = {
                add = 200
                exists = this
                exists = character:10064025    # Otomo Yoshimune
                this   = character:10064025
            }
            modifier = {
                add = 200
                exists = this
                exists = character:10066424    # Sagara Yoshihi
                this   = character:10066424
            }
            modifier = {
                add = 200
                exists = this
                exists = character:10029009    # Shiba Yoshiyuki
                this   = character:10029009
            }
            modifier = {
                add = 200
                exists = this
                exists = character:10029280    # Shibata Katsuie
                this   = character:10029280
            }
            modifier = {
                add = 200
                exists = this
                exists = character:10032011    # Nagao Kagetora
                this   = character:10032011
            }
            modifier = {
                add = 200
                exists = this
                exists = character:10020144    # Oyamada Shigemasa
                this   = character:10020144
            }
            modifier = {
                add = 200
                exists = this
                exists = character:10020240    # Yamamoto Haruyuki
                this   = character:10020240
            }
            modifier = {
                add = 200
                exists = this
                exists = character:10068320    # Ryuzoji Takanobu
                this   = character:10068320
            }
            modifier = {
                add = 200
                exists = this
                exists = character:10068331    # Ryuzoji Masaie
                this   = character:10068331
            }
            modifier = {
                add = 200
                exists = this
                exists = character:10048115    # Hatakeyama Yoshihiro
                this   = character:10048115
            }
            modifier = {
                add = 200
                exists = this
                exists = character:10060800    # Ijuin Tadaaki
                this   = character:10060800
            }
            modifier = {
                add = 200
                exists = this
                exists = character:10060801    # Ijuin Tadaao
                this   = character:10060801
            }
            modifier = {
                add = 200
                exists = this
                exists = character:10060814    # Ijuin Tadamune
                this   = character:10060814
            }
            modifier = {
                add = 200
                exists = this
                exists = character:10110034    # Taira Tadanori
                this   = character:10110034
            }
            modifier = {
                add = 200
                exists = this
                exists = character:10023301    # Ii Naohira
                this   = character:10023301
            }
            modifier = {
                add = 200
                exists = this
                exists = character:10023303    # Ii Naomitsu
                this   = character:10023303
            }
        }
    }

    shogunate_male_beard_western_05 = { # Mustache
        dna_modifiers = {
            accessory = {
                mode = add
                gene = beards
                template = scripted_character_beards_shogunate_01
                accessory = male_beard_western_05
            }
        }
        weight = {
            base = 0
        }
    }

}
