﻿10000001 = {
	name=dynasty_name_10000001
	culture = dewa
	motto = dynn_10000001_motto
}
10000002 = {
	name=dynasty_name_10000002
	culture = dewa
}
10000003 = {
	name=dynasty_name_10000003
	culture = dewa
}
10000004 = {
	name=dynasty_name_10000004
	culture = dewa
}
10000005 = {
	name=dynasty_name_10000005
	culture = dewa
}
10000006 = {
	name=dynasty_name_10000006
	culture = dewa
}
10000007 = {
	name=dynasty_name_10000007
	culture = dewa
	motto = dynn_10000007_motto
}
10000008 = {
	name=dynasty_name_10000008
	culture = dewa
}
10000009 = {
	name=dynasty_name_10000009
	culture = dewa
}
10000010 = {
	name=dynasty_name_10000010
	culture = dewa
	motto = dynn_10000010_motto
}
10000011 = {
	name=dynasty_name_10000011
	culture = dewa
}
10000012 = {
	name=dynasty_name_10000012
	culture = dewa
}
10000013={
	name=dynasty_name_10000013
	culture = dewa
}
10000014 = {
	name=dynasty_name_10000014
	culture = dewa
}
10000015={
	name=dynasty_name_10000015
	culture=dewa
}
10000016={
	name=dynasty_name_10000016
	culture=dewa
}
10000017={
	name=dynasty_name_10000017
	culture=dewa
}
10000018={
	name=dynasty_name_10000018
	culture=dewa
}
10000019={
	name=dynasty_name_10000019
	culture=dewa
}
