﻿33000000={
	name=dynasty_name_33000000
	culture=chubu_buddhist
}
33000001={
	name=dynasty_name_33000001
	culture=chubu_buddhist
}
33000002={
	name=dynasty_name_33000002
	culture=chubu_buddhist
}
33000003={
	name=dynasty_name_33000003
	culture=chubu_buddhist
}
33000004={
	name=dynasty_name_33000004
	culture=chubu_buddhist
}
33000005={
	name=dynasty_name_33000005
	culture=chubu_buddhist
}
33000006={
	name=dynasty_name_33000006
	culture=chubu_buddhist
}
33000007={
	name=dynasty_name_33000007
	culture=chubu_buddhist
}
33000008={
	name=dynasty_name_33000008
	culture=chubu_buddhist
}
33000009={
	name=dynasty_name_33000009
	culture=chubu_buddhist
}
